﻿<?xml version="1.0" encoding="utf-8"?>
<!-- Generator: Adobe Illustrator 10.0, SVG Export Plug-In . SVG Version: 3.0.0 Build 77)  -->
<!DOCTYPE svg PUBLIC "-//W3C//DTD SVG 1.0//EN" "http://www.w3.org/TR/2001/REC-SVG-20010904/DTD/svg10.dtd"[
	<!ENTITY ns_flows "http://ns.adobe.com/Flows/1.0/">
	<!ENTITY ns_svg "http://www.w3.org/2000/svg">
	<!ENTITY ns_xlink "http://www.w3.org/1999/xlink">
	<!ENTITY st0 "fill:none;stroke:#000000;stroke-linecap:round;stroke-linejoin:round;">
	<!ENTITY st1 "fill:none;stroke:#000000;stroke-width:0.6;stroke-linecap:round;stroke-linejoin:round;">
	<!ENTITY st2 "font-size:6px;">
	<!ENTITY st3 "font-family:'Arial';">
	<!ATTLIST svg
		ewd:ver CDATA #IMPLIED
		xmlns:ewd CDATA #FIXED "http://shcl.co.jp/ewd"
		xmlns:a CDATA #FIXED "http://ns.adobe.com/AdobeSVGViewerExtensions/3.0/">
	<!ATTLIST g
		ewd:pinNo CDATA #IMPLIED>
	<!ATTLIST text
		ewd:textID CDATA #IMPLIED
		ewd:horAlign CDATA #IMPLIED>
	<!ATTLIST title
		ewd:textID CDATA #IMPLIED>
]>
<svg ewd:ver="2.1.2.10" height="94.484" onload="call_execInitLoadProc_svg('connector')" style="overflow:visible;enable-background:new 0 0 196.467 94.484" viewBox="0 0 196.467 94.484" width="196.467" xml:space="preserve" xmlns="&ns_svg;" xmlns:ewd="http://shcl.co.jp/ewd" xmlns:a="http://ns.adobe.com/AdobeSVGViewerExtensions/3.0/" xmlns:xlink="&ns_xlink;">
<script type="text/javascript" xlink:href="../../../../../system/js/ewd/fig/svgfig.js" xmlns:xlink="http://www.w3.org/1999/xlink" />
<g id="レイヤー_1">
	<path d="M82.653,24.58c0-3.912-3.171-7.082-7.082-7.082" style="&st0;" />
	<path d="M72.049,86.902c2.348,0,4.352-0.83,6.011-2.491" style="&st0;" />
	<path d="M5.092,84.412c1.66,1.661,3.664,2.491,6.012,2.491" style="&st0;" />
	<path d="M7.582,17.498c-3.912,0-7.082,3.17-7.082,7.082" style="&st0;" />
	<path d="M61.406,27.413c0-0.783-0.634-1.417-1.416-1.417" style="&st1;" />
	<path d="M58.574,25.996c-0.782,0-1.417,0.634-1.417,1.417" style="&st1;" />
	<path d="M30.245,40.16c0.782,0,1.417-0.634,1.417-1.417" style="&st1;" />
	<path d="M23.163,25.996c-0.782,0-1.416,0.634-1.416,1.417" style="&st1;" />
	<path d="M25.996,27.413c0-0.783-0.634-1.417-1.417-1.417" style="&st1;" />
	<path d="M55.741,40.16c0.782,0,1.417-0.634,1.417-1.417" style="&st1;" />
	<path d="M25.996,38.744c0,0.783,0.634,1.417,1.417,1.417" style="&st1;" />
	<path d="M51.491,38.744c0,0.783,0.634,1.417,1.417,1.417" style="&st1;" />
	<path d="M61.406,38.744c0,0.783,0.634,1.417,1.417,1.417" style="&st1;" />
	<path d="M20.33,40.16c0.782,0,1.416-0.634,1.416-1.417" style="&st1;" />
	<path d="M6.166,38.744c0,0.783,0.634,1.417,1.417,1.417" style="&st1;" />
	<path d="M75.571,40.16c0.782,0,1.417-0.634,1.417-1.417" style="&st1;" />
	<path d="M82.653,31.662c0-0.782-0.634-1.417-1.417-1.417" style="&st1;" />
	<path d="M1.916,30.245c-0.782,0-1.416,0.634-1.416,1.417" style="&st1;" />
	<path d="M6.166,31.662c0-0.782-0.634-1.417-1.417-1.417" style="&st1;" />
	<path d="M78.404,30.245c-0.783,0-1.417,0.634-1.417,1.417" style="&st1;" />
	<path d="M142.851,81.237c-0.782,0-1.417,0.634-1.417,1.417" style="&st1;" />
	<path d="M185.344,81.237c-0.782,0-1.417,0.634-1.417,1.417" style="&st0;" />
	<path d="M157.016,82.653c0-0.782-0.634-1.417-1.417-1.417" style="&st1;" />
	<path d="M195.967,25.996c0-2.346-1.902-4.249-4.249-4.249" style="&st0;" />
	<path d="M140.019,86.194c0.782,0,1.416-0.634,1.416-1.417" style="&st1;" />
	<path d="M191.718,81.237c2.347,0,4.249-1.903,4.249-4.25" style="&st0;" />
	<path d="M108.148,74.155c0,0.782,0.634,1.416,1.417,1.416" style="&st1;" />
	<path d="M106.732,21.747c-2.347,0-4.25,1.903-4.25,4.249" style="&st0;" />
	<path d="M157.016,84.778c0,0.782,0.634,1.417,1.416,1.417" style="&st1;" />
	<path d="M179.678,93.984c2.347,0,4.25-1.902,4.25-4.249" style="&st0;" />
	<path d="M169.055,88.46c0-1.251-1.015-2.266-2.267-2.266" style="&st1;" />
	<path d="M114.522,82.653c0-0.782-0.634-1.417-1.417-1.417" style="&st0;" />
	<path d="M102.483,76.987c0,2.347,1.902,4.25,4.25,4.25" style="&st0;" />
	<path d="M114.522,89.735c0,2.347,1.902,4.249,4.25,4.249" style="&st0;" />
	<path d="M186.052,30.245c-0.782,0-1.417,0.634-1.417,1.417" style="&st1;" />
	<path d="M131.661,86.194c-1.251,0-2.266,1.015-2.266,2.266" style="&st1;" />
	<path d="M167.639,21.747c-0.782,0-1.417,0.634-1.417,1.417" style="&st1;" />
	<path d="M190.302,31.662c0-0.782-0.634-1.417-1.417-1.417" style="&st1;" />
	<path d="M188.885,75.571c0.782,0,1.417-0.634,1.417-1.416" style="&st1;" />
	<path d="M132.228,23.163c0-0.782-0.634-1.417-1.417-1.417" style="&st1;" />
	<path d="M113.814,31.662c0-0.782-0.634-1.417-1.417-1.417" style="&st1;" />
	<path d="M109.565,30.245c-0.782,0-1.417,0.634-1.417,1.417" style="&st1;" />
	<path d="M125.712,50.784c0-0.704-0.571-1.275-1.275-1.275" style="&st1;" />
	<path d="M124.438,49.509c-0.704,0-1.275,0.571-1.275,1.275" style="&st1;" />
	<path d="M123.163,50.784c0,0.704,0.571,1.274,1.275,1.274" style="&st1;" />
	<path d="M124.438,52.058c0.704,0,1.275-0.571,1.275-1.274" style="&st1;" />
	<path d="M125.392,50.784c0-0.527-0.427-0.955-0.955-0.955" style="&st1;" />
	<path d="M124.438,49.829c-0.527,0-0.955,0.428-0.955,0.955" style="&st1;" />
	<path d="M123.483,50.784c0,0.527,0.427,0.955,0.955,0.955" style="&st1;" />
	<path d="M124.438,51.738c0.527,0,0.955-0.428,0.955-0.955" style="&st1;" />
	<path d="M135.627,50.784c0-0.704-0.571-1.275-1.275-1.275" style="&st1;" />
	<path d="M134.353,49.509c-0.704,0-1.275,0.571-1.275,1.275" style="&st1;" />
	<path d="M133.078,50.784c0,0.704,0.571,1.274,1.275,1.274" style="&st1;" />
	<path d="M134.353,52.058c0.704,0,1.275-0.571,1.275-1.274" style="&st1;" />
	<path d="M135.307,50.784c0-0.527-0.427-0.955-0.955-0.955" style="&st1;" />
	<path d="M134.353,49.829c-0.527,0-0.955,0.428-0.955,0.955" style="&st1;" />
	<path d="M133.398,50.784c0,0.527,0.427,0.955,0.955,0.955" style="&st1;" />
	<path d="M134.353,51.738c0.527,0,0.955-0.428,0.955-0.955" style="&st1;" />
	<path d="M145.542,50.784c0-0.704-0.571-1.275-1.275-1.275" style="&st1;" />
	<path d="M144.268,49.509c-0.704,0-1.275,0.571-1.275,1.275" style="&st1;" />
	<path d="M142.993,50.784c0,0.704,0.571,1.274,1.275,1.274" style="&st1;" />
	<path d="M144.268,52.058c0.704,0,1.275-0.571,1.275-1.274" style="&st1;" />
	<path d="M145.222,50.784c0-0.527-0.427-0.955-0.955-0.955" style="&st1;" />
	<path d="M144.268,49.829c-0.527,0-0.955,0.428-0.955,0.955" style="&st1;" />
	<path d="M143.313,50.784c0,0.527,0.427,0.955,0.955,0.955" style="&st1;" />
	<path d="M144.268,51.738c0.527,0,0.955-0.428,0.955-0.955" style="&st1;" />
	<path d="M155.458,50.784c0-0.704-0.571-1.275-1.275-1.275" style="&st1;" />
	<path d="M154.183,49.509c-0.704,0-1.275,0.571-1.275,1.275" style="&st1;" />
	<path d="M152.908,50.784c0,0.704,0.571,1.274,1.275,1.274" style="&st1;" />
	<path d="M154.183,52.058c0.704,0,1.275-0.571,1.275-1.274" style="&st1;" />
	<path d="M155.137,50.784c0-0.527-0.427-0.955-0.955-0.955" style="&st1;" />
	<path d="M154.183,49.829c-0.527,0-0.955,0.428-0.955,0.955" style="&st1;" />
	<path d="M153.228,50.784c0,0.527,0.427,0.955,0.955,0.955" style="&st1;" />
	<path d="M154.183,51.738c0.527,0,0.955-0.428,0.955-0.955" style="&st1;" />
	<path d="M165.373,50.784c0-0.704-0.571-1.275-1.275-1.275" style="&st1;" />
	<path d="M164.098,49.509c-0.704,0-1.275,0.571-1.275,1.275" style="&st1;" />
	<path d="M162.823,50.784c0,0.704,0.571,1.274,1.275,1.274" style="&st1;" />
	<path d="M164.098,52.058c0.704,0,1.275-0.571,1.275-1.274" style="&st1;" />
	<path d="M165.052,50.784c0-0.527-0.427-0.955-0.955-0.955" style="&st1;" />
	<path d="M164.098,49.829c-0.527,0-0.955,0.428-0.955,0.955" style="&st1;" />
	<path d="M163.143,50.784c0,0.527,0.427,0.955,0.955,0.955" style="&st1;" />
	<path d="M164.098,51.738c0.527,0,0.955-0.428,0.955-0.955" style="&st1;" />
	<path d="M175.288,50.784c0-0.704-0.571-1.275-1.275-1.275" style="&st1;" />
	<path d="M174.013,49.509c-0.704,0-1.275,0.571-1.275,1.275" style="&st1;" />
	<path d="M172.738,50.784c0,0.704,0.571,1.274,1.275,1.274" style="&st1;" />
	<path d="M174.013,52.058c0.704,0,1.275-0.571,1.275-1.274" style="&st1;" />
	<path d="M174.967,50.784c0-0.527-0.427-0.955-0.955-0.955" style="&st1;" />
	<path d="M174.013,49.829c-0.527,0-0.955,0.428-0.955,0.955" style="&st1;" />
	<path d="M173.058,50.784c0,0.527,0.427,0.955,0.955,0.955" style="&st1;" />
	<path d="M174.013,51.738c0.527,0,0.955-0.428,0.955-0.955" style="&st1;" />
	<path d="M175.288,63.531c0-0.704-0.571-1.275-1.275-1.275" style="&st1;" />
	<path d="M174.013,62.256c-0.704,0-1.275,0.571-1.275,1.275" style="&st1;" />
	<path d="M172.738,63.531c0,0.704,0.571,1.275,1.275,1.275" style="&st1;" />
	<path d="M174.013,64.806c0.704,0,1.275-0.571,1.275-1.275" style="&st1;" />
	<path d="M174.967,63.531c0-0.527-0.427-0.955-0.955-0.955" style="&st1;" />
	<path d="M174.013,62.577c-0.527,0-0.955,0.427-0.955,0.955" style="&st1;" />
	<path d="M173.058,63.531c0,0.527,0.427,0.955,0.955,0.955" style="&st1;" />
	<path d="M174.013,64.486c0.527,0,0.955-0.427,0.955-0.955" style="&st1;" />
	<path d="M165.373,63.531c0-0.704-0.571-1.275-1.275-1.275" style="&st1;" />
	<path d="M164.098,62.256c-0.704,0-1.275,0.571-1.275,1.275" style="&st1;" />
	<path d="M162.823,63.531c0,0.704,0.571,1.275,1.275,1.275" style="&st1;" />
	<path d="M164.098,64.806c0.704,0,1.275-0.571,1.275-1.275" style="&st1;" />
	<path d="M165.052,63.531c0-0.527-0.427-0.955-0.955-0.955" style="&st1;" />
	<path d="M164.098,62.577c-0.527,0-0.955,0.427-0.955,0.955" style="&st1;" />
	<path d="M163.143,63.531c0,0.527,0.427,0.955,0.955,0.955" style="&st1;" />
	<path d="M164.098,64.486c0.527,0,0.955-0.427,0.955-0.955" style="&st1;" />
	<path d="M155.458,63.531c0-0.704-0.571-1.275-1.275-1.275" style="&st1;" />
	<path d="M154.183,62.256c-0.704,0-1.275,0.571-1.275,1.275" style="&st1;" />
	<path d="M152.908,63.531c0,0.704,0.571,1.275,1.275,1.275" style="&st1;" />
	<path d="M154.183,64.806c0.704,0,1.275-0.571,1.275-1.275" style="&st1;" />
	<path d="M155.137,63.531c0-0.527-0.427-0.955-0.955-0.955" style="&st1;" />
	<path d="M154.183,62.577c-0.527,0-0.955,0.427-0.955,0.955" style="&st1;" />
	<path d="M153.228,63.531c0,0.527,0.427,0.955,0.955,0.955" style="&st1;" />
	<path d="M154.183,64.486c0.527,0,0.955-0.427,0.955-0.955" style="&st1;" />
	<path d="M145.542,63.531c0-0.704-0.571-1.275-1.275-1.275" style="&st1;" />
	<path d="M144.268,62.256c-0.704,0-1.275,0.571-1.275,1.275" style="&st1;" />
	<path d="M142.993,63.531c0,0.704,0.571,1.275,1.275,1.275" style="&st1;" />
	<path d="M144.268,64.806c0.704,0,1.275-0.571,1.275-1.275" style="&st1;" />
	<path d="M145.222,63.531c0-0.527-0.427-0.955-0.955-0.955" style="&st1;" />
	<path d="M144.268,62.577c-0.527,0-0.955,0.427-0.955,0.955" style="&st1;" />
	<path d="M143.313,63.531c0,0.527,0.427,0.955,0.955,0.955" style="&st1;" />
	<path d="M144.268,64.486c0.527,0,0.955-0.427,0.955-0.955" style="&st1;" />
	<path d="M135.627,63.531c0-0.704-0.571-1.275-1.275-1.275" style="&st1;" />
	<path d="M134.353,62.256c-0.704,0-1.275,0.571-1.275,1.275" style="&st1;" />
	<path d="M133.078,63.531c0,0.704,0.571,1.275,1.275,1.275" style="&st1;" />
	<path d="M134.353,64.806c0.704,0,1.275-0.571,1.275-1.275" style="&st1;" />
	<path d="M135.307,63.531c0-0.527-0.427-0.955-0.955-0.955" style="&st1;" />
	<path d="M134.353,62.577c-0.527,0-0.955,0.427-0.955,0.955" style="&st1;" />
	<path d="M133.398,63.531c0,0.527,0.427,0.955,0.955,0.955" style="&st1;" />
	<path d="M134.353,64.486c0.527,0,0.955-0.427,0.955-0.955" style="&st1;" />
	<path d="M125.712,63.531c0-0.704-0.571-1.275-1.275-1.275" style="&st1;" />
	<path d="M124.438,62.256c-0.704,0-1.275,0.571-1.275,1.275" style="&st1;" />
	<path d="M123.163,63.531c0,0.704,0.571,1.275,1.275,1.275" style="&st1;" />
	<path d="M124.438,64.806c0.704,0,1.275-0.571,1.275-1.275" style="&st1;" />
	<path d="M125.392,63.531c0-0.527-0.427-0.955-0.955-0.955" style="&st1;" />
	<path d="M124.438,62.577c-0.527,0-0.955,0.427-0.955,0.955" style="&st1;" />
	<path d="M123.483,63.531c0,0.527,0.427,0.955,0.955,0.955" style="&st1;" />
	<path d="M124.438,64.486c0.527,0,0.955-0.427,0.955-0.955" style="&st1;" />
	<path d="M0.5,47.951v21.247" style="&st0;" />
	<path d="M82.653,47.951v21.247" style="&st0;" />
	<path d="M82.653,38.744v9.207" style="&st0;" />
	<path d="M21.747,58.574v12.748h39.66V58.574H21.747" style="&st1;" />
	<path d="M31.662,45.826v25.496" style="&st1;" />
	<path d="M41.577,45.826v25.496" style="&st1;" />
	<path d="M51.491,45.826v25.496" style="&st1;" />
	<path d="M0.5,27.413V24.58" style="&st0;" />
	<path d="M82.653,24.58v2.833" style="&st0;" />
	<path d="M7.582,17.498h67.989" style="&st0;" />
	<path d="M0.5,33.078h5.666" style="&st1;" />
	<path d="M0.5,76.987h82.153" style="&st1;" />
	<path d="M0.5,27.413v20.538" style="&st0;" />
	<path d="M76.987,33.078h5.666" style="&st1;" />
	<path d="M82.653,69.197v7.79" style="&st0;" />
	<path d="M0.5,69.197v7.79" style="&st0;" />
	<path d="M28.829,28.829h25.496" style="&st1;" />
	<path d="M78.404,76.987v4.25" style="&st1;" />
	<path d="M82.653,33.078v5.666" style="&st0;" />
	<path d="M4.749,76.987v4.25" style="&st1;" />
	<path d="M82.653,27.413v5.666" style="&st0;" />
	<path d="M31.662,34.495h-2.833V24.58h25.496v9.915h-2.833" style="&st1;" />
	<path d="M31.662,33.078h19.83" style="&st1;" />
	<path d="M37.327,31.662v-4.249h8.499v4.249" style="&st1;" />
	<path d="M1.916,81.237h79.32" style="&st1;" />
	<path d="M25.996,27.413v-5.666h31.162v5.666" style="&st1;" />
	<path d="M81.236,81.237l-3.175,3.175" style="&st0;" />
	<path d="M1.916,81.237l3.176,3.175" style="&st0;" />
	<path d="M11.104,86.902h60.946" style="&st0;" />
	<path d="M62.823,40.16h12.748" style="&st1;" />
	<path d="M82.653,76.987l-1.417,4.25" style="&st0;" />
	<path d="M27.412,40.16h2.833" style="&st1;" />
	<path d="M0.5,76.987l1.416,4.25" style="&st0;" />
	<path d="M1.916,30.245h2.833" style="&st1;" />
	<path d="M21.747,58.574V45.826h39.66v12.748" style="&st1;" />
	<path d="M61.406,45.826h9.915" style="&st1;" />
	<path d="M61.406,71.322h9.915" style="&st1;" />
	<path d="M71.321,45.826v25.496" style="&st1;" />
	<path d="M11.832,45.826v25.496" style="&st1;" />
	<path d="M61.406,58.574h9.915" style="&st1;" />
	<path d="M11.832,58.574h9.915" style="&st1;" />
	<path d="M21.747,45.826h-9.915" style="&st1;" />
	<path d="M21.747,71.322h-9.915" style="&st1;" />
	<path d="M4.749,79.112h73.655" style="&st1;" />
	<path d="M21.747,28.829h4.249" style="&st1;" />
	<path d="M57.157,28.829h4.249" style="&st1;" />
	<path d="M58.574,25.996h1.417" style="&st1;" />
	<path d="M61.406,27.413v11.331" style="&st1;" />
	<path d="M57.157,27.413v11.331" style="&st1;" />
	<path d="M25.996,27.413v11.331" style="&st1;" />
	<path d="M24.579,25.996h-1.417" style="&st1;" />
	<path d="M21.747,27.413v11.331" style="&st1;" />
	<path d="M52.908,40.16h2.833" style="&st1;" />
	<path d="M31.662,38.744v-7.082h5.666" style="&st1;" />
	<path d="M45.826,31.662h5.666v7.082" style="&st1;" />
	<path d="M7.582,40.16H20.33" style="&st1;" />
	<path d="M78.404,30.245h2.833" style="&st1;" />
	<path d="M6.166,31.662v7.082" style="&st1;" />
	<path d="M76.987,38.744v-7.082" style="&st1;" />
	<path d="M82.653,48.659h-5.666v15.581h5.666" style="&st1;" />
	<path d="M0.5,48.659h5.666v15.581H0.5" style="&st1;" />
	<path d="M82.653,69.905h-5.666v4.25h5.666" style="&st1;" />
	<path d="M0.5,69.905h5.666v4.25H0.5" style="&st1;" />
	<path d="M195.967,25.996v50.992" style="&st0;" />
	<path d="M113.106,81.237h72.238" style="&st1;" />
	<path d="M102.483,25.996v50.992" style="&st0;" />
	<path d="M143.559,27.413v2.833h11.332v-2.833" style="&st1;" />
	<path d="M136.477,27.413h25.496" style="&st1;" />
	<path d="M175.429,28.829v5.666h7.082v-5.666H175.429" style="&st1;" />
	<path d="M115.939,28.829v5.666h7.082v-5.666H115.939" style="&st1;" />
	<path d="M119.48,44.41v25.496h59.49V44.41H119.48" style="&st1;" />
	<path d="M119.48,57.157h59.49" style="&st1;" />
	<path d="M169.055,44.41v25.496" style="&st1;" />
	<path d="M159.14,44.41v25.496" style="&st1;" />
	<path d="M149.225,44.41v25.496" style="&st1;" />
	<path d="M139.31,44.41v25.496" style="&st1;" />
	<path d="M129.395,44.41v25.496" style="&st1;" />
	<path d="M132.228,37.327h4.249" style="&st1;" />
	<path d="M161.973,37.327h4.249" style="&st1;" />
	<path d="M173.304,37.327h11.332" style="&st1;" />
	<path d="M113.814,37.327h11.331" style="&st1;" />
	<path d="M132.228,23.163v14.164" style="&st1;" />
	<path d="M173.304,21.747v15.581" style="&st1;" />
	<path d="M125.146,21.747h5.666" style="&st1;" />
	<path d="M125.146,37.327V21.747" style="&st1;" />
	<path d="M167.639,21.747h5.666" style="&st1;" />
	<path d="M166.222,37.327V23.163" style="&st1;" />
	<path d="M108.148,31.662v42.493" style="&st1;" />
	<path d="M109.565,75.571h79.32" style="&st1;" />
	<path d="M190.302,31.662v42.493" style="&st1;" />
	<path d="M136.477,37.327V24.58h25.496v12.748" style="&st1;" />
	<path d="M186.052,30.245h2.833" style="&st1;" />
	<path d="M184.636,37.327v-5.666" style="&st1;" />
	<path d="M113.814,31.662v5.666" style="&st1;" />
	<path d="M109.565,30.245h2.833" style="&st1;" />
	<path d="M142.851,81.237h12.748" style="&st1;" />
	<path d="M114.522,82.653v7.082" style="&st0;" />
	<path d="M118.772,93.984h10.623" style="&st0;" />
	<path d="M185.344,81.237h6.374" style="&st0;" />
	<path d="M183.928,82.653v7.082" style="&st0;" />
	<path d="M179.678,93.984h-10.623" style="&st0;" />
	<path d="M119.48,17.498h59.49" style="&st0;" />
	<path d="M106.732,81.237h6.374" style="&st0;" />
	<path d="M184.636,21.747l-5.666-4.249" style="&st0;" />
	<path d="M129.395,93.984h39.66" style="&st0;" />
	<path d="M166.789,86.194h-8.357" style="&st1;" />
	<path d="M169.055,93.984V88.46" style="&st1;" />
	<path d="M106.732,21.747h7.082" style="&st0;" />
	<path d="M129.395,93.984V88.46" style="&st1;" />
	<path d="M184.636,21.747h7.083" style="&st0;" />
	<path d="M157.016,84.778v-2.125" style="&st1;" />
	<path d="M131.661,86.194h8.357" style="&st1;" />
	<path d="M141.435,84.778v-2.125" style="&st1;" />
	<path d="M113.814,21.747l5.666-4.249" style="&st0;" />
	<path d="M141.435,82.653h15.581" style="&st1;" />
	<path d="M129.395,87.61h39.66" style="&st1;" />
	<path d="M146.392,87.61v2.833h5.666V87.61" style="&st1;" />
	<path d="M146.392,90.443v1.417h5.666v-1.417" style="&st1;" />
	<path d="M108.148,44.41h4.25v16.997h-4.25" style="&st1;" />
	<path d="M190.302,44.41h-4.25v16.997h4.25" style="&st1;" />
	<path d="M143.559,87.61V84.07h11.332v3.541" style="&st1;" />
	<path d="M108.148,67.072h4.25v8.499" style="&st1;" />
	<path d="M190.302,67.072h-4.25v8.499" style="&st1;" />
	<path d="M142.143,33.078v4.249h14.164v-4.249H142.143" style="&st1;" />
	<path d="M41.577,8.999V0.5h107.648v8.499" style="&st0;" />
	<path d="M124.115,51.682v-1.796h0.646v1.796" style="&st1;" />
	<path d="M134.03,51.682v-1.796h0.646v1.796" style="&st1;" />
	<path d="M143.945,51.682v-1.796h0.646v1.796" style="&st1;" />
	<path d="M153.86,51.682v-1.796h0.646v1.796" style="&st1;" />
	<path d="M163.774,51.682v-1.796h0.646v1.796" style="&st1;" />
	<path d="M173.689,51.682v-1.796h0.646v1.796" style="&st1;" />
	<path d="M173.689,64.43v-1.796h0.646v1.796" style="&st1;" />
	<path d="M163.774,64.43v-1.796h0.646v1.796" style="&st1;" />
	<path d="M153.86,64.43v-1.796h0.646v1.796" style="&st1;" />
	<path d="M143.945,64.43v-1.796h0.646v1.796" style="&st1;" />
	<path d="M134.03,64.43v-1.796h0.646v1.796" style="&st1;" />
	<path d="M124.115,64.43v-1.796h0.646v1.796" style="&st1;" />
	<path d="M124.438,50.784h29.745" style="&st1;" />
	<path d="M164.098,50.784h9.915" style="&st1;" />
	<path d="M124.438,63.531h49.575" style="&st1;" />
	<path d="M174.013,50.784v12.748" style="&st1;" />
	<g ewd:pinNo="1">
		<text transform="matrix(1 0 0 1 14.9663 54.2637)"><tspan style="&st3; &st2;" x="0" y="0">1</tspan></text>
	</g>
	<g ewd:pinNo="2">
		<text transform="matrix(1 0 0 1 24.8813 54.2637)"><tspan style="&st3; &st2;" x="0" y="0">2</tspan></text>
	</g>
	<g ewd:pinNo="3">
		<text transform="matrix(1 0 0 1 34.7964 54.2637)"><tspan style="&st3; &st2;" x="0" y="0">3</tspan></text>
	</g>
	<g ewd:pinNo="4">
		<text transform="matrix(1 0 0 1 44.7114 54.2637)"><tspan style="&st3; &st2;" x="0" y="0">4</tspan></text>
	</g>
	<g ewd:pinNo="5">
		<text transform="matrix(1 0 0 1 54.6265 54.2637)"><tspan style="&st3; &st2;" x="0" y="0">5</tspan></text>
	</g>
	<g ewd:pinNo="6">
		<text transform="matrix(1 0 0 1 64.5415 54.2637)"><tspan style="&st3; &st2;" x="0" y="0">6</tspan></text>
	</g>
	<g ewd:pinNo="7">
		<text transform="matrix(1 0 0 1 14.9663 67.0117)"><tspan style="&st3; &st2;" x="0" y="0">7</tspan></text>
	</g>
	<g ewd:pinNo="8">
		<text transform="matrix(1 0 0 1 24.8813 67.0117)"><tspan style="&st3; &st2;" x="0" y="0">8</tspan></text>
	</g>
	<g ewd:pinNo="9">
		<text transform="matrix(1 0 0 1 34.7964 67.0117)"><tspan style="&st3; &st2;" x="0" y="0">9</tspan></text>
	</g>
	<g ewd:pinNo="10">
		<text transform="matrix(1 0 0 1 43.061 67.0117)"><tspan style="&st3; &st2;" x="0" y="0">10</tspan></text>
	</g>
	<g ewd:pinNo="11">
		<text transform="matrix(1 0 0 1 53.1982 67.0117)"><tspan style="&st3; &st2;" x="0" y="0">11</tspan></text>
	</g>
	<g ewd:pinNo="12">
		<text transform="matrix(1 0 0 1 62.8911 67.0117)"><tspan style="&st3; &st2;" x="0" y="0">12</tspan></text>
	</g>
</g>
</svg>