﻿<?xml version="1.0" encoding="utf-8"?>
<!-- Generator: Adobe Illustrator 10.0, SVG Export Plug-In . SVG Version: 3.0.0 Build 77)  -->
<!DOCTYPE svg PUBLIC "-//W3C//DTD SVG 1.0//EN" "http://www.w3.org/TR/2001/REC-SVG-20010904/DTD/svg10.dtd"[
	<!ENTITY ns_flows "http://ns.adobe.com/Flows/1.0/">
	<!ENTITY ns_svg "http://www.w3.org/2000/svg">
	<!ENTITY ns_xlink "http://www.w3.org/1999/xlink">
	<!ENTITY st0 "fill:none;">
	<!ENTITY st1 "stroke:#000000;">
	<!ENTITY st2 "stroke-linecap:round;">
	<!ENTITY st3 "stroke-linejoin:round;">
	<!ENTITY st4 "stroke-width:0.6;">
	<!ENTITY st5 "font-size:6px;">
	<!ENTITY st6 "font-family:'Arial';">
	<!ENTITY st7 "stroke-width:1.4;">
	<!ATTLIST svg
		ewd:ver CDATA #IMPLIED
		xmlns:ewd CDATA #FIXED "http://shcl.co.jp/ewd"
		xmlns:a CDATA #FIXED "http://ns.adobe.com/AdobeSVGViewerExtensions/3.0/">
	<!ATTLIST g
		ewd:pinNo CDATA #IMPLIED>
	<!ATTLIST text
		ewd:textID CDATA #IMPLIED
		ewd:horAlign CDATA #IMPLIED>
	<!ATTLIST title
		ewd:textID CDATA #IMPLIED>
]>
<svg ewd:ver="2.1.2.10" height="63.188" onload="call_execInitLoadProc_svg('connector')" style="overflow:visible;enable-background:new 0 0 35.844 42.077" viewBox="0 0 115.251 63.188" width="115.251" xml:space="preserve" xmlns="&ns_svg;" xmlns:ewd="http://shcl.co.jp/ewd" xmlns:a="http://ns.adobe.com/AdobeSVGViewerExtensions/3.0/" xmlns:xlink="&ns_xlink;">
<script type="text/javascript" xlink:href="../../../../../system/js/ewd/fig/svgfig.js" xmlns:xlink="http://www.w3.org/1999/xlink" />
<g id="レイヤー_1" transform="translate(0,17.008)">
	<path d="M5.741,40.727h9.773" style="&st0;&st1;&st2;&st3;" />
	<path d="M10.698,0.5h1.983" style="&st0;&st1;&st2;&st3;" />
	<path d="M17.922,22.172V32.37" style="&st0;&st1;&st4;&st2;&st3;" />
	<path d="M35.344,20.472v10.482" style="&st0;&st1;&st2;&st3;" />
	<path d="M0.5,20.472v10.482" style="&st0;&st1;&st2;&st3;" />
	<path d="M4.891,37.327h26.063" style="&st0;&st1;&st4;&st2;&st3;" />
	<path d="M4.891,5.6h0.142" style="&st0;&st1;&st4;&st2;&st3;" />
	<path d="M28.687,7.724v8.499" style="&st0;&st1;&st2;&st3;" />
	<path d="M7.157,7.724v8.499" style="&st0;&st1;&st2;&st3;" />
	<path d="M30.812,5.6h0.142" style="&st0;&st1;&st4;&st2;&st3;" />
	<path d="M27.271,2.625v1.558" style="&st0;&st1;&st2;&st3;" />
	<path d="M8.574,2.625v1.558" style="&st0;&st1;&st2;&st3;" />
	<path d="M21.321,2.341v1.841" style="&st0;&st1;&st4;&st2;&st3;" />
	<path d="M14.522,2.341v1.841" style="&st0;&st1;&st4;&st2;&st3;" />
	<path d="M23.163,0.5h1.983" style="&st0;&st1;&st2;&st3;" />
	<path d="M13.673,5.6h8.499" style="&st0;&st1;&st4;&st2;&st3;" />
	<path d="M31.662,20.472v14.731" style="&st0;&st1;&st4;&st2;&st3;" />
	<path d="M4.183,20.472v14.731" style="&st0;&st1;&st4;&st2;&st3;" />
	<path d="M4.891,37.327v2.55" style="&st0;&st1;&st2;&st3;" />
	<path d="M30.953,37.327v2.55" style="&st0;&st1;&st2;&st3;" />
	<path d="M13.673,4.183h8.499" style="&st0;&st1;&st4;&st2;&st3;" />
	<path d="M4.891,18.347h4.391" style="&st0;&st1;&st4;&st2;&st3;" />
	<path d="M26.562,18.347h4.391" style="&st0;&st1;&st4;&st2;&st3;" />
	<path d="M33.078,18.347v14.731" style="&st0;&st1;&st4;&st2;&st3;" />
	<path d="M2.766,18.347v14.731" style="&st0;&st1;&st4;&st2;&st3;" />
	<path d="M15.089,37.327v2.125" style="&st0;&st1;&st4;&st2;&st3;" />
	<path d="M20.755,37.327v2.125" style="&st0;&st1;&st4;&st2;&st3;" />
	<path d="M17.214,41.577h1.417" style="&st0;&st1;&st2;&st3;" />
	<path d="M20.33,40.727h9.773" style="&st0;&st1;&st2;&st3;" />
	<path d="M30.953,35.911H4.891" style="&st0;&st1;&st4;&st2;&st3;" />
	<path d="M2.766,35.203v-2.125" style="&st0;&st1;&st2;&st3;" />
	<path d="M33.078,33.078v2.125" style="&st0;&st1;&st2;&st3;" />
	<path d="M33.078,18.347V7.724" style="&st0;&st1;&st2;&st3;" />
	<path d="M2.766,7.724v10.623" style="&st0;&st1;&st2;&st3;" />
	<path d="M2.625,18.347c-1.173,0-2.125,0.952-2.125,2.125" style="&st0;&st1;&st2;&st3;" />
	<path d="M35.344,20.472c0-1.173-0.951-2.125-2.125-2.125" style="&st0;&st1;&st2;&st3;" />
	<path d="M4.891,18.347c-1.173,0-2.125,0.952-2.125,2.125" style="&st0;&st1;&st4;&st2;&st3;" />
	<path d="M33.078,20.472c0-1.173-0.951-2.125-2.125-2.125" style="&st0;&st1;&st4;&st2;&st3;" />
	<path d="M2.766,35.203c0,1.173,0.951,2.125,2.125,2.125" style="&st0;&st1;&st2;&st3;" />
	<path d="M30.953,37.327c1.173,0,2.125-0.951,2.125-2.125" style="&st0;&st1;&st2;&st3;" />
	<path d="M13.673,4.183c-0.782,0-1.417,0.635-1.417,1.417" style="&st0;&st1;&st4;&st2;&st3;" />
	<path d="M23.588,5.6c0-0.782-0.634-1.417-1.417-1.417" style="&st0;&st1;&st4;&st2;&st3;" />
	<path d="M10.698,0.5c-1.173,0-2.125,0.952-2.125,2.125" style="&st0;&st1;&st2;&st3;" />
	<path d="M27.271,2.625c0-1.173-0.951-2.125-2.125-2.125" style="&st0;&st1;&st2;&st3;" />
	<path d="M8.574,4.183C8.574,4.965,9.208,5.6,9.99,5.6" style="&st0;&st1;&st2;&st3;" />
	<path d="M25.854,5.6c0.782,0,1.417-0.634,1.417-1.417" style="&st0;&st1;&st2;&st3;" />
	<path d="M13.673,5.6c-0.782,0-1.417,0.634-1.417,1.417" style="&st0;&st1;&st4;&st2;&st3;" />
	<path d="M23.588,7.016c0-0.783-0.634-1.417-1.417-1.417" style="&st0;&st1;&st4;&st2;&st3;" />
	<path d="M4.891,5.6c-1.173,0-2.125,0.951-2.125,2.125" style="&st0;&st1;&st2;&st3;" />
	<path d="M7.157,7.724c0-1.173-0.951-2.125-2.125-2.125" style="&st0;&st1;&st2;&st3;" />
	<path d="M30.812,5.6c-1.173,0-2.125,0.951-2.125,2.125" style="&st0;&st1;&st2;&st3;" />
	<path d="M33.078,7.724c0-1.173-0.951-2.125-2.125-2.125" style="&st0;&st1;&st2;&st3;" />
	<path d="M31.662,20.472c0-0.391-0.317-0.708-0.708-0.708" style="&st0;&st1;&st4;&st2;&st3;" />
	<path d="M4.891,19.764c-0.391,0-0.708,0.317-0.708,0.708" style="&st0;&st1;&st4;&st2;&st3;" />
	<path d="M4.183,35.203c0,0.391,0.317,0.708,0.708,0.708" style="&st0;&st1;&st4;&st2;&st3;" />
	<path d="M30.953,35.911c0.391,0,0.708-0.317,0.708-0.708" style="&st0;&st1;&st4;&st2;&st3;" />
	<path d="M7.157,16.223c0,1.173,0.951,2.125,2.125,2.125" style="&st0;&st1;&st2;&st3;" />
	<path d="M26.562,18.347c1.174,0,2.125-0.951,2.125-2.125" style="&st0;&st1;&st2;&st3;" />
	<path d="M33.219,33.078c1.174,0,2.125-0.951,2.125-2.125" style="&st0;&st1;&st2;&st3;" />
	<path d="M0.5,30.954c0,1.173,0.951,2.125,2.125,2.125" style="&st0;&st1;&st2;&st3;" />
	<path d="M14.522,2.341c0-1.017-0.824-1.841-1.841-1.841" style="&st0;&st1;&st2;&st3;" />
	<path d="M23.163,0.5c-1.014,0-1.836,0.819-1.841,1.833" style="&st0;&st1;&st2;&st3;" />
	<path d="M15.089,39.452c0,0.48,0.136,0.89,0.425,1.274" style="&st0;&st1;&st4;&st2;&st3;" />
	<path d="M18.63,41.577c0.692,0,1.284-0.295,1.7-0.85" style="&st0;&st1;&st2;&st3;" />
	<path d="M30.104,40.727c0.469,0,0.85-0.38,0.85-0.85" style="&st0;&st1;&st2;&st3;" />
	<path d="M4.891,39.877c0,0.469,0.38,0.85,0.85,0.85" style="&st0;&st1;&st2;&st3;" />
	<path d="M15.514,40.727c0.416,0.555,1.007,0.85,1.7,0.85" style="&st0;&st1;&st2;&st3;" />
	<path d="M20.33,40.727c0.288-0.384,0.425-0.794,0.425-1.274" style="&st0;&st1;&st4;&st2;&st3;" />
	<path d="M14.522,2.333V0.5h6.799v1.833" style="&st0;&st1;&st2;&st3;" />
	<path d="M9.282,18.347h2.975V5.6H9.99" style="&st0;&st1;&st2;&st3;" />
	<path d="M26.562,18.347h-2.974V5.6h2.266" style="&st0;&st1;&st2;&st3;" />
	<path d="M20.755,34.495h8.499V22.172H6.591v12.323h8.499" style="&st0;&st1;&st4;&st2;&st3;" />
	<path d="M4.891,19.764h7.366v-1.417" style="&st0;&st1;&st4;&st2;&st3;" />
	<path d="M30.953,19.764h-7.365v-1.417" style="&st0;&st1;&st4;&st2;&st3;" />
	<path d="M2.766,18.347H2.625" style="&st0;&st1;&st2;&st3;" />
	<path d="M33.219,18.347h-0.142" style="&st0;&st1;&st2;&st3;" />
	<path d="M33.219,33.078h-0.142" style="&st0;&st1;&st2;&st3;" />
	<path d="M2.766,33.078H2.625" style="&st0;&st1;&st2;&st3;" />
	<path d="M20.755,32.37h-5.666v2.833h5.666V32.37" style="&st0;&st1;&st4;&st2;&st3;" />
	<g ewd:pinNo="1">
		<text transform="matrix(1 0 0 1 10.5752 30.4561)"><tspan style="&st6; &st5;" x="0" y="0">1</tspan></text>
	</g>
	<g ewd:pinNo="2">
		<text transform="matrix(1 0 0 1 21.9067 30.4561)"><tspan style="&st6; &st5;" x="0" y="0">2</tspan></text>
	</g>
</g>
<g id="レイヤー_1" transform="translate(55.685,17.008)">
	<path d="M41.078,21.095v9.232" style="&st0;&st1;&st4;&st2;&st3;" />
	<path d="M54.109,35.061h-8.428" style="&st0;&st1;&st4;&st2;&st3;" />
	<path d="M25.922,18.206v14.731" style="&st0;&st1;&st4;&st2;&st3;" />
	<path d="M54.109,16.081H28.046" style="&st0;&st1;&st4;&st2;&st3;" />
	<path d="M56.233,18.22v14.703" style="&st0;&st1;&st4;&st2;&st3;" />
	<path d="M23.089,18.206v0.867" style="&st0;&st1;&st2;&st3;" />
	<path d="M54.109,37.894h-5.595" style="&st0;&st1;&st2;&st3;" />
	<path d="M36.475,35.061h-8.428" style="&st0;&st1;&st4;&st2;&st3;" />
	<path d="M44.973,42.143h-7.791" style="&st0;&st1;&st2;&st3;" />
	<path d="M35.058,39.311v0.708" style="&st0;&st1;&st2;&st3;" />
	<path d="M47.098,39.311v0.708" style="&st0;&st1;&st2;&st3;" />
	<path d="M33.642,37.894h-5.595" style="&st0;&st1;&st2;&st3;" />
	<path d="M59.066,18.206v14.731" style="&st0;&st1;&st2;&st3;" />
	<path d="M30.843,13.248h-2.796" style="&st0;&st1;&st2;&st3;" />
	<path d="M54.109,13.248h-2.796" style="&st0;&st1;&st2;&st3;" />
	<path d="M39.01,31.036h-7.074" style="&st0;&st1;&st4;&st2;&st3;" />
	<path d="M50.219,31.036h-7.073" style="&st0;&st1;&st4;&st2;&st3;" />
	<path d="M32.259,5.458v6.374" style="&st0;&st1;&st2;&st3;" />
	<path d="M49.896,5.458v6.374" style="&st0;&st1;&st2;&st3;" />
	<path d="M44.939,0.5h-7.722" style="&st0;&st1;&st2;&st3;" />
	<path d="M31.551,14.665v1.417" style="&st0;&st1;&st4;&st2;&st3;" />
	<path d="M50.604,14.665v1.417" style="&st0;&st1;&st4;&st2;&st3;" />
	<path d="M23.089,32.07v0.867" style="&st0;&st1;&st2;&st3;" />
	<path d="M23.089,19.072V32.07" style="&st0;&st1;&st4;&st2;&st3;" />
	<path d="M56.233,18.22c0.008-1.173-0.937-2.131-2.11-2.139" style="&st0;&st1;&st4;&st2;&st3;" />
	<path d="M54.123,16.081c-0.005,0-0.009,0-0.014,0" style="&st0;&st1;&st4;&st2;&st3;" />
	<path d="M28.046,16.081c-1.173,0-2.125,0.951-2.125,2.125" style="&st0;&st1;&st4;&st2;&st3;" />
	<path d="M54.109,35.061c1.173,0,2.125-0.951,2.125-2.125" style="&st0;&st1;&st4;&st2;&st3;" />
	<path d="M56.233,32.937c0-0.005,0-0.009,0-0.014" style="&st0;&st1;&st4;&st2;&st3;" />
	<path d="M25.922,32.937c0,1.173,0.951,2.125,2.125,2.125" style="&st0;&st1;&st4;&st2;&st3;" />
	<path d="M37.891,36.478c0-0.782-0.634-1.417-1.416-1.417" style="&st0;&st1;&st4;&st2;&st3;" />
	<path d="M45.681,35.061c-0.782,0-1.417,0.634-1.417,1.417" style="&st0;&st1;&st4;&st2;&st3;" />
	<path d="M44.973,42.143c1.173,0,2.125-0.951,2.125-2.125" style="&st0;&st1;&st2;&st3;" />
	<path d="M35.058,40.019c0,1.173,0.951,2.125,2.125,2.125" style="&st0;&st1;&st2;&st3;" />
	<path d="M35.058,39.311c0-0.782-0.634-1.417-1.417-1.417" style="&st0;&st1;&st2;&st3;" />
	<path d="M48.514,37.894c-0.782,0-1.417,0.634-1.417,1.417" style="&st0;&st1;&st2;&st3;" />
	<path d="M28.046,13.248c-2.738,0-4.957,2.22-4.957,4.958" style="&st0;&st1;&st2;&st3;" />
	<path d="M23.089,32.937c0,2.738,2.219,4.958,4.957,4.958" style="&st0;&st1;&st2;&st3;" />
	<path d="M59.066,18.206c0-2.738-2.219-4.958-4.958-4.958" style="&st0;&st1;&st2;&st3;" />
	<path d="M54.109,37.894c2.738,0,4.958-2.22,4.958-4.958" style="&st0;&st1;&st2;&st3;" />
	<path d="M37.217,0.5c-2.738,0-4.958,2.22-4.958,4.958" style="&st0;&st1;&st2;&st3;" />
	<path d="M49.896,5.458c0-2.738-2.22-4.958-4.958-4.958" style="&st0;&st1;&st2;&st3;" />
	<path d="M30.843,13.248c0.782,0,1.417-0.634,1.417-1.417" style="&st0;&st1;&st2;&st3;" />
	<path d="M49.896,11.832c0,0.782,0.634,1.417,1.417,1.417" style="&st0;&st1;&st2;&st3;" />
	<path d="M31.551,14.665c0-0.782-0.634-1.417-1.417-1.417" style="&st0;&st1;&st4;&st2;&st3;" />
	<path d="M52.021,13.248c-0.782,0-1.417,0.634-1.417,1.417" style="&st0;&st1;&st4;&st2;&st3;" />
	<path d="M21.8,17.234c-0.389-2.334-1.221-4.234-2.673-6.104" style="&st0;&st1;&st2;&st3;" />
	<path d="M19.826,17.316c-0.389-2.334-1.221-4.234-2.672-6.104" style="&st0;&st1;&st2;&st3;" />
	<path d="M6.488,20.39c-0.586,0.503-0.889,1.163-0.889,1.935" style="&st0;&st1;&st2;&st3;" />
	<path d="M17.004,17.047c-0.095-0.24-0.348-0.369-0.599-0.308" style="&st0;&st1;&st2;&st3;" />
	<path d="M13.39,16.727c0.055,0.373,0.401,0.63,0.773,0.575" style="&st0;&st1;&st2;&st3;" />
	<path d="M14.163,17.302c0.023-0.003,0.043-0.007,0.065-0.013" style="&st0;&st1;&st2;&st3;" />
	<path d="M22.086,18.942c0,0.281,0.228,0.51,0.51,0.51" style="&st0;&st1;&st2;&st3;" />
	<path d="M22.596,19.452c0.282,0,0.51-0.229,0.51-0.51" style="&st0;&st1;&st2;&st3;" />
	<path d="M19.129,40.013c1.452-1.869,2.284-3.77,2.673-6.104" style="&st0;&st1;&st2;&st3;" />
	<path d="M17.154,39.931c1.452-1.87,2.283-3.77,2.672-6.104" style="&st0;&st1;&st2;&st3;" />
	<path d="M5.599,28.817c0,0.772,0.303,1.432,0.889,1.935" style="&st0;&st1;&st2;&st3;" />
	<path d="M16.406,34.398c0.249,0.061,0.499-0.067,0.594-0.305" style="&st0;&st1;&st2;&st3;" />
	<path d="M14.228,33.854c-0.365-0.091-0.734,0.131-0.824,0.496" style="&st0;&st1;&st2;&st3;" />
	<path d="M13.404,34.35c-0.006,0.023-0.01,0.042-0.013,0.065" style="&st0;&st1;&st2;&st3;" />
	<path d="M23.106,32.2c0-0.281-0.228-0.51-0.51-0.51" style="&st0;&st1;&st2;&st3;" />
	<path d="M22.596,31.69c-0.282,0-0.51,0.229-0.51,0.51" style="&st0;&st1;&st2;&st3;" />
	<path d="M15.896,6.968c0.192-0.627-0.16-1.292-0.788-1.485" style="&st0;&st1;&st2;&st3;" />
	<path d="M15.109,5.483c-0.627-0.192-1.292,0.161-1.484,0.788" style="&st0;&st1;&st2;&st3;" />
	<path d="M13.625,6.271c-0.192,0.628,0.16,1.292,0.788,1.484" style="&st0;&st1;&st2;&st3;" />
	<path d="M14.412,7.755c0.026,0.008,0.048,0.014,0.074,0.021" style="&st0;&st1;&st2;&st3;" />
	<path d="M14.486,43.364c-0.64,0.152-1.036,0.793-0.884,1.434" style="&st0;&st1;&st2;&st3;" />
	<path d="M13.602,44.798c0.151,0.64,0.793,1.035,1.433,0.884" style="&st0;&st1;&st2;&st3;" />
	<path d="M15.035,45.682c0.64-0.152,1.036-0.794,0.884-1.434" style="&st0;&st1;&st2;&st3;" />
	<path d="M15.919,44.248c-0.006-0.026-0.013-0.048-0.021-0.074" style="&st0;&st1;&st2;&st3;" />
	<path d="M20.217,28.97c0-0.938-0.761-1.7-1.7-1.7" style="&st0;&st1;&st2;&st3;" />
	<path d="M18.517,23.871c0.938,0,1.7-0.761,1.7-1.699" style="&st0;&st1;&st2;&st3;" />
	<path d="M8.551,22.701c-0.411-0.225-0.927-0.074-1.153,0.337" style="&st0;&st1;&st2;&st3;" />
	<path d="M7.398,23.038c-0.147,0.269-0.144,0.568,0.009,0.833" style="&st0;&st1;&st2;&st3;" />
	<path d="M7.407,27.271c-0.235,0.407-0.095,0.927,0.312,1.162" style="&st0;&st1;&st2;&st3;" />
	<path d="M7.718,28.432c0.265,0.153,0.564,0.157,0.833,0.009" style="&st0;&st1;&st2;&st3;" />
	<path d="M3.899,20.472c-1.293-0.031-2.407,0.359-3.399,1.19" style="&st0;&st1;&st2;&st3;" />
	<path d="M0.5,29.48c0.992,0.832,2.105,1.222,3.399,1.19" style="&st0;&st1;&st2;&st3;" />
	<path d="M39.01,30.327h4.136v2.125H39.01V30.327" style="&st0;&st1;&st4;&st2;&st3;" />
	<path d="M37.891,36.478v2.833h6.374v-2.833" style="&st0;&st1;&st4;&st2;&st3;" />
	<path d="M50.219,35.061V21.095H31.936v13.966" style="&st0;&st1;&st4;&st2;&st3;" />
	<path d="M36.829,4.041v1.417h8.499V4.041" style="&st0;&st1;&st4;&st2;&st3;" />
	<path d="M35.092,16.081V4.041h11.972v12.04" style="&st0;&st1;&st4;&st2;&st3;" />
	<path d="M15.896,6.968l3.232,4.161" style="&st0;&st1;&st2;&st3;" />
	<path d="M21.8,17.234l0.286,1.708" style="&st0;&st1;&st2;&st3;" />
	<path d="M14.486,7.778l2.668,3.434" style="&st0;&st1;&st2;&st3;" />
	<path d="M19.826,17.316l0.391,2.346" style="&st0;&st1;&st2;&st3;" />
	<path d="M8.551,22.701l8.626-5.215" style="&st0;&st1;&st2;&st3;" />
	<path d="M13.098,14.724l0.292,2.002" style="&st0;&st1;&st2;&st3;" />
	<path d="M13.098,14.724L6.488,20.39" style="&st0;&st1;&st2;&st3;" />
	<path d="M14.228,17.288l2.178-0.543" style="&st0;&st1;&st2;&st3;" />
	<path d="M17.004,17.047l0.173,0.439" style="&st0;&st1;&st2;&st3;" />
	<path d="M20.217,31.48v-2.51" style="&st0;&st1;&st2;&st3;" />
	<path d="M13.39,16.727l0.408,2.802" style="&st0;&st1;&st4;&st2;&st3;" />
	<path d="M15.896,44.174l3.232-4.162" style="&st0;&st1;&st2;&st3;" />
	<path d="M21.8,33.908l0.286-1.708" style="&st0;&st1;&st2;&st3;" />
	<path d="M14.486,43.364l2.668-3.434" style="&st0;&st1;&st2;&st3;" />
	<path d="M19.826,33.826l0.391-2.346" style="&st0;&st1;&st2;&st3;" />
	<path d="M8.551,28.441l8.626,5.215" style="&st0;&st1;&st2;&st3;" />
	<path d="M13.098,36.418l0.292-2.003" style="&st0;&st1;&st2;&st3;" />
	<path d="M13.098,36.418l-6.609-5.666" style="&st0;&st1;&st2;&st3;" />
	<path d="M14.228,33.854l2.178,0.544" style="&st0;&st1;&st2;&st3;" />
	<path d="M17.004,34.095l0.173-0.439" style="&st0;&st1;&st2;&st3;" />
	<path d="M13.39,34.415l0.408-2.802" style="&st0;&st1;&st4;&st2;&st3;" />
	<path d="M20.217,19.662v2.51" style="&st0;&st1;&st2;&st3;" />
	<path d="M3.899,20.472v3.399h1.7" style="&st0;&st1;&st2;&st3;" />
	<path d="M5.599,27.271h-1.7v3.4" style="&st0;&st1;&st2;&st3;" />
	<path d="M0.5,21.662v7.819" style="&st0;&st1;&st2;&st3;" />
	<path d="M5.599,22.325v1.546" style="&st0;&st1;&st2;&st3;" />
	<path d="M5.599,27.271v1.547" style="&st0;&st1;&st2;&st3;" />
	<path d="M18.517,23.871H7.407" style="&st0;&st1;&st2;&st3;" />
	<path d="M7.407,23.871H5.599" style="&st0;&st1;&st4;&st2;&st3;" />
	<path d="M18.517,27.271H7.407" style="&st0;&st1;&st2;&st3;" />
	<path d="M7.407,27.271H5.599" style="&st0;&st1;&st4;&st2;&st3;" />
	<path d="M3.899,27.271L0.5,29.48" style="&st0;&st1;&st4;&st2;&st3;" />
	<path d="M3.899,23.871L0.5,21.662" style="&st0;&st1;&st4;&st2;&st3;" />
	<path d="M10.019,27.271v-3.399" style="&st0;&st1;&st4;&st2;&st3;" />
	<g ewd:pinNo="1">
		<text transform="matrix(1 0 0 1 43.936 28.1919)"><tspan style="&st6; &st5;" x="0" y="0">1</tspan></text>
	</g>
	<g ewd:pinNo="2">
		<text transform="matrix(1 0 0 1 34.7974 28.1919)"><tspan style="&st6; &st5;" x="0" y="0">2</tspan></text>
	</g>
</g>
<path d="M17.922,9.069v-8.504h67.546v8.504" style="&st0;&st1;&st7;&st2;&st3;" />
</svg>