﻿<?xml version="1.0" encoding="utf-8"?>
<!-- Generator: Adobe Illustrator 10.0, SVG Export Plug-In . SVG Version: 3.0.0 Build 77)  -->
<!DOCTYPE svg PUBLIC "-//W3C//DTD SVG 1.0//EN" "http://www.w3.org/TR/2001/REC-SVG-20010904/DTD/svg10.dtd"[
	<!ENTITY ns_flows "http://ns.adobe.com/Flows/1.0/">
	<!ENTITY ns_svg "http://www.w3.org/2000/svg">
	<!ENTITY ns_xlink "http://www.w3.org/1999/xlink">
	<!ENTITY st0 "fill:none;stroke:#000000;stroke-linecap:round;stroke-linejoin:round;">
	<!ENTITY st1 "fill:none;stroke:#000000;stroke-width:0.6;stroke-linecap:round;stroke-linejoin:round;">
	<!ENTITY st2 "font-size:6px;">
	<!ENTITY st3 "font-family:'Arial';">
	<!ATTLIST svg
		ewd:ver CDATA #IMPLIED
		xmlns:ewd CDATA #FIXED "http://shcl.co.jp/ewd"
		xmlns:a CDATA #FIXED "http://ns.adobe.com/AdobeSVGViewerExtensions/3.0/">
	<!ATTLIST g
		ewd:pinNo CDATA #IMPLIED>
	<!ATTLIST text
		ewd:textID CDATA #IMPLIED
		ewd:horAlign CDATA #IMPLIED>
	<!ATTLIST title
		ewd:textID CDATA #IMPLIED>
]>
<svg ewd:ver="2.1.2.10" height="93.068" onload="call_execInitLoadProc_svg('connector')" style="overflow:visible;enable-background:new 0 0 108.648 93.068" viewBox="0 0 108.648 93.068" width="108.648" xml:space="preserve" xmlns="&ns_svg;" xmlns:ewd="http://shcl.co.jp/ewd" xmlns:a="http://ns.adobe.com/AdobeSVGViewerExtensions/3.0/" xmlns:xlink="&ns_xlink;">
<script type="text/javascript" xlink:href="../../../../../system/js/ewd/fig/svgfig.js" xmlns:xlink="http://www.w3.org/1999/xlink" />
<g id="レイヤー_1">
	<path d="M0.5,88.319c0,2.347,1.902,4.25,4.249,4.25" style="&st0;" />
	<path d="M103.899,92.568c2.347,0,4.249-1.903,4.249-4.25" style="&st0;" />
	<path d="M78.404,5.732c0-1.4-0.987-2.564-2.368-2.794" style="&st0;" />
	<path d="M32.613,2.939c-1.381,0.229-2.367,1.393-2.367,2.793" style="&st0;" />
	<path d="M94.219,3.251C93.164,1.491,91.414,0.5,89.361,0.5" style="&st0;" />
	<path d="M88.319,0.5c-3.129,0-5.666,2.537-5.666,5.666" style="&st0;" />
	<path d="M98.639,16.121c0.528,0.879,1.402,1.375,2.428,1.375" style="&st1;" />
	<path d="M91.542,4.296c-0.37-0.617-0.983-0.964-1.703-0.964" style="&st1;" />
	<path d="M87.469,3.333c-1.095,0-1.983,0.888-1.983,1.983" style="&st1;" />
	<path d="M108.148,17.498c0-1.565-1.268-2.833-2.833-2.833" style="&st0;" />
	<path d="M23.163,5.316c0-1.095-0.888-1.983-1.983-1.983" style="&st1;" />
	<path d="M3.333,14.665c-1.564,0-2.833,1.268-2.833,2.833" style="&st0;" />
	<path d="M16.455,0.5c-2.053,0-3.802,0.991-4.858,2.751" style="&st0;" />
	<path d="M25.996,6.166c0-3.129-2.537-5.666-5.666-5.666" style="&st0;" />
	<path d="M4.749,42.993v38.244" style="&st1;" />
	<path d="M14.664,42.993v38.244" style="&st1;" />
	<path d="M24.579,42.993v38.244" style="&st1;" />
	<path d="M34.494,42.993v38.244" style="&st1;" />
	<path d="M103.899,55.741H4.749" style="&st1;" />
	<path d="M44.409,81.237V42.993" style="&st1;" />
	<path d="M54.324,81.237V42.993" style="&st1;" />
	<path d="M93.984,81.237V42.993" style="&st1;" />
	<path d="M78.404,6.166H30.245" style="&st1;" />
	<path d="M78.404,5.732v11.765" style="&st0;" />
	<path d="M61.406,17.498V8.999H47.242v8.499" style="&st1;" />
	<path d="M18.914,42.993V27.413" style="&st1;" />
	<path d="M33.078,42.993V27.413" style="&st1;" />
	<path d="M47.242,42.993V27.413" style="&st1;" />
	<path d="M61.406,42.993V27.413" style="&st1;" />
	<path d="M89.735,42.993V27.413" style="&st1;" />
	<path d="M82.653,24.58h-8.499" style="&st0;" />
	<path d="M25.996,24.58h8.499" style="&st0;" />
	<path d="M65.656,15.656h-4.25" style="&st1;" />
	<path d="M74.154,17.498h-39.66" style="&st1;" />
	<path d="M30.245,17.498h4.249v7.082" style="&st0;" />
	<path d="M78.404,17.498h-4.25v7.082" style="&st0;" />
	<path d="M30.245,5.732v11.765" style="&st0;" />
	<path d="M108.148,79.82l-4.249,4.25" style="&st1;" />
	<path d="M108.148,84.07H76.987V69.905H61.406V84.07H0.5" style="&st1;" />
	<path d="M4.749,84.07L0.5,79.82" style="&st1;" />
	<path d="M82.653,24.58V6.166" style="&st0;" />
	<path d="M108.148,17.498v70.821" style="&st0;" />
	<path d="M76.987,74.721H61.406" style="&st1;" />
	<path d="M0.5,17.498v70.821" style="&st0;" />
	<path d="M103.899,84.07v5.666H81.236V84.07" style="&st1;" />
	<path d="M57.157,84.07v5.666H4.749V84.07" style="&st1;" />
	<path d="M84.069,81.237V42.993" style="&st1;" />
	<path d="M74.154,68.489V42.993" style="&st1;" />
	<path d="M75.571,42.993V27.413" style="&st1;" />
	<path d="M103.899,42.993V27.413H75.571" style="&st1;" />
	<path d="M75.571,27.413H4.749v15.581" style="&st1;" />
	<path d="M103.899,92.568H4.749" style="&st0;" />
	<path d="M59.99,0.5H48.659" style="&st0;" />
	<path d="M48.659,0.5L32.613,2.939" style="&st0;" />
	<path d="M76.035,2.939L59.99,0.5" style="&st0;" />
	<path d="M41.577,12.398h-7.083v5.099" style="&st1;" />
	<path d="M43.794,17.498l-2.218-5.099" style="&st1;" />
	<path d="M47.242,15.656h-4.25" style="&st1;" />
	<path d="M67.072,12.398l-2.218,5.099" style="&st1;" />
	<path d="M74.154,17.498v-5.099h-7.082" style="&st1;" />
	<path d="M88.319,0.5h1.042" style="&st0;" />
	<path d="M105.316,14.665h-4.25" style="&st0;" />
	<path d="M94.219,3.251l6.847,11.414" style="&st0;" />
	<path d="M89.84,3.333h-2.371" style="&st1;" />
	<path d="M91.542,4.296l7.096,11.825" style="&st1;" />
	<path d="M85.486,16.081V5.316" style="&st1;" />
	<path d="M105.316,17.498h-4.25" style="&st1;" />
	<path d="M12.857,17.498v7.082h13.139" style="&st1;" />
	<path d="M3.333,14.665h1.417" style="&st0;" />
	<path d="M0.5,24.58h7.082v-8.499" style="&st1;" />
	<path d="M20.33,0.5h-3.875" style="&st0;" />
	<path d="M6.166,17.498l1.417-1.417h3.858l1.417,1.417" style="&st1;" />
	<path d="M11.44,16.081v8.499h1.417" style="&st1;" />
	<path d="M25.996,24.58V6.166" style="&st0;" />
	<path d="M11.596,3.251L4.749,14.665" style="&st0;" />
	<path d="M17.16,3.333h4.02" style="&st1;" />
	<path d="M23.163,24.58V5.316" style="&st1;" />
	<path d="M3.333,17.498h2.833" style="&st1;" />
	<path d="M3.333,24.58v-7.082" style="&st1;" />
	<path d="M6.166,24.58v-7.082" style="&st1;" />
	<path d="M61.406,10.982H47.242" style="&st1;" />
	<path d="M4.749,42.993h99.15" style="&st1;" />
	<path d="M84.069,81.237h19.83" style="&st1;" />
	<path d="M103.899,81.237V42.993" style="&st1;" />
	<path d="M4.749,68.489h99.15" style="&st1;" />
	<path d="M64.239,68.489V42.993" style="&st1;" />
	<path d="M12.857,17.498V7.129" style="&st1;" />
	<path d="M4.749,81.237h49.575" style="&st1;" />
	<path d="M12.857,7.129l4.303-3.796" style="&st1;" />
	<path d="M85.486,17.498v7.082h-2.833" style="&st1;" />
	<path d="M92.177,17.498l-1.416-1.417h-3.858l-1.417,1.417" style="&st1;" />
	<path d="M108.148,24.58H90.761v-8.499" style="&st1;" />
	<path d="M105.316,17.498h-2.833" style="&st1;" />
	<path d="M86.902,16.081v8.499h-1.417" style="&st1;" />
	<path d="M105.316,24.58v-7.082" style="&st1;" />
	<path d="M92.177,24.58v-7.082" style="&st1;" />
	<path d="M85.486,16.081h1.417" style="&st1;" />
	<g ewd:pinNo="7">
		<text transform="matrix(1 0 0 1 95.2876 37.3667)"><tspan style="&st3; &st2;" x="0" y="0">7</tspan></text>
	</g>
	<g ewd:pinNo="34">
		<text transform="matrix(1 0 0 1 95.5874 77.0269)"><tspan style="&st3; &st2;" x="0" y="0">34</tspan></text>
	</g>
	<g ewd:pinNo="24">
		<text transform="matrix(1 0 0 1 65.8423 64.2788)"><tspan style="&st3; &st2;" x="0" y="0">24</tspan></text>
	</g>
	<g ewd:pinNo="27">
		<text transform="matrix(1 0 0 1 95.5874 64.2788)"><tspan style="&st3; &st2;" x="0" y="0">27</tspan></text>
	</g>
	<g ewd:pinNo="14">
		<text transform="matrix(1 0 0 1 65.541 51.5313)"><tspan style="&st3; &st2;" x="0" y="0">14</tspan></text>
	</g>
	<g ewd:pinNo="17">
		<text transform="matrix(1 0 0 1 95.2861 51.5313)"><tspan style="&st3; &st2;" x="0" y="0">17</tspan></text>
	</g>
	<g ewd:pinNo="13">
		<text transform="matrix(1 0 0 1 55.626 51.5313)"><tspan style="&st3; &st2;" x="0" y="0">13</tspan></text>
	</g>
	<g ewd:pinNo="28">
		<text transform="matrix(1 0 0 1 6.3521 77.0269)"><tspan style="&st3; &st2;" x="0" y="0">28</tspan></text>
	</g>
	<g ewd:pinNo="12">
		<text transform="matrix(1 0 0 1 45.7109 51.5313)"><tspan style="&st3; &st2;" x="0" y="0">12</tspan></text>
	</g>
	<g ewd:pinNo="1">
		<text transform="matrix(1 0 0 1 10.3018 37.3667)"><tspan style="&st3; &st2;" x="0" y="0">1</tspan></text>
	</g>
	<g ewd:pinNo="11">
		<text transform="matrix(1 0 0 1 36.0186 51.5313)"><tspan style="&st3; &st2;" x="0" y="0">11</tspan></text>
	</g>
	<g ewd:pinNo="10">
		<text transform="matrix(1 0 0 1 25.8813 51.5313)"><tspan style="&st3; &st2;" x="0" y="0">10</tspan></text>
	</g>
	<g ewd:pinNo="9">
		<text transform="matrix(1 0 0 1 18.0923 51.5313)"><tspan style="&st3; &st2;" x="0" y="0">9</tspan></text>
	</g>
	<g ewd:pinNo="8">
		<text transform="matrix(1 0 0 1 8.1772 51.5313)"><tspan style="&st3; &st2;" x="0" y="0">8</tspan></text>
	</g>
	<g ewd:pinNo="21">
		<text transform="matrix(1 0 0 1 36.0972 64.2788)"><tspan style="&st3; &st2;" x="0" y="0">21</tspan></text>
	</g>
	<g ewd:pinNo="18">
		<text transform="matrix(1 0 0 1 6.0508 64.2788)"><tspan style="&st3; &st2;" x="0" y="0">18</tspan></text>
	</g>
	<g ewd:pinNo="3">
		<text transform="matrix(1 0 0 1 38.6304 37.3667)"><tspan style="&st3; &st2;" x="0" y="0">3</tspan></text>
	</g>
	<g ewd:pinNo="4">
		<text transform="matrix(1 0 0 1 52.7949 37.3667)"><tspan style="&st3; &st2;" x="0" y="0">4</tspan></text>
	</g>
	<g ewd:pinNo="6">
		<text transform="matrix(1 0 0 1 81.1235 37.3667)"><tspan style="&st3; &st2;" x="0" y="0">6</tspan></text>
	</g>
	<g ewd:pinNo="2">
		<text transform="matrix(1 0 0 1 24.4663 37.3667)"><tspan style="&st3; &st2;" x="0" y="0">2</tspan></text>
	</g>
	<g ewd:pinNo="33">
		<text transform="matrix(1 0 0 1 85.6724 77.0269)"><tspan style="&st3; &st2;" x="0" y="0">33</tspan></text>
	</g>
	<g ewd:pinNo="26">
		<text transform="matrix(1 0 0 1 85.6724 64.2788)"><tspan style="&st3; &st2;" x="0" y="0">26</tspan></text>
	</g>
	<g ewd:pinNo="16">
		<text transform="matrix(1 0 0 1 85.3711 51.5313)"><tspan style="&st3; &st2;" x="0" y="0">16</tspan></text>
	</g>
	<g ewd:pinNo="25">
		<text transform="matrix(1 0 0 1 75.7573 64.2788)"><tspan style="&st3; &st2;" x="0" y="0">25</tspan></text>
	</g>
	<g ewd:pinNo="15">
		<text transform="matrix(1 0 0 1 75.4561 51.5313)"><tspan style="&st3; &st2;" x="0" y="0">15</tspan></text>
	</g>
	<g ewd:pinNo="23">
		<text transform="matrix(1 0 0 1 55.9272 64.2788)"><tspan style="&st3; &st2;" x="0" y="0">23</tspan></text>
	</g>
	<g ewd:pinNo="22">
		<text transform="matrix(1 0 0 1 46.0122 64.2788)"><tspan style="&st3; &st2;" x="0" y="0">22</tspan></text>
	</g>
	<g ewd:pinNo="32">
		<text transform="matrix(1 0 0 1 46.0122 77.0269)"><tspan style="&st3; &st2;" x="0" y="0">32</tspan></text>
	</g>
	<g ewd:pinNo="20">
		<text transform="matrix(1 0 0 1 26.1826 64.2788)"><tspan style="&st3; &st2;" x="0" y="0">20</tspan></text>
	</g>
	<g ewd:pinNo="19">
		<text transform="matrix(1 0 0 1 15.9663 64.2788)"><tspan style="&st3; &st2;" x="0" y="0">19</tspan></text>
	</g>
	<g ewd:pinNo="5">
		<text transform="matrix(1 0 0 1 66.959 37.3667)"><tspan style="&st3; &st2;" x="0" y="0">5</tspan></text>
	</g>
	<g ewd:pinNo="29">
		<text transform="matrix(1 0 0 1 16.2676 77.0269)"><tspan style="&st3; &st2;" x="0" y="0">29</tspan></text>
	</g>
	<g ewd:pinNo="30">
		<text transform="matrix(1 0 0 1 26.1826 77.0269)"><tspan style="&st3; &st2;" x="0" y="0">30</tspan></text>
	</g>
	<g ewd:pinNo="31">
		<text transform="matrix(1 0 0 1 36.0972 77.0269)"><tspan style="&st3; &st2;" x="0" y="0">31</tspan></text>
	</g>
</g>
</svg>