﻿<?xml version="1.0" encoding="utf-8"?>
<!DOCTYPE svg PUBLIC "-//W3C//DTD SVG 1.0//EN" "http://www.w3.org/TR/2001/REC-SVG-20010904/DTD/svg10.dtd"[
	<!ENTITY ns_flows "http://ns.adobe.com/Flows/1.0/">
	<!ENTITY ns_svg "http://www.w3.org/2000/svg">
	<!ENTITY ns_xlink "http://www.w3.org/1999/xlink">
	<!ENTITY st0 "font-size:7px;font-family:'MS-PGothic';adobe-font-script:japanese;">
	<!ENTITY st1 "font-size:6px;font-family:'ArialMT';">
	<!-- White fill  -->
	<!ENTITY st2 "fill:#FFFFFF;stroke:#000000; stroke-width:1.41;stroke-linecap:round;stroke-linejoin:round;">
	<!-- Yellow fill  -->
	<!ENTITY st3 "fill:#FFFFCC;stroke:#FFFFCC; stroke-width:0.1;stroke-linecap:round;stroke-linejoin:round;">
	<!-- Gray fill  -->
	<!ENTITY st4 "fill:#CCCCCC;stroke:#CCCCCC; stroke-width:0.1;stroke-linecap:round;stroke-linejoin:round;">
	<!-- Light-blue fill -->
	<!ENTITY st5 "fill:#CCECF4;stroke:#000000; stroke-width:1.133;stroke-linecap:round;stroke-linejoin:round;">
	<!ENTITY st6 "fill:none;stroke-linecap:butt; stroke-linejoin:round;">
	<!ENTITY st7 "fill:none;stroke:#000000;stroke-linecap:round;stroke-linejoin:round;">
	<!ENTITY st8 "enable-background:new    ;">
	<!-- Black fill -->
	<!ENTITY st9 "fill:#000000;stroke:#000000; stroke-linecap:round;stroke-linejoin:round;">
	<!-- SRS note   -->
	<!ENTITY st10 "font-size:9px;font-family:'ArialMT';">
	<!ENTITY st11 "font-size:9px;font-family:'Svg Symbol';">
	<!ENTITY st12 "font-size:6px;font-family:'Svg Symbol';">
	<!ENTITY st13 "fill:none;stroke:#ff0000;stroke-linecap:round;stroke-linejoin:round;">
	<!-- Yellow fill  -->
	<!ENTITY st14 "fill:#FFFF00;stroke:#FFFF00; stroke-width:0.1;stroke-linecap:round;stroke-linejoin:round;">
	<!ENTITY st15 "font-size:6px;font-family:'MS-PGothic';adobe-font-script:japanese;">
	<!ENTITY st16 "1.00 0.00 0.00 1.00">
	<!ENTITY st17 "0.00 -1.00 1.00 0.00">
	<!ENTITY st18 "font-size:6px;font-family:'Arial';">
	<!ENTITY st19 "font-size:9px;font-family:'Arial';">
	<!ENTITY st20 "font-size:6px;font-family:'MS-PGothic','MS PGothic';adobe-font-script:japanese;">
	<!ENTITY st21 "font-size:7px;font-family:'MS-PGothic','MS PGothic';adobe-font-script:japanese;">
	<!ATTLIST svg
		xmlns:ewd CDATA #FIXED "http://shcl.co.jp/ewd"
		xmlns:a CDATA #FIXED "http://ns.adobe.com/AdobeSVGViewerExtensions/3.0/"
		ewd:ver CDATA #IMPLIED
	>
	<!ATTLIST a
		ewd:lineID CDATA #IMPLIED
		ewd:groupID CDATA #IMPLIED
		ewd:figtype CDATA #IMPLIED
		ewd:code CDATA #IMPLIED
		ewd:figID CDATA #IMPLIED
		ewd:pinNo CDATA #IMPLIED
		ewd:comment CDATA #IMPLIED >
	<!ATTLIST g
		ewd:lineID CDATA #IMPLIED
		ewd:groupID CDATA #IMPLIED
		ewd:figtype CDATA #IMPLIED
		ewd:code CDATA #IMPLIED
		ewd:figID CDATA #IMPLIED
		ewd:pinNo CDATA #IMPLIED
		ewd:comment CDATA #IMPLIED >
	<!ATTLIST text
		ewd:textID CDATA #IMPLIED
		ewd:horAlign CDATA #IMPLIED >
	<!ATTLIST title
		ewd:textID CDATA #IMPLIED >
]>
<!-- Generator: Shintec Hozumi YS   -->
<svg onload="call_execInitLoadProc_svg('system')" style="overflow:visible;  enable-background:new 0 0 6716.209 710.000" viewBox="0 0 6713.884 710.000" height="710.000" width="6713.884" xml:space="preserve" ewd:ver="2.1.2.10" xmlns="&ns_svg;" xmlns:ewd="http://shcl.co.jp/ewd" xmlns:a="http://ns.adobe.com/AdobeSVGViewerExtensions/3.0/" xmlns:xlink="&ns_xlink;">
<path style="stroke-width: 1.42 ;&st7;  " d=" M   246.46,   197.25  L   237.96,   197.25  " /><text style="&st18;" transform="matrix(&st17;  302.25  147.76 )">P</text><text style="&st18;" transform="matrix(&st17;  302.25  252.07 )">GR</text><text style="&st18;" transform="matrix(&st17;  387.24  175.58 )">GR</text><text style="&st18;" transform="matrix(&st17;  234.26  251.48 )">SB</text><text style="&st18;" transform="matrix(&st17;  234.26  149.5 )">SB</text><text style="&st18;" transform="matrix(&st17;  455.23  173.45 )">Y</text><text style="&st18;" transform="matrix(&st17;  166.28  148.22 )">G</text><text style="&st18;" transform="matrix(&st17;  166.28  249.93 )">Y</text><text style="&st18;" transform="matrix(&st17;  429.73  175.0 )">SB</text><text style="&st18;" transform="matrix(&st17;  89.79  135.47 )">G</text><text style="&st18;" transform="matrix(&st17;  64.29  311.28 )">BR</text><text style="&st18;" transform="matrix(&st17;  89.79  309.35 )">R</text><text style="&st18;" transform="matrix(&st17;  64.29  458.16 )">W-B</text><text style="&st18;" transform="matrix(&st17;  21.8  164.95 )">B</text><path style="stroke-width: 1.42 ;&st7;  " d=" M    76.49,   372.20  L    71.52,   367.22  " /><path style="stroke-width: 1.42 ;&st7;  " d=" M    59.49,   379.25  L    64.46,   384.22  " /><path style="stroke-width: 1.42 ;&st7;  " d=" M    71.52,   384.22  L    76.49,   379.25  " /><path style="stroke-width: 1.42 ;&st7;  " d=" M    64.46,   367.22  L    59.49,   372.20  " /><text style="&st18;" transform="matrix(&st16;  490.81  431.52 )">R</text><text style="&st18;" transform="matrix(&st16;  490.73  609.99 )">B</text><g ewd:figtype="conn" ewd:figID="2" ewd:code="G141,G142,G143,G159,G190,Y1,Y2"><path style="stroke-width: 1.42 ;&st7;  " d=" M   373.94,    61.28  L   373.94,   103.77  L  5626.06,   103.77  L  5626.06,    61.28  L   373.94,    61.28  " /><g ewd:lineID="10"><text style="&st18;" transform="matrix(&st16;  382.24  110.27 )">3</text><text style="&st18;" transform="matrix(&st16;  389.48  110.27 )">J</text><path style="stroke-width: 1.42 ;&st7;   " d=" M   395.47,   108.30  C   395.47    105.80    393.44    103.77    390.93    103.77  " /><path style="stroke-width: 1.42 ;&st7;   " d=" M   390.93,   103.77  C   388.43    103.77    386.40    105.80    386.40    108.30  " /><path style="stroke-width: 1.42 ;&st7;   " d=" M   386.40,   108.30  C   386.40    110.80    388.43    112.83    390.93    112.83  " /><path style="stroke-width: 1.42 ;&st7;   " d=" M   390.93,   112.83  C   393.44    112.83    395.47    110.80    395.47    108.30  " /><text style="&st18;" transform="matrix(&st16;  382.74  100.07 )">ACC1</text></g><g ewd:lineID="6"><text style="&st18;" transform="matrix(&st16;  450.23  110.27 )">1</text><path style="stroke-width: 1.42 ;&st7;   " d=" M   463.46,   108.30  C   463.46    105.80    461.43    103.77    458.92    103.77  " /><path style="stroke-width: 1.42 ;&st7;   " d=" M   458.92,   103.77  C   456.42    103.77    454.39    105.80    454.39    108.30  " /><path style="stroke-width: 1.42 ;&st7;   " d=" M   454.39,   108.30  C   454.39    110.80    456.42    112.83    458.92    112.83  " /><path style="stroke-width: 1.42 ;&st7;   " d=" M   458.92,   112.83  C   461.43    112.83    463.46    110.80    463.46    108.30  " /><text style="&st18;" transform="matrix(&st16;  456.81  110.27 )">R</text><text style="&st18;" transform="matrix(&st16;  455.57  100.07 )">IG</text></g><g ewd:lineID="8"><text style="&st18;" transform="matrix(&st16;  424.73  110.27 )">4</text><path style="stroke-width: 1.42 ;&st7;   " d=" M   437.96,   108.30  C   437.96    105.80    435.93    103.77    433.43    103.77  " /><path style="stroke-width: 1.42 ;&st7;   " d=" M   433.43,   103.77  C   430.92    103.77    428.90    105.80    428.90    108.30  " /><path style="stroke-width: 1.42 ;&st7;   " d=" M   428.90,   108.30  C   428.90    110.80    430.92    112.83    433.43    112.83  " /><path style="stroke-width: 1.42 ;&st7;   " d=" M   433.43,   112.83  C   435.93    112.83    437.96    110.80    437.96    108.30  " /><text style="&st18;" transform="matrix(&st16;  431.98  110.27 )">J</text><text style="&st18;" transform="matrix(&st16;  428.14  100.07 )">+B1</text></g><g ewd:figtype="title"><text style="&st18;" transform="matrix(&st16;  370.53  57.58 )" ewd:textID="42">Conjunto del receptor de radio y pantalla</text><text style="&st18;" transform="matrix(&st16;  370.52  44.54 )">G141(J),G142(K),G143(R),G159(U), <tspan x="0 " dy="6.0">G190(T),Y1(Y),Y2(W)</tspan></text></g></g><g ewd:figtype="conn" ewd:figID="18" ewd:code="G96"><path style="stroke-width: 0.85 ;&st7;  " d=" M   305.95,   188.75  L   305.95,   205.75  " /><path style="stroke-width: 1.42 ;&st7;  " d=" M   297.45,   188.75  L   314.45,   188.75  L   314.45,   205.75  L   297.45,   205.75  L   297.45,   188.75  " /><text style="&st18;" transform="matrix(&st16;  294.15  212.25 )">20</text><path style="stroke-width: 1.42 ;&st7;   " d=" M   310.48,   210.28  C   310.48    207.78    308.45    205.75    305.95    205.75  " /><path style="stroke-width: 1.42 ;&st7;   " d=" M   305.95,   205.75  C   303.45    205.75    301.42    207.78    301.42    210.28  " /><path style="stroke-width: 1.42 ;&st7;   " d=" M   301.42,   210.28  C   301.42    212.79    303.45    214.82    305.95    214.82  " /><path style="stroke-width: 1.42 ;&st7;   " d=" M   305.95,   214.82  C   308.45    214.82    310.48    212.79    310.48    210.28  " /><text style="&st18;" transform="matrix(&st16;  303.64  212.25 )">A</text><text style="&st18;" transform="matrix(&st16;  294.15  186.19 )">18</text><path style="stroke-width: 1.42 ;&st7;   " d=" M   310.48,   184.22  C   310.48    181.72    308.45    179.69    305.95    179.69  " /><path style="stroke-width: 1.42 ;&st7;   " d=" M   305.95,   179.69  C   303.45    179.69    301.42    181.72    301.42    184.22  " /><path style="stroke-width: 1.42 ;&st7;   " d=" M   301.42,   184.22  C   301.42    186.72    303.45    188.75    305.95    188.75  " /><path style="stroke-width: 1.42 ;&st7;   " d=" M   305.95,   188.75  C   308.45    188.75    310.48    186.72    310.48    184.22  " /><text style="&st18;" transform="matrix(&st16;  303.64  186.19 )">A</text><g ewd:figtype="title"><text style="&st18;" transform="matrix(&st17;  322.06  208.65 )">G96(A)</text><text style="&st18;" transform="matrix(&st17;  329.17  208.66 )" ewd:textID="31">Conector de<tspan x="0" dy="6" style="&st18;">unión n.° 9</tspan></text></g></g><g ewd:figtype="rb" ewd:figID="19" ewd:code="2"><path style="stroke-width: 1.42 ;&st7;  " d=" M    70.11,   256.74  L    65.86,   256.74  " /><path style="stroke-width: 1.42 ;&st7;  " d=" M    70.11,   248.24  L    65.86,   248.24  " /><path style="stroke-width: 1.42 ;&st7;  " d=" M    95.61,   248.24  L    91.36,   248.24  " /><path style="stroke-width: 1.42 ;&st7;  " d=" M    95.61,   256.74  L    91.36,   256.74  " /><path style="stroke-width: 1.42 ;&st7;  " d=" M    70.11,   180.26  L    65.86,   180.26  " /><path style="stroke-width: 1.42 ;&st7;  " d=" M    70.11,   171.76  L    65.86,   171.76  " /><path style="stroke-width: 1.42 ;&st7;  " d=" M    95.61,   180.26  L    91.36,   180.26  " /><path style="stroke-width: 1.42 ;&st7;  " d=" M    95.61,   171.76  L    91.36,   171.76  " /><path style="stroke-width: 1.42 ;&st7;   " d=" M    74.36,   252.49  C    74.36    250.15     72.46    248.24     70.11    248.24  " /><path style="stroke-width: 1.42 ;&st7;   " d=" M    70.11,   256.74  C    72.46    256.74     74.36    254.84     74.36    252.49  " /><path style="stroke-width: 1.42 ;&st7;   " d=" M    61.61,   252.49  C    61.61    254.84     63.52    256.74     65.86    256.74  " /><path style="stroke-width: 1.42 ;&st7;   " d=" M    65.86,   248.24  C    63.52    248.24     61.61    250.15     61.61    252.49  " /><path style="stroke-width: 1.42 ;&st7;   " d=" M    91.36,   248.24  C    89.01    248.24     87.11    250.15     87.11    252.49  " /><path style="stroke-width: 1.42 ;&st7;   " d=" M    87.11,   252.49  C    87.11    254.84     89.01    256.74     91.36    256.74  " /><path style="stroke-width: 1.42 ;&st7;   " d=" M    95.61,   256.74  C    97.96    256.74     99.86    254.84     99.86    252.49  " /><path style="stroke-width: 1.42 ;&st7;   " d=" M    99.86,   252.49  C    99.86    250.15     97.96    248.24     95.61    248.24  " /><path style="stroke-width: 1.42 ;&st7;   " d=" M    74.36,   176.01  C    74.36    173.66     72.46    171.76     70.11    171.76  " /><path style="stroke-width: 1.42 ;&st7;   " d=" M    70.11,   180.26  C    72.46    180.26     74.36    178.35     74.36    176.01  " /><path style="stroke-width: 1.42 ;&st7;   " d=" M    61.61,   176.01  C    61.61    178.35     63.52    180.26     65.86    180.26  " /><path style="stroke-width: 1.42 ;&st7;   " d=" M    65.86,   171.76  C    63.52    171.76     61.61    173.66     61.61    176.01  " /><path style="stroke-width: 1.42 ;&st7;   " d=" M    99.86,   176.01  C    99.86    173.66     97.96    171.76     95.61    171.76  " /><path style="stroke-width: 1.42 ;&st7;   " d=" M    95.61,   180.26  C    97.96    180.26     99.86    178.35     99.86    176.01  " /><path style="stroke-width: 1.42 ;&st7;   " d=" M    87.11,   176.01  C    87.11    178.35     89.01    180.26     91.36    180.26  " /><path style="stroke-width: 1.42 ;&st7;   " d=" M    91.36,   171.76  C    89.01    171.76     87.11    173.66     87.11    176.01  " /><path style="stroke-width: 0.85 ;&st7;  " d=" M    93.48,   231.25  L    93.48,   248.24  " /><path style="stroke-width: 0.85 ;&st7;  " d=" M    67.99,   231.25  L    67.99,   248.24  " /><path style="stroke-width: 0.85 ;&st7;  " d=" M    67.99,   197.25  L    67.99,   180.26  " /><path style="stroke-width: 0.85 ;&st7;  " d=" M    93.48,   180.26  L    93.48,   197.25  " /><path style="stroke-width: 0.28 ;&st9;  " d=" M    67.99,   243.35  L    65.16,   240.52  L    65.16,   244.77  L    67.99,   247.60  L    70.82,   244.77  L    70.82,   240.52  L    67.99,   243.35  " /><path style="stroke-width: 0.28 ;&st9;  " d=" M    93.48,   243.35  L    90.65,   240.52  L    90.65,   244.77  L    93.48,   247.60  L    96.32,   244.77  L    96.32,   240.52  L    93.48,   243.35  " /><path style="stroke-width: 0.28 ;&st9;  " d=" M    67.99,   185.15  L    70.82,   187.98  L    70.82,   183.73  L    67.99,   180.90  L    65.16,   183.73  L    65.16,   187.98  L    67.99,   185.15  " /><path style="stroke-width: 0.28 ;&st9;  " d=" M    93.48,   185.15  L    96.32,   187.98  L    96.32,   183.73  L    93.48,   180.90  L    90.65,   183.73  L    90.65,   187.98  L    93.48,   185.15  " /><text style="&st18;" transform="matrix(&st16;  87.3  193.56 )">3</text><text style="&st18;" transform="matrix(&st16;  61.8  193.56 )">1</text><text style="&st18;" transform="matrix(&st16;  87.3  239.44 )">5</text><text style="&st18;" transform="matrix(&st16;  61.8  239.44 )">2</text><text style="&st18;" transform="matrix(&st16; 104.24 213.89)" ewd:textID="9">Relé<tspan x="0 " dy="6.0">BKUP</tspan></text><text style="&st18;" transform="matrix(&st16;  66.19  254.46 )">2</text><text style="&st18;" transform="matrix(&st16;  91.68  254.46 )">2</text><text style="&st18;" transform="matrix(&st16;  66.19  177.98 )">2</text><text style="&st18;" transform="matrix(&st16;  91.68  177.98 )">2</text><path style="stroke-width: 0.85 ;&st7;  " d=" M    67.99,   222.75  L    67.99,   231.25  " /><path style="stroke-width: 0.85 ;&st7;  " d=" M    67.99,   197.25  L    67.99,   205.75  " /><path style="stroke-width: 0.85 ;&st7;  " d=" M    93.48,   197.25  L    93.48,   201.50  " /><path style="stroke-width: 0.85 ;&st7;  " d=" M    93.48,   231.25  L    93.48,   227.00  " /><path style="stroke-width: 1.42 ;&st7;  " d=" M    93.48,   204.33  L    99.15,   227.00  " /><path style="stroke-width: 0.85 ;&st7;   " d=" M    67.99,   222.75  C    69.94    222.75     71.53    221.16     71.53    219.21  " /><path style="stroke-width: 0.85 ;&st7;   " d=" M    71.53,   219.21  C    71.53    217.25     69.94    215.67     67.99    215.67  " /><path style="stroke-width: 0.85 ;&st7;   " d=" M    67.99,   215.67  C    67.00    215.67     66.15    216.02     65.46    216.73  " /><path style="stroke-width: 0.85 ;&st7;   " d=" M    65.46,   216.73  C    66.83    218.13     69.07    218.15     70.47    216.78  " /><path style="stroke-width: 0.85 ;&st7;   " d=" M    70.47,   216.78  C    71.86    215.41     71.89    213.17     70.52    211.77  " /><path style="stroke-width: 0.85 ;&st7;   " d=" M    70.52,   211.77  C    69.15    210.37     66.91    210.35     65.51    211.72  " /><path style="stroke-width: 0.85 ;&st7;   " d=" M    65.51,   211.72  C    65.49    211.74     65.48    211.75     65.46    211.77  " /><path style="stroke-width: 0.85 ;&st7;   " d=" M    65.46,   211.77  C    66.83    213.17     69.07    213.19     70.47    211.82  " /><path style="stroke-width: 0.85 ;&st7;   " d=" M    70.47,   211.82  C    71.86    210.45     71.89    208.21     70.52    206.81  " /><path style="stroke-width: 0.85 ;&st7;   " d=" M    70.52,   206.81  C    69.83    206.11     68.98    205.75     67.99    205.75  " /><path style="stroke-width: 0.85 ;&st7;   " d=" M    94.90,   202.92  C    94.90    202.14     94.27    201.50     93.48    201.50  " /><path style="stroke-width: 0.85 ;&st7;   " d=" M    93.48,   201.50  C    92.70    201.50     92.07    202.14     92.07    202.92  " /><path style="stroke-width: 0.85 ;&st7;   " d=" M    92.07,   202.92  C    92.07    203.70     92.70    204.33     93.48    204.33  " /><path style="stroke-width: 0.85 ;&st7;   " d=" M    93.48,   204.33  C    94.27    204.33     94.90    203.70     94.90    202.92  " /><path style="stroke-width: 0.85 ;&st7;   " d=" M    94.90,   225.58  C    94.90    224.80     94.27    224.16     93.48    224.16  " /><path style="stroke-width: 0.85 ;&st7;   " d=" M    93.48,   224.16  C    92.70    224.16     92.07    224.80     92.07    225.58  " /><path style="stroke-width: 0.85 ;&st7;   " d=" M    92.07,   225.58  C    92.07    226.36     92.70    227.00     93.48    227.00  " /><path style="stroke-width: 0.85 ;&st7;   " d=" M    93.48,   227.00  C    94.27    227.00     94.90    226.36     94.90    225.58  " /><path style="stroke-width: 1.42 ;&st7;  " d=" M   101.98,   197.25  L    59.49,   197.25  L    59.49,   231.25  L   101.98,   231.25  L   101.98,   197.25  " /></g><g ewd:figtype="conn" ewd:figID="21" ewd:code="G100"><path style="stroke-width: 1.42 ;&st7;  " d=" M   161.47,   188.75  L   178.47,   188.75  L   178.47,   205.75  L   161.47,   205.75  L   161.47,   188.75  " /><path style="stroke-width: 0.85 ;&st7;  " d=" M   169.97,   188.75  L   169.97,   205.75  " /><text style="&st18;" transform="matrix(&st16;  160.69  213.94 )">13</text><text style="&st18;" transform="matrix(&st16;  160.69  185.06 )">12</text><g ewd:figtype="title"><text style="&st18;" transform="matrix(&st17;  186.08  208.65 )">G100</text><text style="&st18;" transform="matrix(&st17;  193.19  208.66 )" ewd:textID="33">Conector de<tspan x="0 " dy="6.0">unión n.° 13</tspan></text></g></g><g ewd:figtype="rb" ewd:figID="22" ewd:code="FUSE22"><path style="stroke-width: 0.85 ;&st7;  " d=" M   237.96,    78.27  L   237.96,    95.27  " /><path style="stroke-width: 1.42 ;&st7;  " d=" M   240.08,   103.77  L   235.84,   103.77  " /><path style="stroke-width: 1.42 ;&st7;  " d=" M   240.08,    95.27  L   235.84,    95.27  " /><path style="stroke-width: 1.42 ;&st7;   " d=" M   244.33,    99.52  C   244.33     97.17    242.43     95.27    240.08     95.27  " /><path style="stroke-width: 1.42 ;&st7;   " d=" M   240.08,   103.77  C   242.43    103.77    244.33    101.87    244.33     99.52  " /><path style="stroke-width: 1.42 ;&st7;   " d=" M   231.59,    99.52  C   231.59    101.87    233.49    103.77    235.84    103.77  " /><path style="stroke-width: 1.42 ;&st7;   " d=" M   235.84,    95.27  C   233.49     95.27    231.59     97.17    231.59     99.52  " /><path style="stroke-width: 0.28 ;&st9;  " d=" M   237.96,    90.37  L   235.13,    87.54  L   235.13,    91.79  L   237.96,    94.62  L   240.79,    91.79  L   240.79,    87.54  L   237.96,    90.37  " /><text style="&st18;" transform="matrix(&st16;  229.92  32.08 )">(BAT)</text><text style="&st18;" transform="matrix(&st16;  231.78  86.47 )">2</text><text style="&st18;" transform="matrix(&st16;  236.16  101.49 )">1</text><text style="&st18;" transform="matrix(&st16;  254.38  56.17 )">20A <tspan x="0 " dy="6.0">RADIO</tspan></text><path style="stroke-width: 0.85 ;&st7;  " d=" M   237.96,    69.77  L   237.96,    78.27  " /><path style="stroke-width: 0.85 ;&st7;   " d=" M   239.38,    68.36  C   239.38     67.57    238.74     66.94    237.96     66.94  " /><path style="stroke-width: 0.85 ;&st7;   " d=" M   237.96,    66.94  C   237.18     66.94    236.54     67.57    236.54     68.36  " /><path style="stroke-width: 0.85 ;&st7;   " d=" M   236.54,    68.36  C   236.54     69.14    237.18     69.77    237.96     69.77  " /><path style="stroke-width: 0.85 ;&st7;   " d=" M   237.96,    69.77  C   238.74     69.77    239.38     69.14    239.38     68.36  " /><path style="stroke-width: 0.85 ;&st7;   " d=" M   239.38,    45.69  C   239.38     44.91    238.74     44.28    237.96     44.28  " /><path style="stroke-width: 0.85 ;&st7;   " d=" M   237.96,    44.28  C   237.18     44.28    236.54     44.91    236.54     45.69  " /><path style="stroke-width: 0.85 ;&st7;   " d=" M   236.54,    45.69  C   236.54     46.48    237.18     47.11    237.96     47.11  " /><path style="stroke-width: 0.85 ;&st7;   " d=" M   237.96,    47.11  C   238.74     47.11    239.38     46.48    239.38     45.69  " /><path style="stroke-width: 1.42 ;&st7;   " d=" M   237.96,    66.94  C   240.70     65.33    241.61     61.80    240.00     59.06  " /><path style="stroke-width: 1.42 ;&st7;   " d=" M   240.00,    59.06  C   239.48     58.18    238.84     57.55    237.96     57.03  " /><path style="stroke-width: 1.42 ;&st7;   " d=" M   237.96,    47.11  C   235.22     48.72    234.31     52.25    235.92     54.99  " /><path style="stroke-width: 1.42 ;&st7;   " d=" M   235.92,    54.99  C   236.44     55.87    237.08     56.51    237.96     57.03  " /><path style="stroke-width: 1.42 ;&st7;  " d=" M   225.21,    35.78  L   225.21,    78.27  L   250.71,    78.27  L   250.71,    35.78  L   225.21,    35.78  " /></g><g ewd:figtype="jb" ewd:figID="53" ewd:code="3"><path style="stroke-width: 0.85 ;&st7;  " d=" M   305.95,    78.27  L   305.95,    95.27  " /><path style="stroke-width: 1.42 ;&st7;  " d=" M   308.07,   103.77  L   303.82,   103.77  " /><path style="stroke-width: 1.42 ;&st7;  " d=" M   308.07,    95.27  L   303.82,    95.27  " /><path style="stroke-width: 0.85 ;&st7;  " d=" M   305.95,    69.77  L   305.95,    78.27  " /><path style="stroke-width: 1.42 ;&st7;   " d=" M   312.32,    99.52  C   312.32     97.17    310.42     95.27    308.07     95.27  " /><path style="stroke-width: 1.42 ;&st7;   " d=" M   308.07,   103.77  C   310.42    103.77    312.32    101.87    312.32     99.52  " /><path style="stroke-width: 1.42 ;&st7;   " d=" M   299.57,    99.52  C   299.57    101.87    301.48    103.77    303.82    103.77  " /><path style="stroke-width: 1.42 ;&st7;   " d=" M   303.82,    95.27  C   301.48     95.27    299.57     97.17    299.57     99.52  " /><path style="stroke-width: 0.85 ;&st7;   " d=" M   307.37,    68.36  C   307.37     67.57    306.73     66.94    305.95     66.94  " /><path style="stroke-width: 0.85 ;&st7;   " d=" M   305.95,    66.94  C   305.17     66.94    304.53     67.57    304.53     68.36  " /><path style="stroke-width: 0.85 ;&st7;   " d=" M   304.53,    68.36  C   304.53     69.14    305.17     69.77    305.95     69.77  " /><path style="stroke-width: 0.85 ;&st7;   " d=" M   305.95,    69.77  C   306.73     69.77    307.37     69.14    307.37     68.36  " /><path style="stroke-width: 0.85 ;&st7;   " d=" M   307.37,    45.69  C   307.37     44.91    306.73     44.28    305.95     44.28  " /><path style="stroke-width: 0.85 ;&st7;   " d=" M   305.95,    44.28  C   305.17     44.28    304.53     44.91    304.53     45.69  " /><path style="stroke-width: 0.85 ;&st7;   " d=" M   304.53,    45.69  C   304.53     46.48    305.17     47.11    305.95     47.11  " /><path style="stroke-width: 0.85 ;&st7;   " d=" M   305.95,    47.11  C   306.73     47.11    307.37     46.48    307.37     45.69  " /><path style="stroke-width: 1.42 ;&st7;   " d=" M   305.95,    66.94  C   308.69     65.33    309.60     61.80    307.99     59.06  " /><path style="stroke-width: 1.42 ;&st7;   " d=" M   307.99,    59.06  C   307.47     58.18    306.83     57.55    305.95     57.03  " /><path style="stroke-width: 1.42 ;&st7;   " d=" M   305.95,    47.11  C   303.21     48.72    302.30     52.25    303.91     54.99  " /><path style="stroke-width: 1.42 ;&st7;   " d=" M   303.91,    54.99  C   304.43     55.87    305.07     56.51    305.95     57.03  " /><path style="stroke-width: 1.42 ;&st7;  " d=" M   293.20,    35.78  L   293.20,    78.27  L   318.70,    78.27  L   318.70,    35.78  L   293.20,    35.78  " /><path style="stroke-width: 0.28 ;&st9;  " d=" M   305.95,    90.37  L   303.12,    87.54  L   303.12,    91.79  L   305.95,    94.62  L   308.78,    91.79  L   308.78,    87.54  L   305.95,    90.37  " /><text style="&st18;" transform="matrix(&st16;  297.44  32.08 )">(ACC)</text><text style="&st18;" transform="matrix(&st16;  299.76  86.47 )">2</text><text style="&st18;" transform="matrix(&st16;  292.34  101.49 )">50</text><text style="&st18;" transform="matrix(&st16;  302.02  101.49 )">3D</text><text style="&st18;" transform="matrix(&st16;  322.37  56.17 )">7.5A <tspan x="0 " dy="6.0">ACC</tspan></text></g><g ewd:figtype="jb" ewd:figID="57" ewd:code="3"><path style="stroke-width: 0.85 ;&st7;  " d=" M   169.97,    78.27  L   169.97,    95.27  " /><path style="stroke-width: 1.42 ;&st7;  " d=" M   172.10,   103.77  L   167.85,   103.77  " /><path style="stroke-width: 1.42 ;&st7;  " d=" M   172.10,    95.27  L   167.85,    95.27  " /><path style="stroke-width: 0.85 ;&st7;  " d=" M   169.97,    69.77  L   169.97,    78.27  " /><path style="stroke-width: 1.42 ;&st7;   " d=" M   176.35,    99.52  C   176.35     97.17    174.44     95.27    172.10     95.27  " /><path style="stroke-width: 1.42 ;&st7;   " d=" M   172.10,   103.77  C   174.44    103.77    176.35    101.87    176.35     99.52  " /><path style="stroke-width: 1.42 ;&st7;   " d=" M   163.60,    99.52  C   163.60    101.87    165.50    103.77    167.85    103.77  " /><path style="stroke-width: 1.42 ;&st7;   " d=" M   167.85,    95.27  C   165.50     95.27    163.60     97.17    163.60     99.52  " /><path style="stroke-width: 0.85 ;&st7;   " d=" M   171.39,    68.36  C   171.39     67.57    170.75     66.94    169.97     66.94  " /><path style="stroke-width: 0.85 ;&st7;   " d=" M   169.97,    66.94  C   169.19     66.94    168.56     67.57    168.56     68.36  " /><path style="stroke-width: 0.85 ;&st7;   " d=" M   168.56,    68.36  C   168.56     69.14    169.19     69.77    169.97     69.77  " /><path style="stroke-width: 0.85 ;&st7;   " d=" M   169.97,    69.77  C   170.75     69.77    171.39     69.14    171.39     68.36  " /><path style="stroke-width: 0.85 ;&st7;   " d=" M   171.39,    45.69  C   171.39     44.91    170.75     44.28    169.97     44.28  " /><path style="stroke-width: 0.85 ;&st7;   " d=" M   169.97,    44.28  C   169.19     44.28    168.56     44.91    168.56     45.69  " /><path style="stroke-width: 0.85 ;&st7;   " d=" M   168.56,    45.69  C   168.56     46.48    169.19     47.11    169.97     47.11  " /><path style="stroke-width: 0.85 ;&st7;   " d=" M   169.97,    47.11  C   170.75     47.11    171.39     46.48    171.39     45.69  " /><path style="stroke-width: 1.42 ;&st7;   " d=" M   169.97,    66.94  C   172.71     65.33    173.62     61.80    172.01     59.06  " /><path style="stroke-width: 1.42 ;&st7;   " d=" M   172.01,    59.06  C   171.49     58.18    170.85     57.55    169.97     57.03  " /><path style="stroke-width: 1.42 ;&st7;   " d=" M   169.97,    47.11  C   167.23     48.72    166.32     52.25    167.93     54.99  " /><path style="stroke-width: 1.42 ;&st7;   " d=" M   167.93,    54.99  C   168.45     55.87    169.09     56.51    169.97     57.03  " /><path style="stroke-width: 1.42 ;&st7;  " d=" M   157.22,    35.78  L   157.22,    78.27  L   182.72,    78.27  L   182.72,    35.78  L   157.22,    35.78  " /><path style="stroke-width: 0.28 ;&st9;  " d=" M   169.97,    90.37  L   167.14,    87.54  L   167.14,    91.79  L   169.97,    94.62  L   172.80,    91.79  L   172.80,    87.54  L   169.97,    90.37  " /><text style="&st18;" transform="matrix(&st16;  186.4  53.34 )">5A <tspan x="0 " dy="6.0">ECU-IG </tspan><tspan x="0 " dy="6.0">NO.2</tspan></text><text style="&st18;" transform="matrix(&st16;  163.79  86.47 )">2</text><text style="&st18;" transform="matrix(&st16;  164.76  32.08 )">(IG)</text><text style="&st18;" transform="matrix(&st16;  166.0  101.49 )">3C</text><text style="&st18;" transform="matrix(&st16;  156.36  101.49 )">15</text><path style="stroke-width: 0.85 ;&st7;  " d=" M    93.48,    78.27  L    93.48,    95.27  " /><path style="stroke-width: 1.42 ;&st7;  " d=" M    95.61,   103.77  L    91.36,   103.77  " /><path style="stroke-width: 1.42 ;&st7;  " d=" M    95.61,    95.27  L    91.36,    95.27  " /><path style="stroke-width: 0.85 ;&st7;  " d=" M    93.48,    69.77  L    93.48,    78.27  " /><path style="stroke-width: 1.42 ;&st7;   " d=" M    99.86,    99.52  C    99.86     97.17     97.96     95.27     95.61     95.27  " /><path style="stroke-width: 1.42 ;&st7;   " d=" M    95.61,   103.77  C    97.96    103.77     99.86    101.87     99.86     99.52  " /><path style="stroke-width: 1.42 ;&st7;   " d=" M    87.11,    99.52  C    87.11    101.87     89.01    103.77     91.36    103.77  " /><path style="stroke-width: 1.42 ;&st7;   " d=" M    91.36,    95.27  C    89.01     95.27     87.11     97.17     87.11     99.52  " /><path style="stroke-width: 0.85 ;&st7;   " d=" M    94.90,    68.36  C    94.90     67.57     94.27     66.94     93.48     66.94  " /><path style="stroke-width: 0.85 ;&st7;   " d=" M    93.48,    66.94  C    92.70     66.94     92.07     67.57     92.07     68.36  " /><path style="stroke-width: 0.85 ;&st7;   " d=" M    92.07,    68.36  C    92.07     69.14     92.70     69.77     93.48     69.77  " /><path style="stroke-width: 0.85 ;&st7;   " d=" M    93.48,    69.77  C    94.27     69.77     94.90     69.14     94.90     68.36  " /><path style="stroke-width: 0.85 ;&st7;   " d=" M    94.90,    45.69  C    94.90     44.91     94.27     44.28     93.48     44.28  " /><path style="stroke-width: 0.85 ;&st7;   " d=" M    93.48,    44.28  C    92.70     44.28     92.07     44.91     92.07     45.69  " /><path style="stroke-width: 0.85 ;&st7;   " d=" M    92.07,    45.69  C    92.07     46.48     92.70     47.11     93.48     47.11  " /><path style="stroke-width: 0.85 ;&st7;   " d=" M    93.48,    47.11  C    94.27     47.11     94.90     46.48     94.90     45.69  " /><path style="stroke-width: 1.42 ;&st7;   " d=" M    93.48,    66.94  C    96.22     65.33     97.13     61.80     95.52     59.06  " /><path style="stroke-width: 1.42 ;&st7;   " d=" M    95.52,    59.06  C    95.00     58.18     94.37     57.55     93.48     57.03  " /><path style="stroke-width: 1.42 ;&st7;   " d=" M    93.48,    47.11  C    90.75     48.72     89.83     52.25     91.45     54.99  " /><path style="stroke-width: 1.42 ;&st7;   " d=" M    91.45,    54.99  C    91.97     55.87     92.60     56.51     93.48     57.03  " /><path style="stroke-width: 0.28 ;&st9;  " d=" M    93.48,    90.37  L    90.65,    87.54  L    90.65,    91.79  L    93.48,    94.62  L    96.32,    91.79  L    96.32,    87.54  L    93.48,    90.37  " /><path style="stroke-width: 1.42 ;&st7;  " d=" M    80.74,    35.78  L    80.74,    78.27  L   106.23,    78.27  L   106.23,    35.78  L    80.74,    35.78  " /><text style="&st18;" transform="matrix(&st16;  88.27  32.08 )">(IG)</text><text style="&st18;" transform="matrix(&st16;  79.88  101.49 )">34</text><text style="&st18;" transform="matrix(&st16;  89.75  101.49 )">3B</text><text style="&st18;" transform="matrix(&st16;  109.91  56.17 )">7.5A <tspan x="0 " dy="6.0">GAUGE</tspan></text><text style="&st18;" transform="matrix(&st16;  87.3  86.47 )">2</text></g><g ewd:figtype="w2w" ewd:figID="58" ewd:code="AG1"><path style="stroke-width: 1.42 ;&st7;  " d=" M   242.21,   202.92  L   237.96,   198.67  L   233.71,   202.92  " /><path style="stroke-width: 1.42 ;&st7;  " d=" M   242.21,   206.32  L   237.96,   202.07  L   233.71,   206.32  " /><text style="&st18;" transform="matrix(&st16;  222.23  194.97 )">26</text></g><g ewd:figtype="gp" ewd:figID="152" ewd:code="AC"><path style="stroke-width: 0.85 ;&st7;  " d=" M    66.57,   710.00  L    69.41,   710.00  " /><path style="stroke-width: 0.85 ;&st7;  " d=" M    65.16,   707.17  L    70.82,   707.17  " /><path style="stroke-width: 0.85 ;&st7;  " d=" M    63.74,   704.33  L    72.24,   704.33  " /><path style="stroke-width: 0.85 ;&st7;  " d=" M    59.49,   701.50  L    76.49,   701.50  " /><path style="stroke-width: 0.85 ;&st7;  " d=" M    67.99,   697.25  L    67.99,   701.50  " /></g></svg>