﻿<?xml version="1.0" encoding="utf-8"?>
<!DOCTYPE svg PUBLIC "-//W3C//DTD SVG 1.0//EN" "http://www.w3.org/TR/2001/REC-SVG-20010904/DTD/svg10.dtd"[
	<!ENTITY ns_flows "http://ns.adobe.com/Flows/1.0/">
	<!ENTITY ns_svg "http://www.w3.org/2000/svg">
	<!ENTITY ns_xlink "http://www.w3.org/1999/xlink">
	<!ENTITY st0 "font-size:7px;font-family:'MS-PGothic';adobe-font-script:japanese;">
	<!ENTITY st1 "font-size:6px;font-family:'ArialMT';">
	<!-- White fill  -->
	<!ENTITY st2 "fill:#FFFFFF;stroke:#000000; stroke-width:1.41;stroke-linecap:round;stroke-linejoin:round;">
	<!-- Yellow fill  -->
	<!ENTITY st3 "fill:#FFFFCC;stroke:#FFFFCC; stroke-width:0.1;stroke-linecap:round;stroke-linejoin:round;">
	<!-- Gray fill  -->
	<!ENTITY st4 "fill:#CCCCCC;stroke:#CCCCCC; stroke-width:0.1;stroke-linecap:round;stroke-linejoin:round;">
	<!-- Light-blue fill -->
	<!ENTITY st5 "fill:#CCECF4;stroke:#000000; stroke-width:1.133;stroke-linecap:round;stroke-linejoin:round;">
	<!ENTITY st6 "fill:none;stroke-linecap:butt; stroke-linejoin:round;">
	<!ENTITY st7 "fill:none;stroke:#000000;stroke-linecap:round;stroke-linejoin:round;">
	<!ENTITY st8 "enable-background:new    ;">
	<!-- Black fill -->
	<!ENTITY st9 "fill:#000000;stroke:#000000; stroke-linecap:round;stroke-linejoin:round;">
	<!-- SRS note   -->
	<!ENTITY st10 "font-size:9px;font-family:'ArialMT';">
	<!ENTITY st11 "font-size:9px;font-family:'Svg Symbol';">
	<!ENTITY st12 "font-size:6px;font-family:'Svg Symbol';">
	<!ENTITY st13 "fill:none;stroke:#ff0000;stroke-linecap:round;stroke-linejoin:round;">
	<!-- Yellow fill  -->
	<!ENTITY st14 "fill:#FFFF00;stroke:#FFFF00; stroke-width:0.1;stroke-linecap:round;stroke-linejoin:round;">
	<!ENTITY st15 "font-size:6px;font-family:'MS-PGothic';adobe-font-script:japanese;">
	<!ENTITY st16 "1.00 0.00 0.00 1.00">
	<!ENTITY st17 "0.00 -1.00 1.00 0.00">
	<!ENTITY st18 "font-size:6px;font-family:'Arial';">
	<!ENTITY st19 "font-size:9px;font-family:'Arial';">
	<!ENTITY st20 "font-size:6px;font-family:'MS-PGothic','MS PGothic';adobe-font-script:japanese;">
	<!ENTITY st21 "font-size:7px;font-family:'MS-PGothic','MS PGothic';adobe-font-script:japanese;">
	<!ATTLIST svg
		xmlns:ewd CDATA #FIXED "http://shcl.co.jp/ewd"
		xmlns:a CDATA #FIXED "http://ns.adobe.com/AdobeSVGViewerExtensions/3.0/"
		ewd:ver CDATA #IMPLIED
	>
	<!ATTLIST a
		ewd:lineID CDATA #IMPLIED
		ewd:groupID CDATA #IMPLIED
		ewd:figtype CDATA #IMPLIED
		ewd:code CDATA #IMPLIED
		ewd:figID CDATA #IMPLIED
		ewd:pinNo CDATA #IMPLIED
		ewd:comment CDATA #IMPLIED >
	<!ATTLIST g
		ewd:lineID CDATA #IMPLIED
		ewd:groupID CDATA #IMPLIED
		ewd:figtype CDATA #IMPLIED
		ewd:code CDATA #IMPLIED
		ewd:figID CDATA #IMPLIED
		ewd:pinNo CDATA #IMPLIED
		ewd:comment CDATA #IMPLIED >
	<!ATTLIST text
		ewd:textID CDATA #IMPLIED
		ewd:horAlign CDATA #IMPLIED >
	<!ATTLIST title
		ewd:textID CDATA #IMPLIED >
]>
<!-- Generator: Shintec Hozumi YS   -->
<svg onload="call_execInitLoadProc_svg('system')" style="overflow:visible;  enable-background:new 0 0 7249.289 710.000" viewBox="0 0 7257.794 710.000" height="710.000" width="7257.794" xml:space="preserve" ewd:ver="2.1.2.10" xmlns="&ns_svg;" xmlns:ewd="http://shcl.co.jp/ewd" xmlns:a="http://ns.adobe.com/AdobeSVGViewerExtensions/3.0/" xmlns:xlink="&ns_xlink;"><script type="text/javascript" xlink:href="../../../../../system/js/ewd/fig/svgfig.js" xmlns:xlink="http://www.w3.org/1999/xlink" />
<g id="ewd_top"><a ewd:figtype="conn" style="cursor:pointer;" ewd:code="G164" ewd:figID="1"><path style="&st5;" d=" M  1869.69,   520.20  L  1869.69,   579.69  L  2039.66,   579.69  L  2039.66,   520.20  L  1869.69,   520.20 " /><title ewd:textID="57">Reóstato de control de las luces</title></a><a ewd:figtype="conn" style="cursor:pointer;" ewd:code="M6" ewd:figID="2"><path style="&st5;" d=" M  6025.49,   299.24  L  6025.49,   265.24  L  6008.50,   265.24  L  6008.50,   299.24  L  6025.49,   299.24 " /><title ewd:textID="84">Conjunto del interruptor de la luz interior de portón trasero RH</title></a><a ewd:figtype="conn" style="cursor:pointer;" ewd:code="M4" ewd:figID="3"><path style="&st5;" d=" M  6178.47,   299.24  L  6178.47,   265.24  L  6161.47,   265.24  L  6161.47,   299.24  L  6178.47,   299.24 " /><title ewd:textID="36">Conjunto del interruptor de la luz interior de la puerta delantera RH</title></a><a ewd:figtype="conn" style="cursor:pointer;" ewd:code="N6" ewd:figID="4"><path style="&st5;" d=" M  6331.44,   299.24  L  6331.44,   265.24  L  6314.44,   265.24  L  6314.44,   299.24  L  6331.44,   299.24 " /><title ewd:textID="35">Conjunto del interruptor de la luz interior de la puerta delantera LH</title></a><a ewd:figtype="conn" style="cursor:pointer;" ewd:code="N8" ewd:figID="5"><path style="&st5;" d=" M  6101.98,   299.24  L  6101.98,   265.24  L  6084.98,   265.24  L  6084.98,   299.24  L  6101.98,   299.24 " /><title ewd:textID="83">Conjunto del interruptor de la luz interior de portón trasero LH</title></a><a ewd:figtype="conn" style="cursor:pointer;" ewd:code="G37,G195" ewd:figID="6"><path style="&st5;" d=" M  6399.43,   265.24  L  6416.43,   265.24  L  6416.43,   299.24  L  6399.43,   299.24  L  6399.43,   265.24 " /><title ewd:textID="75">Conjunto del interruptor del freno de estacionamiento</title></a><a ewd:figtype="conn" style="cursor:pointer;" ewd:code="U12" ewd:figID="7"><path style="&st5;" d=" M  6339.94,   503.20  L  6339.94,   452.21  L  6297.45,   452.21  L  6297.45,   503.20  L  6339.94,   503.20 " /><title ewd:textID="18">Conjunto de bloqueo de portón trasero</title></a><a ewd:figtype="conn" style="cursor:pointer;" ewd:code="N24,N41" ewd:figID="8"><path style="&st5;" d=" M  6484.42,   256.74  L  6484.42,   273.74  L  6501.41,   273.74  L  6501.41,   256.74  L  6484.42,   256.74 " /><title ewd:textID="72">Conector de unión n.° 33</title></a><a ewd:figtype="conn" style="cursor:pointer;" ewd:code="G196" ewd:figID="9"><path style="&st5;" d=" M  7138.81,   180.26  L  7155.80,   180.26  L  7155.80,   197.25  L  7138.81,   197.25  L  7138.81,   180.26 " /><title ewd:textID="65">Conector de unión n.° 9</title></a><a ewd:figtype="conn" style="cursor:pointer;" ewd:code="G100" ewd:figID="10"><path style="&st5;" d=" M  7189.80,   180.26  L  7206.80,   180.26  L  7206.80,   197.25  L  7189.80,   197.25  L  7189.80,   180.26 " /><title ewd:textID="67">Conector de unión n.° 13</title></a><a ewd:figtype="conn" style="cursor:pointer;" ewd:code="U27" ewd:figID="11"><path style="&st5;" d=" M  6450.42,   537.20  L  6535.41,   537.20  L  6535.41,   418.22  L  6450.42,   418.22  L  6450.42,   537.20 " /><title ewd:textID="18">Conjunto de bloqueo de portón trasero</title></a><a ewd:figtype="conn" style="cursor:pointer;" ewd:code="A110" ewd:figID="12"><path style="&st5;" d=" M  4810.20,   452.21  L  4878.18,   452.21  L  4878.18,   486.20  L  4810.20,   486.20  L  4810.20,   452.21 " /><title ewd:textID="20">Conjunto del servofreno con cilindro principal</title></a><a ewd:figtype="rb" style="cursor:pointer;" ewd:code="2" ewd:figID="13"><path style="fill:#CCECF4;stroke:#000000; stroke-width:0; stroke-linecap:round;stroke-linejoin:round; " d=" M  5787.53,   171.76  L  5745.04,   171.76  L  5745.04,   205.75  L  5787.53,   205.75  L  5787.53,   171.76 " /></a><a ewd:figtype="conn" style="cursor:pointer;" ewd:code="G16,G17" ewd:figID="14"><path style="&st5;" d=" M     8.50,   163.26  L     8.50,   452.21  L  3501.41,   452.21  L  3501.41,   163.26  L     8.50,   163.26 " /><title ewd:textID="24">Conjunto del panel de instrumentos</title></a><a ewd:figtype="rb" style="cursor:pointer;" ewd:code="FUSE15" ewd:figID="15"><path style="fill:#CCECF4;stroke:#000000; stroke-width:0; stroke-linecap:round;stroke-linejoin:round; " d=" M  4601.98,    69.77  L  4601.98,   112.27  L  4627.48,   112.27  L  4627.48,    69.77  L  4601.98,    69.77 " /></a><a ewd:figtype="conn" style="cursor:pointer;" ewd:code="G172,G189" ewd:figID="16"><path style="&st5;" d=" M  4988.67,   163.26  L  5124.64,   163.26  L  5124.64,   137.76  L  4988.67,   137.76  L  4988.67,   163.26 " /><title ewd:textID="63">Conector de unión de CAN n.° 7</title></a><a ewd:figtype="rb" style="cursor:pointer;" ewd:code="FUSE17" ewd:figID="17"><path style="fill:#CCECF4;stroke:#000000; stroke-width:0; stroke-linecap:round;stroke-linejoin:round; " d=" M   548.16,    35.78  L   548.16,    78.27  L   573.65,    78.27  L   573.65,    35.78  L   548.16,    35.78 " /></a><a ewd:figtype="conn" style="cursor:pointer;" ewd:code="A66,G194" ewd:figID="18"><path style="&st5;" d=" M  5252.12,    95.27  L  5252.12,   129.26  L  5634.56,   129.26  L  5634.56,    95.27  L  5252.12,    95.27 " /><title ewd:textID="49">ECU de control del vehículo híbrido</title></a><a ewd:figtype="conn" style="cursor:pointer;" ewd:code="B107" ewd:figID="19"><path style="&st5;" d=" M  5371.10,   350.23  L  5371.10,   452.21  L  5668.55,   452.21  L  5668.55,   350.23  L  5371.10,   350.23 " /><title ewd:textID="89">Sensor de posición de la palanca de cambios</title></a><a ewd:figtype="rb" style="cursor:pointer;" ewd:code="FUSE26" ewd:figID="20"><path style="fill:#CCECF4;stroke:#000000; stroke-width:0; stroke-linecap:round;stroke-linejoin:round; " d=" M  5766.29,    35.78  L  5766.29,    78.27  L  5791.78,    78.27  L  5791.78,    35.78  L  5766.29,    35.78 " /></a><a ewd:figtype="conn" style="cursor:pointer;" ewd:code="G107" ewd:figID="21"><path style="&st5;" d=" M   280.45,    78.27  L   297.45,    78.27  L   297.45,    95.27  L   280.45,    95.27  L   280.45,    78.27 " /><title ewd:textID="68">Conector de unión n.° 19</title></a><a ewd:figtype="rb" style="cursor:pointer;" ewd:code="FUSE35" ewd:figID="22"><path style="fill:#CCECF4;stroke:#000000; stroke-width:0; stroke-linecap:round;stroke-linejoin:round; " d=" M  5851.27,   214.25  L  5851.27,   256.74  L  5876.77,   256.74  L  5876.77,   214.25  L  5851.27,   214.25 " /></a><a ewd:figtype="rb" style="cursor:pointer;" ewd:code="FUSE6" ewd:figID="23"><path style="fill:#CCECF4;stroke:#000000; stroke-width:0; stroke-linecap:round;stroke-linejoin:round; " d=" M   174.22,    35.78  L   174.22,    78.27  L   199.72,    78.27  L   199.72,    35.78  L   174.22,    35.78 " /></a><a ewd:figtype="conn" style="cursor:pointer;" ewd:code="V2" ewd:figID="24"><path style="&st5;" d=" M   195.47,   622.18  L   314.45,   622.18  L   314.45,   579.69  L   195.47,   579.69  L   195.47,   622.18 " /><title ewd:textID="41">Conjunto del medidor del emisor de combustible</title></a><a ewd:figtype="conn" style="cursor:pointer;" ewd:code="A72,A94" ewd:figID="25"><path style="&st5;" d=" M  5855.52,   375.72  L  5872.52,   375.72  L  5872.52,   392.72  L  5855.52,   392.72  L  5855.52,   375.72 " /><title ewd:textID="60">Conector de unión n.° 3, conector de unión n.° 36</title></a><a ewd:figtype="conn" style="cursor:pointer;" ewd:code="G78" ewd:figID="26"><path style="&st5;" d=" M  5923.51,    35.78  L  5923.51,    69.77  L  6934.84,    69.77  L  6934.84,    35.78  L  5923.51,    35.78 " /><title ewd:textID="58">ECU de la carrocería principal</title></a><a ewd:figtype="conn" style="cursor:pointer;" ewd:code="G112" ewd:figID="27"><path style="&st5;" d=" M   824.36,   520.20  L   917.85,   520.20  L   917.85,   537.20  L   824.36,   537.20  L   824.36,   520.20 " /><title ewd:textID="70">Conector de unión n.° 24</title></a><a ewd:figtype="conn" style="cursor:pointer;" ewd:code="A26" ewd:figID="28"><path style="&st5;" d=" M  1206.80,   613.68  L  1206.80,   554.19  L  1249.29,   554.19  L  1249.29,   613.68  L  1206.80,   613.68 " /><title ewd:textID="25">Termistor del enfriador (sensor de la temperatura ambiente)</title></a><a ewd:figtype="conn" style="cursor:pointer;" ewd:code="A44" ewd:figID="29"><path style="&st5;" d=" M  2107.65,   554.19  L  2107.65,   588.19  L  2184.14,   588.19  L  2184.14,   554.19  L  2107.65,   554.19 " /><title ewd:textID="56">Conjunto del interruptor de advertencia del nivel</title></a><a ewd:figtype="rb" style="cursor:pointer;" ewd:code="FUSE5" ewd:figID="30"><path style="fill:#CCECF4;stroke:#000000; stroke-width:0; stroke-linecap:round;stroke-linejoin:round; " d=" M  7032.57,    35.78  L  7032.57,    78.27  L  7058.07,    78.27  L  7058.07,    35.78  L  7032.57,    35.78 " /></a><a ewd:figtype="conn" style="cursor:pointer;" ewd:code="B5" ewd:figID="31"><path style="&st5;" d=" M  2320.11,   562.69  L  2337.11,   562.69  L  2337.11,   596.69  L  2320.11,   596.69  L  2320.11,   562.69 " /><title ewd:textID="33">Conjunto del interruptor de presión del aceite de motor</title></a><a ewd:figtype="conn" style="cursor:pointer;" ewd:code="G95" ewd:figID="32"><path style="&st5;" d=" M  2830.03,   511.70  L  2847.02,   511.70  L  2847.02,   528.70  L  2830.03,   528.70  L  2830.03,   511.70 " /><title ewd:textID="64">Conector de unión n.° 8</title></a><a ewd:figtype="conn" style="cursor:pointer;" ewd:code="G100" ewd:figID="33"><path style="&st5;" d=" M  6858.35,   171.76  L  6875.35,   171.76  L  6875.35,   188.75  L  6858.35,   188.75  L  6858.35,   171.76 " /><title ewd:textID="67">Conector de unión n.° 13</title></a><a ewd:figtype="conn" style="cursor:pointer;" ewd:code="G98" ewd:figID="34"><path style="&st5;" d=" M  2906.51,   528.70  L  2906.51,   545.69  L  2966.00,   545.69  L  2966.00,   528.70  L  2906.51,   528.70 " /><title ewd:textID="66">Conector de unión n.° 11</title></a><a ewd:figtype="rb" style="cursor:pointer;" ewd:code="FUSE92" ewd:figID="35"><path style="fill:#CCECF4;stroke:#000000; stroke-width:0; stroke-linecap:round;stroke-linejoin:round; " d=" M  7092.07,    35.78  L  7092.07,    78.27  L  7117.56,    78.27  L  7117.56,    35.78  L  7092.07,    35.78 " /></a><a ewd:figtype="conn" style="cursor:pointer;" ewd:code="G8,z1" ewd:figID="36"><path style="&st5;" d=" M  3645.89,   341.73  L  3849.86,   341.73  L  3849.86,   324.73  L  3645.89,   324.73  L  3645.89,   341.73 " /><title ewd:textID="92">Subconjunto del cable espiral, conjunto del interruptor del acolchado del volante</title></a><a ewd:figtype="conn" style="cursor:pointer;" ewd:code="z1" ewd:figID="37"><path style="&st5;" d=" M  3645.89,   571.19  L  3849.86,   571.19  L  3849.86,   350.79  L  3645.89,   350.79  L  3645.89,   571.19 " /><title ewd:textID="92">Subconjunto del cable espiral, conjunto del interruptor del acolchado del volante</title></a><a ewd:figtype="conn" style="cursor:pointer;" ewd:code="A62,B75" ewd:figID="38"><path style="&st5;" d=" M  4181.30,    78.27  L  4181.30,   129.26  L  4563.74,   129.26  L  4563.74,    78.27  L  4181.30,    78.27 " /><title>ECM</title></a><a ewd:figtype="conn" style="cursor:pointer;" ewd:code="B28" ewd:figID="39"><path style="&st5;" d=" M  4181.30,   290.74  L  4249.29,   290.74  L  4249.29,   256.74  L  4181.30,   256.74  L  4181.30,   290.74 " /><title ewd:textID="27">Sensor de la posición del cigüeñal</title></a><a ewd:figtype="conn" style="cursor:pointer;" ewd:code="B4" ewd:figID="40"><path style="&st5;" d=" M  4325.78,   290.74  L  4325.78,   222.75  L  4376.77,   222.75  L  4376.77,   290.74  L  4325.78,   290.74 " /><title ewd:textID="32">Sensor de la temperatura del refrigerante del motor E.F.I.</title></a><a ewd:figtype="conn" style="cursor:pointer;" ewd:code="B19" ewd:figID="41"><path style="&st5;" d=" M  4555.24,   316.23  L  4555.24,   282.24  L  4538.24,   282.24  L  4538.24,   316.23  L  4555.24,   316.23 " /><title ewd:textID="53">Conjunto del inyector n.° 1</title></a><a ewd:figtype="conn" style="cursor:pointer;" ewd:code="G171,G188" ewd:figID="42"><path style="&st5;" d=" M  4742.21,   290.74  L  5039.66,   290.74  L  5039.66,   265.24  L  4742.21,   265.24  L  4742.21,   290.74 " /><title ewd:textID="61">Conector de unión de CAN n.° 6</title></a><a ewd:figtype="conn" style="cursor:pointer;" ewd:code="G108" ewd:figID="43"><path style="&st5;" d=" M   586.40,   520.20  L   586.40,   537.20  L   773.37,   537.20  L   773.37,   520.20  L   586.40,   520.20 " /><title ewd:textID="69">Conector de unión n.° 20</title></a><a ewd:figtype="conn" style="cursor:pointer;" ewd:code="G114" ewd:figID="44"><path style="&st5;" d=" M  4079.32,   494.70  L  4079.32,   477.71  L  4121.81,   477.71  L  4121.81,   494.70  L  4079.32,   494.70 " /><title ewd:textID="71">Conector de unión n.° 26</title></a><a ewd:figtype="conn" style="cursor:pointer;" ewd:code="G93" ewd:figID="45"><path style="&st5;" d=" M  4011.33,   494.70  L  4011.33,   477.71  L  4053.82,   477.71  L  4053.82,   494.70  L  4011.33,   494.70 " /><title ewd:textID="62">Conector de unión n.° 6</title></a><a ewd:figtype="conn" style="cursor:pointer;" ewd:code="G46,G48,G141,G143,G159" ewd:figID="46"><path style="&st5;" d=" M  3892.35,   443.71  L  3994.33,   443.71  L  3994.33,   401.22  L  3892.35,   401.22  L  3892.35,   443.71 " /><title ewd:textID="79">Conjunto del receptor de radio y pantalla, conjunto del receptor de radio</title></a><a ewd:figtype="jb" style="cursor:pointer;" ewd:code="3" ewd:figID="62"><path style="&st4; " d=" M   356.94,   103.77  L   416.43,   103.77  L   416.43,    35.78  L   356.94,    35.78  L   356.94,   103.77  " /></a><a ewd:figtype="jb" style="cursor:pointer;" ewd:code="3" ewd:figID="63"><path style="&st4; " d=" M  6390.93,   112.27  L  6416.43,   112.27  L  6416.43,    69.77  L  6390.93,    69.77  L  6390.93,   112.27  " /></a><a ewd:figtype="jb" style="cursor:pointer;" ewd:code="3" ewd:figID="64"><path style="&st4; " d=" M  6305.95,   112.27  L  6331.44,   112.27  L  6331.44,    69.77  L  6305.95,    69.77  L  6305.95,   112.27  " /></a><a ewd:figtype="jb" style="cursor:pointer;" ewd:code="3" ewd:figID="65"><path style="&st4; " d=" M  7181.30,    35.78  L  7181.30,   103.77  L  7249.29,   103.77  L  7249.29,    35.78  L  7181.30,    35.78  " /></a><a ewd:figtype="jb" style="cursor:pointer;" ewd:code="3" ewd:figID="66"><path style="&st4; " d=" M  6475.92,    69.77  L  6475.92,   112.27  L  6501.41,   112.27  L  6501.41,    69.77  L  6475.92,    69.77  " /></a><a ewd:figtype="jb" style="cursor:pointer;" ewd:code="3" ewd:figID="67"><path style="&st4; " d=" M  6552.41,    69.77  L  6552.41,   112.27  L  6577.90,   112.27  L  6577.90,    69.77  L  6552.41,    69.77  " /></a><a ewd:figtype="jb" style="cursor:pointer;" ewd:code="3" ewd:figID="68"><path style="&st4; " d=" M  6764.87,    69.77  L  6764.87,   112.27  L  6900.85,   112.27  L  6900.85,   129.26  L  7019.83,   129.26  L  7019.83,    35.78  L  6960.34,    35.78  L  6960.34,    69.77  L  6764.87,    69.77  " /></a><a ewd:figtype="fuse" style="cursor:pointer;" ewd:code="FUSE6" ewd:figID="114"><path style="&st7; stroke-width:0;" d=" M   174.22,    35.78  L   174.22,    78.27  L   199.72,    78.27  L   199.72,    35.78  L   174.22,    35.78 " /></a><a ewd:figtype="fuse" style="cursor:pointer;" ewd:code="FUSE60" ewd:figID="115"><path style="&st7; stroke-width:0;" d=" M   361.19,    35.78  L   361.19,    78.27  L   386.69,    78.27  L   386.69,    35.78  L   361.19,    35.78 " /></a><a ewd:figtype="fuse" style="cursor:pointer;" ewd:code="FUSE17" ewd:figID="116"><path style="&st7; stroke-width:0;" d=" M   548.16,    35.78  L   548.16,    78.27  L   573.65,    78.27  L   573.65,    35.78  L   548.16,    35.78 " /></a><a ewd:figtype="fuse" style="cursor:pointer;" ewd:code="FUSE15" ewd:figID="117"><path style="&st7; stroke-width:0;" d=" M  4601.98,    69.77  L  4601.98,   112.27  L  4627.48,   112.27  L  4627.48,    69.77  L  4601.98,    69.77 " /></a><a ewd:figtype="fuse" style="cursor:pointer;" ewd:code="FUSE26" ewd:figID="118"><path style="&st7; stroke-width:0;" d=" M  5766.29,    35.78  L  5766.29,    78.27  L  5791.78,    78.27  L  5791.78,    35.78  L  5766.29,    35.78 " /></a><a ewd:figtype="fuse" style="cursor:pointer;" ewd:code="FUSE35" ewd:figID="119"><path style="&st7; stroke-width:0;" d=" M  5851.27,   214.25  L  5851.27,   256.74  L  5876.77,   256.74  L  5876.77,   214.25  L  5851.27,   214.25 " /></a><a ewd:figtype="fuse" style="cursor:pointer;" ewd:code="FUSE63" ewd:figID="120"><path style="&st7; stroke-width:0;" d=" M  6964.59,    35.78  L  6964.59,    78.27  L  6990.08,    78.27  L  6990.08,    35.78  L  6964.59,    35.78 " /></a><a ewd:figtype="fuse" style="cursor:pointer;" ewd:code="FUSE5" ewd:figID="121"><path style="&st7; stroke-width:0;" d=" M  7032.57,    35.78  L  7032.57,    78.27  L  7058.07,    78.27  L  7058.07,    35.78  L  7032.57,    35.78 " /></a><a ewd:figtype="fuse" style="cursor:pointer;" ewd:code="FUSE92" ewd:figID="122"><path style="&st7; stroke-width:0;" d=" M  7092.07,    35.78  L  7092.07,    78.27  L  7117.56,    78.27  L  7117.56,    35.78  L  7092.07,    35.78 " /></a><a ewd:figtype="fuse" style="cursor:pointer;" ewd:code="FUSE58" ewd:figID="123"><path style="&st7; stroke-width:0;" d=" M  7185.55,    35.78  L  7185.55,    78.27  L  7211.05,    78.27  L  7211.05,    35.78  L  7185.55,    35.78 " /></a><a style="cursor:pointer;" ewd:lineID="1"><path style="stroke:#992903;stroke-width: 5.10 ;&st6;" d=" M   161.47,   681.67  L   161.47,   461.27  " /></a><a style="cursor:pointer;" ewd:lineID="2"><path style="stroke:#992903;stroke-width: 5.10 ;&st6;" d=" M   161.47,   461.27  L   161.47,   469.21  L   152.97,   477.71  L   127.48,   477.71  L   127.48,   681.67  " /></a><a style="cursor:pointer;" ewd:lineID="3"><path style="stroke:#FF0000;stroke-width: 5.10 ;&st6;" d=" M   186.97,   103.77  L   186.97,   137.76  L   237.96,   137.76  L   237.96,   120.77  " /></a><a style="cursor:pointer;" ewd:lineID="4"><path style="stroke:#7FC97F;stroke-width: 5.10 ;&st6;" d=" M   212.46,   579.69  L   212.46,   545.69  " /></a><a style="cursor:pointer;" ewd:lineID="5"><path style="stroke:#999999;stroke-width: 5.10 ;&st6;" d=" M   212.46,   530.96  L   212.46,   500.93  " /></a><a style="cursor:pointer;" ewd:lineID="6"><path style="stroke:#999999;stroke-width: 5.10 ;&st6;" d=" M   212.46,   486.20  L   212.46,   461.27  " /></a><a style="cursor:pointer;" ewd:lineID="7"><path style="stroke:#FFE600;stroke-width: 5.10 ;&st6;" d=" M   288.95,    95.27  L   288.95,   154.19  " /></a><a style="cursor:pointer;" ewd:lineID="8"><path style="stroke:#008837;stroke-width: 5.10 ;&st6;" d=" M   288.95,    78.27  L   288.95,    35.78  L   237.96,    35.78  L   237.96,   106.03  " /></a><a style="cursor:pointer;" ewd:lineID="9"><path style="stroke:#FFE600;stroke-width: 5.10 ;&st6;" d=" M   297.45,   579.69  L   297.45,   545.69  " /></a><a style="cursor:pointer;" ewd:lineID="10"><path style="stroke:#99D9E8;stroke-width: 5.10 ;&st6;" d=" M   297.45,   530.96  L   297.45,   500.93  " /></a><a style="cursor:pointer;" ewd:lineID="11"><path style="stroke:#99D9E8;stroke-width: 5.10 ;&st6;" d=" M   297.45,   486.20  L   297.45,   461.27  " /></a><a ewd:comment="5" style="cursor:pointer;" ewd:lineID="12"><path style="stroke:#00A0C6;stroke-width: 5.10 ;&st6;" d=" M   339.94,   461.27  L   339.94,   528.70  " /></a><a ewd:comment="14" style="cursor:pointer;" ewd:lineID="13"><path style="stroke:#F668B2;stroke-width: 5.10 ;&st6;" d=" M   365.44,   528.70  L   365.44,   477.71  L   382.44,   477.71  L   390.93,   469.21  L   390.93,   461.27  " /></a><a style="cursor:pointer;" ewd:lineID="14"><path style="stroke:#000000;stroke-width: 5.10 ;&st6;" d=" M   373.94,   103.77  L   373.94,   154.19  " /></a><a ewd:comment="13" style="cursor:pointer;" ewd:lineID="15"><path style="stroke:#008837;stroke-width: 5.10 ;&st6;" d=" M   390.93,   461.27  L   390.93,   528.70  " /></a><a ewd:comment="5" style="cursor:pointer;" ewd:lineID="16"><path style="stroke:#000000;stroke-width: 5.10 ;&st6;" d=" M   416.43,   461.27  L   416.43,   528.70  " /></a><a ewd:comment="5" style="cursor:pointer;" ewd:lineID="17"><path style="stroke:#008837;stroke-width: 5.10 ;&st6;" d=" M   441.93,   461.27  L   441.93,   528.70  " /></a><a ewd:comment="5" style="cursor:pointer;" ewd:lineID="18"> d=" M   467.42,   461.27  L   467.42,   528.70 
	
		<path style="stroke:#000000;stroke-width: 5.10 ;&st6;" d=" M   467.42,   461.27  L   467.42,   528.70  " /><path style="stroke:#FFFFFF;stroke-width: 4.53 ;&st6;" d=" M   467.42,   461.27  L   467.42,   528.70  " /></a><a ewd:comment="5" style="cursor:pointer;" ewd:lineID="19"><path style="stroke:#000000;stroke-width: 5.10 ;&st6;" d=" M   492.92,   461.27  L   492.92,   528.70  " /></a><a ewd:comment="9,8,6" style="cursor:pointer;" ewd:lineID="20"><path style="stroke:#00A0C6;stroke-width: 5.10 ;&st6;" d=" M   594.90,   605.18  L   594.90,   537.20  " /></a><a ewd:comment="7" style="cursor:pointer;" ewd:lineID="21"><path style="stroke:#FFE600;stroke-width: 5.10 ;&st6;" d=" M   628.89,   537.20  L   628.89,   605.18  " /></a><a style="cursor:pointer;" ewd:lineID="22"><path style="stroke:#00A0C6;stroke-width: 5.10 ;&st6;" d=" M   654.39,   129.26  L   654.39,   146.26  L   560.91,   146.26  L   560.91,   103.77  " /></a><a style="cursor:pointer;" ewd:lineID="23"><path style="stroke:#C3AF96;stroke-width: 5.10 ;&st6;" d=" M   679.89,   605.18  L   679.89,   537.20  " /></a><a style="cursor:pointer;" ewd:lineID="24"><path style="stroke:#F668B2;stroke-width: 5.10 ;&st6;" d=" M   679.89,   520.20  L   679.89,   461.27  " /></a><a style="cursor:pointer;" ewd:lineID="25"><path style="stroke:#00A0C6;stroke-width: 5.10 ;&st6;" d=" M   696.88,   154.19  L   696.88,    95.27  L   654.39,    95.27  L   654.39,   114.53  " /></a><a style="cursor:pointer;" ewd:lineID="26"><path style="stroke:#FF0000;stroke-width: 5.10 ;&st6;" d=" M   722.38,   537.20  L   722.38,   605.18  " /></a><a style="cursor:pointer;" ewd:lineID="27"><path style="stroke:#008837;stroke-width: 5.10 ;&st6;" d=" M   764.87,   605.18  L   764.87,   537.20  " /></a><a ewd:comment="4" style="cursor:pointer;" ewd:lineID="28"><path style="stroke:#000000;stroke-width: 5.10 ;&st6;" d=" M   764.87,   520.20  L   764.87,   460.71  L   994.33,   460.71  L   994.33,   605.18  " /></a><a style="cursor:pointer;" ewd:lineID="29"><path style="stroke:#008837;stroke-width: 5.10 ;&st6;" d=" M   832.86,   537.20  L   832.86,   579.69  L   798.87,   579.69  L   798.87,   605.18  " /></a><a style="cursor:pointer;" ewd:lineID="30"><path style="stroke:#F668B2;stroke-width: 5.10 ;&st6;" d=" M   832.86,   520.20  L   832.86,   477.71  L   688.38,   477.71  L   679.89,   469.21  L   679.89,   461.27  " /></a><a style="cursor:pointer;" ewd:lineID="31"><path style="stroke:#FF0000;stroke-width: 5.10 ;&st6;" d=" M   866.86,   537.20  L   866.86,   605.18  " /></a><a style="cursor:pointer;" ewd:lineID="32"><path style="stroke:#C3AF96;stroke-width: 5.10 ;&st6;" d=" M   909.35,   537.20  L   909.35,   605.18  " /></a><a ewd:comment="4" style="cursor:pointer;" ewd:lineID="33"><path style="stroke:#000000;stroke-width: 5.10 ;&st6;" d=" M   909.35,   520.20  L   909.35,   477.71  L   960.34,   477.71  L   960.34,   605.18  " /></a><a style="cursor:pointer;" ewd:lineID="34"><path style="stroke:#56077D;stroke-width: 5.10 ;&st6;" d=" M  1087.82,   461.27  L  1087.82,   647.68  L  4827.19,   647.68  L  4827.19,   551.93  " /></a><a style="cursor:pointer;" ewd:lineID="35"><path style="stroke:#008837;stroke-width: 5.10 ;&st6;" d=" M  1147.31,   154.19  L  1147.31,    18.78  L  5116.15,    18.78  L  5116.15,   119.63  " /></a><a style="cursor:pointer;" ewd:lineID="36"> d=" M  1198.30,   154.19  L  1198.30,    35.78  L  5082.15,    35.78  L  5082.15,   119.63 
	
		<path style="stroke:#000000;stroke-width: 5.10 ;&st6;" d=" M  1198.30,   154.19  L  1198.30,    35.78  L  5082.15,    35.78  L  5082.15,   119.63  " /><path style="stroke:#FFFFFF;stroke-width: 4.53 ;&st6;" d=" M  1198.30,   154.19  L  1198.30,    35.78  L  5082.15,    35.78  L  5082.15,   119.63  " /></a><a style="cursor:pointer;" ewd:lineID="37"><path style="stroke:#56077D;stroke-width: 5.10 ;&st6;" d=" M  1223.80,   613.68  L  1223.80,   630.68  L  1274.79,   630.68  L  1274.79,   503.20  " /></a><a style="cursor:pointer;" ewd:lineID="38"><path style="stroke:#000000;stroke-width: 5.10 ;&st6;" d=" M  1223.80,   554.19  L  1223.80,   503.20  " /></a><a style="cursor:pointer;" ewd:lineID="39"> d=" M  1223.80,   488.19  L  1223.80,   461.27 
		
		<path style="stroke:#000000;stroke-width: 5.10 ;&st6;" d=" M  1223.80,   488.19  L  1223.80,   461.27  " /><path style="stroke:#FFFFFF;stroke-width: 4.53 ;&st6;" d=" M  1223.80,   488.19  L  1223.80,   461.27  " /></a><a style="cursor:pointer;" ewd:lineID="40"><path style="stroke:#008837;stroke-width: 5.10 ;&st6;" d=" M  1274.79,   488.47  L  1274.79,   461.27  " /></a><a style="cursor:pointer;" ewd:lineID="41"><path style="stroke:#00A0C6;stroke-width: 5.10 ;&st6;" d=" M  1308.78,   461.27  L  1308.78,   537.20  " /></a><a style="cursor:pointer;" ewd:lineID="42"><path style="stroke:#00A0C6;stroke-width: 5.10 ;&st6;" d=" M  1308.78,   461.27  L  1308.78,   469.21  L  1317.28,   477.71  L  1334.28,   477.71  L  1334.28,   537.20  " /></a><a style="cursor:pointer;" ewd:lineID="43"><path style="stroke:#FFE600;stroke-width: 5.10 ;&st6;" d=" M  1376.77,   461.27  L  1376.77,   511.70  " /></a><a style="cursor:pointer;" ewd:lineID="44"><path style="stroke:#00A0C6;stroke-width: 5.10 ;&st6;" d=" M  1410.76,   461.27  L  1410.76,   511.70  " /></a><a style="cursor:pointer;" ewd:lineID="45"><path style="stroke:#999999;stroke-width: 5.10 ;&st6;" d=" M  1682.72,   520.20  L  1682.72,   461.27  " /></a><a style="cursor:pointer;" ewd:lineID="46"><path style="stroke:#7FC97F;stroke-width: 5.10 ;&st6;" d=" M  1725.21,   520.20  L  1725.21,   461.27  " /></a><a style="cursor:pointer;" ewd:lineID="47"><path style="stroke:#99D9E8;stroke-width: 5.10 ;&st6;" d=" M  1767.70,   520.20  L  1767.70,   461.27  " /></a><a style="cursor:pointer;" ewd:lineID="48"><path style="stroke:#C3AF96;stroke-width: 5.10 ;&st6;" d=" M  1810.20,   520.20  L  1810.20,   461.27  " /></a><a ewd:comment="2" style="cursor:pointer;" ewd:lineID="49"><path style="stroke:#008837;stroke-width: 5.10 ;&st6;" d=" M  1895.18,   461.27  L  1895.18,   520.20  " /></a><a ewd:comment="2" style="cursor:pointer;" ewd:lineID="50"><path style="stroke:#999999;stroke-width: 5.10 ;&st6;" d=" M  1937.68,   461.27  L  1937.68,   520.20  " /></a><a ewd:comment="2" style="cursor:pointer;" ewd:lineID="51"><path style="stroke:#56077D;stroke-width: 5.10 ;&st6;" d=" M  1980.17,   461.27  L  1980.17,   520.20  " /></a><a ewd:comment="2" style="cursor:pointer;" ewd:lineID="52"><path style="stroke:#F668B2;stroke-width: 5.10 ;&st6;" d=" M  2022.66,   461.27  L  2022.66,   520.20  " /></a><a ewd:comment="15" style="cursor:pointer;" ewd:lineID="53"><path style="stroke:#7FC97F;stroke-width: 5.10 ;&st6;" d=" M  2124.65,   511.70  L  2124.65,   554.19  " /></a><a ewd:comment="15" style="cursor:pointer;" ewd:lineID="54"><path style="stroke:#7FC97F;stroke-width: 5.10 ;&st6;" d=" M  2124.65,   496.97  L  2124.65,   461.27  " /></a><a ewd:comment="15" style="cursor:pointer;" ewd:lineID="55"><path style="stroke:#000000;stroke-width: 5.10 ;&st6;" d=" M  2167.14,   554.19  L  2167.14,   528.70  L  2218.13,   528.70  L  2218.13,   554.19  " /><path style="stroke:#FFFFFF;stroke-width: 4.53 ;&st6;" d=" M  2167.14,   554.19  L  2167.14,   528.70  L  2218.13,   528.70  L  2218.13,   554.19  " /><path style="stroke:#000000;stroke-width: 1.13 ;&st6;" d=" M  2167.14,   554.19  L  2167.14,   528.70  L  2218.13,   528.70  L  2218.13,   554.19  " /></a><a ewd:comment="15" style="cursor:pointer;" ewd:lineID="56"><path style="stroke:#000000;stroke-width: 5.10 ;&st6;" d=" M  2218.13,   571.19  L  2218.13,   681.67  " /><path style="stroke:#FFFFFF;stroke-width: 4.53 ;&st6;" d=" M  2218.13,   571.19  L  2218.13,   681.67  " /><path style="stroke:#000000;stroke-width: 1.13 ;&st6;" d=" M  2218.13,   571.19  L  2218.13,   681.67  " /></a><a style="cursor:pointer;" ewd:lineID="57"><path style="stroke:#00A0C6;stroke-width: 5.10 ;&st6;" d=" M  2260.62,   579.69  L  2260.62,   596.69  L  2294.62,   596.69  L  2294.62,   503.20  L  2328.61,   503.20  L  2328.61,   562.69  " /></a><a style="cursor:pointer;" ewd:lineID="58"><path style="stroke:#00A0C6;stroke-width: 5.10 ;&st6;" d=" M  2260.62,   564.96  L  2260.62,   511.70  " /></a><a style="cursor:pointer;" ewd:lineID="59"><path style="stroke:#00A0C6;stroke-width: 5.10 ;&st6;" d=" M  2260.62,   496.97  L  2260.62,   461.27  " /></a><a ewd:comment="2" style="cursor:pointer;" ewd:lineID="60"><path style="stroke:#7FC97F;stroke-width: 5.10 ;&st6;" d=" M  2439.09,   461.27  L  2439.09,   520.20  " /></a><a ewd:comment="2" style="cursor:pointer;" ewd:lineID="61"><path style="stroke:#000000;stroke-width: 5.10 ;&st6;" d=" M  2838.53,   528.70  L  2838.53,   596.69  L  2915.01,   596.69  L  2915.01,   545.69  " /><path style="stroke:#FFFFFF;stroke-width: 4.53 ;&st6;" d=" M  2838.53,   528.70  L  2838.53,   596.69  L  2915.01,   596.69  L  2915.01,   545.69  " /><path style="stroke:#000000;stroke-width: 1.13 ;&st6;" d=" M  2838.53,   528.70  L  2838.53,   596.69  L  2915.01,   596.69  L  2915.01,   545.69  " /></a><a ewd:comment="2" style="cursor:pointer;" ewd:lineID="62"><path style="stroke:#992903;stroke-width: 5.10 ;&st6;" d=" M  2838.53,   461.27  L  2838.53,   511.70  " /></a><a ewd:comment="2" style="cursor:pointer;" ewd:lineID="63"><path style="stroke:#000000;stroke-width: 5.10 ;&st6;" d=" M  2957.51,   545.69  L  2957.51,   681.67  " /><path style="stroke:#FFFFFF;stroke-width: 4.53 ;&st6;" d=" M  2957.51,   545.69  L  2957.51,   681.67  " /><path style="stroke:#000000;stroke-width: 1.13 ;&st6;" d=" M  2957.51,   545.69  L  2957.51,   681.67  " /></a><a ewd:comment="3" style="cursor:pointer;" ewd:lineID="64"><path style="stroke:#56077D;stroke-width: 5.10 ;&st6;" d=" M  3322.94,   461.27  L  3322.94,   630.68  L  3943.34,   630.68  L  3943.34,   452.78  " /></a><a ewd:comment="3" style="cursor:pointer;" ewd:lineID="65"><path style="stroke:#99D9E8;stroke-width: 5.10 ;&st6;" d=" M  3356.94,   461.27  L  3356.94,   613.68  L  3909.35,   613.68  L  3909.35,   452.78  " /></a><a style="cursor:pointer;" ewd:lineID="66"><path style="stroke:#7FC97F;stroke-width: 5.10 ;&st6;" d=" M  3467.42,   511.70  L  3467.42,   461.27  " /></a><a style="cursor:pointer;" ewd:lineID="67"><path style="stroke:#00A0C6;stroke-width: 5.10 ;&st6;" d=" M  3679.89,   315.67  L  3679.89,    69.77  L  1300.28,    69.77  L  1300.28,   154.19  " /></a><a style="cursor:pointer;" ewd:lineID="68"><path style="stroke:#C3AF96;stroke-width: 5.10 ;&st6;" d=" M  3781.87,   315.67  L  3781.87,    52.78  L  1249.29,    52.78  L  1249.29,   154.19  " /></a><a ewd:comment="9" style="cursor:pointer;" ewd:lineID="69"><path style="stroke:#000000;stroke-width: 5.10 ;&st6;" d=" M  3824.36,   315.67  L  3824.36,   307.73  L  3841.36,   290.74  L  3841.36,   256.74  L  3960.34,   256.74  L  3960.34,   358.73  L  3977.34,   375.72  L  3977.34,   383.09  " /><path style="stroke:#FFFFFF;stroke-width: 4.53 ;&st6;" d=" M  3824.36,   315.67  L  3824.36,   307.73  L  3841.36,   290.74  L  3841.36,   256.74  L  3960.34,   256.74  L  3960.34,   358.73  L  3977.34,   375.72  L  3977.34,   383.09  " /><path style="stroke:#000000;stroke-width: 1.13 ;&st6;" d=" M  3824.36,   315.67  L  3824.36,   307.73  L  3841.36,   290.74  L  3841.36,   256.74  L  3960.34,   256.74  L  3960.34,   358.73  L  3977.34,   375.72  L  3977.34,   383.09  " /></a><a ewd:comment="8" style="cursor:pointer;" ewd:lineID="70"><path style="stroke:#000000;stroke-width: 5.10 ;&st6;" d=" M  4019.83,   477.71  L  4019.83,   367.22  L  3985.83,   367.22  L  3977.34,   375.72  L  3977.34,   383.09  " /><path style="stroke:#FFFFFF;stroke-width: 4.53 ;&st6;" d=" M  4019.83,   477.71  L  4019.83,   367.22  L  3985.83,   367.22  L  3977.34,   375.72  L  3977.34,   383.09  " /><path style="stroke:#000000;stroke-width: 1.13 ;&st6;" d=" M  4019.83,   477.71  L  4019.83,   367.22  L  3985.83,   367.22  L  3977.34,   375.72  L  3977.34,   383.09  " /></a><a style="cursor:pointer;" ewd:lineID="71"><path style="stroke:#992903;stroke-width: 5.10 ;&st6;" d=" M  4045.32,   681.67  L  4045.32,   673.17  L  4036.83,   664.67  L  3977.34,   664.67  L  3977.34,   461.84  " /></a><a ewd:comment="8" style="cursor:pointer;" ewd:lineID="72"><path style="stroke:#000000;stroke-width: 5.10 ;&st6;" d=" M  4045.32,   494.70  L  4045.32,   681.67  " /><path style="stroke:#FFFFFF;stroke-width: 4.53 ;&st6;" d=" M  4045.32,   494.70  L  4045.32,   681.67  " /><path style="stroke:#000000;stroke-width: 1.13 ;&st6;" d=" M  4045.32,   494.70  L  4045.32,   681.67  " /></a><a ewd:comment="8" style="cursor:pointer;" ewd:lineID="73"><path style="stroke:#000000;stroke-width: 5.10 ;&st6;" d=" M  4045.32,   477.71  L  4045.32,   239.75  L  3824.36,   239.75  L  3824.36,   315.67  " /><path style="stroke:#FFFFFF;stroke-width: 4.53 ;&st6;" d=" M  4045.32,   477.71  L  4045.32,   239.75  L  3824.36,   239.75  L  3824.36,   315.67  " /><path style="stroke:#000000;stroke-width: 1.13 ;&st6;" d=" M  4045.32,   477.71  L  4045.32,   239.75  L  3824.36,   239.75  L  3824.36,   315.67  " /></a><a ewd:comment="8" style="cursor:pointer;" ewd:lineID="74"><path style="stroke:#000000;stroke-width: 5.10 ;&st6;" d=" M  4087.82,   477.71  L  4087.82,   333.23  L  3977.34,   333.23  L  3977.34,   383.09  " /><path style="stroke:#FFFFFF;stroke-width: 4.53 ;&st6;" d=" M  4087.82,   477.71  L  4087.82,   333.23  L  3977.34,   333.23  L  3977.34,   383.09  " /><path style="stroke:#000000;stroke-width: 1.13 ;&st6;" d=" M  4087.82,   477.71  L  4087.82,   333.23  L  3977.34,   333.23  L  3977.34,   383.09  " /></a><a ewd:comment="8" style="cursor:pointer;" ewd:lineID="75"><path style="stroke:#000000;stroke-width: 5.10 ;&st6;" d=" M  4113.31,   494.70  L  4113.31,   664.67  L  4053.82,   664.67  L  4045.32,   673.17  L  4045.32,   681.67  " /><path style="stroke:#FFFFFF;stroke-width: 4.53 ;&st6;" d=" M  4113.31,   494.70  L  4113.31,   664.67  L  4053.82,   664.67  L  4045.32,   673.17  L  4045.32,   681.67  " /><path style="stroke:#000000;stroke-width: 1.13 ;&st6;" d=" M  4113.31,   494.70  L  4113.31,   664.67  L  4053.82,   664.67  L  4045.32,   673.17  L  4045.32,   681.67  " /></a><a ewd:comment="8" style="cursor:pointer;" ewd:lineID="76"><path style="stroke:#000000;stroke-width: 5.10 ;&st6;" d=" M  4113.31,   477.71  L  4113.31,   214.25  L  3807.36,   214.25  L  3807.36,   290.74  L  3824.36,   307.73  L  3824.36,   315.67  " /><path style="stroke:#FFFFFF;stroke-width: 4.53 ;&st6;" d=" M  4113.31,   477.71  L  4113.31,   214.25  L  3807.36,   214.25  L  3807.36,   290.74  L  3824.36,   307.73  L  3824.36,   315.67  " /><path style="stroke:#000000;stroke-width: 1.13 ;&st6;" d=" M  4113.31,   477.71  L  4113.31,   214.25  L  3807.36,   214.25  L  3807.36,   290.74  L  3824.36,   307.73  L  3824.36,   315.67  " /></a><a style="cursor:pointer;" ewd:lineID="77"> d=" M  4198.30,   256.74  L  4198.30,   138.33 
	
		<path style="stroke:#000000;stroke-width: 5.10 ;&st6;" d=" M  4198.30,   256.74  L  4198.30,   138.33  " /><path style="stroke:#FFFFFF;stroke-width: 4.53 ;&st6;" d=" M  4198.30,   256.74  L  4198.30,   138.33  " /></a><a style="cursor:pointer;" ewd:lineID="78"><path style="stroke:#000000;stroke-width: 5.10 ;&st6;" d=" M  4232.29,   256.74  L  4232.29,   138.33  " /></a><a style="cursor:pointer;" ewd:lineID="79"><path style="stroke:#992903;stroke-width: 5.10 ;&st6;" d=" M  4291.78,   384.22  L  4291.78,   681.67  " /></a><a style="cursor:pointer;" ewd:lineID="80"><path style="stroke:#992903;stroke-width: 5.10 ;&st6;" d=" M  4291.78,   171.76  L  4291.78,   367.22  " /></a><a style="cursor:pointer;" ewd:lineID="81"><path style="stroke:#999999;stroke-width: 5.10 ;&st6;" d=" M  4351.27,   290.74  L  4351.27,   316.23  L  4419.26,   316.23  L  4419.26,   138.33  " /></a><a style="cursor:pointer;" ewd:lineID="82"><path style="stroke:#992903;stroke-width: 5.10 ;&st6;" d=" M  4351.27,   138.33  L  4351.27,   222.75  " /></a><a style="cursor:pointer;" ewd:lineID="83"><path style="stroke:#FFE600;stroke-width: 5.10 ;&st6;" d=" M  4470.25,   138.33  L  4470.25,   469.21  L  4784.70,   469.21  L  4784.70,   375.72  " /></a><a style="cursor:pointer;" ewd:lineID="84"> d=" M  4504.25,   138.33  L  4504.25,   452.21  L  4750.71,   452.21  L  4750.71,   375.72 
	
		<path style="stroke:#000000;stroke-width: 5.10 ;&st6;" d=" M  4504.25,   138.33  L  4504.25,   452.21  L  4750.71,   452.21  L  4750.71,   375.72  " /><path style="stroke:#FFFFFF;stroke-width: 4.53 ;&st6;" d=" M  4504.25,   138.33  L  4504.25,   452.21  L  4750.71,   452.21  L  4750.71,   375.72  " /></a><a style="cursor:pointer;" ewd:lineID="85"><path style="stroke:#FFE600;stroke-width: 5.10 ;&st6;" d=" M  4546.74,   316.23  L  4546.74,   367.22  L  4614.73,   367.22  L  4614.73,   341.73  " /></a><a style="cursor:pointer;" ewd:lineID="86"><path style="stroke:#00A0C6;stroke-width: 5.10 ;&st6;" d=" M  4546.74,   282.24  L  4546.74,   138.33  " /></a><a style="cursor:pointer;" ewd:lineID="87"><path style="stroke:#FFE600;stroke-width: 5.10 ;&st6;" d=" M  4614.73,   222.75  L  4614.73,   324.73  " /></a><a style="cursor:pointer;" ewd:lineID="88"><path style="stroke:#000000;stroke-width: 5.10 ;&st6;" d=" M  4614.73,   208.02  L  4614.73,   137.76  " /></a><a style="cursor:pointer;" ewd:lineID="89"> d=" M  4750.71,   308.87  L  4750.71,   360.71 
	
		<path style="stroke:#000000;stroke-width: 5.10 ;&st6;" d=" M  4750.71,   308.87  L  4750.71,   360.71  " /><path style="stroke:#FFFFFF;stroke-width: 4.53 ;&st6;" d=" M  4750.71,   308.87  L  4750.71,   360.71  " /></a><a style="cursor:pointer;" ewd:lineID="90"><path style="stroke:#FFE600;stroke-width: 5.10 ;&st6;" d=" M  4784.70,   308.87  L  4784.70,   360.99  " /></a><a style="cursor:pointer;" ewd:lineID="91"><path style="stroke:#56077D;stroke-width: 5.10 ;&st6;" d=" M  4827.19,   537.20  L  4827.19,   486.20  " /></a><a style="cursor:pointer;" ewd:lineID="92"> d=" M  4827.19,   375.72  L  4827.19,   452.21 
	
		<path style="stroke:#000000;stroke-width: 5.10 ;&st6;" d=" M  4827.19,   375.72  L  4827.19,   452.21  " /><path style="stroke:#FFFFFF;stroke-width: 4.53 ;&st6;" d=" M  4827.19,   375.72  L  4827.19,   452.21  " /></a><a style="cursor:pointer;" ewd:lineID="93"> d=" M  4827.19,   308.87  L  4827.19,   360.71 
	
		<path style="stroke:#000000;stroke-width: 5.10 ;&st6;" d=" M  4827.19,   308.87  L  4827.19,   360.71  " /><path style="stroke:#FFFFFF;stroke-width: 4.53 ;&st6;" d=" M  4827.19,   308.87  L  4827.19,   360.71  " /></a><a style="cursor:pointer;" ewd:lineID="94"><path style="stroke:#999999;stroke-width: 5.10 ;&st6;" d=" M  4861.19,   375.72  L  4861.19,   384.22  L  4869.69,   392.72  L  4878.18,   392.72  L  4878.18,   435.21  L  4869.69,   435.21  L  4861.19,   443.71  L  4861.19,   452.21  " /></a><a style="cursor:pointer;" ewd:lineID="95"><path style="stroke:#FF0000;stroke-width: 5.10 ;&st6;" d=" M  4861.19,   375.72  L  4861.19,   452.21  " /></a><a style="cursor:pointer;" ewd:lineID="96"><path style="stroke:#999999;stroke-width: 5.10 ;&st6;" d=" M  4861.19,   308.87  L  4861.19,   360.99  " /></a><a style="cursor:pointer;" ewd:lineID="97"> d=" M  4920.68,   308.87  L  4920.68,   613.68  L  5974.50,   613.68  L  5974.50,    78.84 
	
		<path style="stroke:#000000;stroke-width: 5.10 ;&st6;" d=" M  4920.68,   308.87  L  4920.68,   613.68  L  5974.50,   613.68  L  5974.50,    78.84  " /><path style="stroke:#FFFFFF;stroke-width: 4.53 ;&st6;" d=" M  4920.68,   308.87  L  4920.68,   613.68  L  5974.50,   613.68  L  5974.50,    78.84  " /></a><a style="cursor:pointer;" ewd:lineID="98"><path style="stroke:#008837;stroke-width: 5.10 ;&st6;" d=" M  4954.67,   308.87  L  4954.67,   596.69  L  5940.51,   596.69  L  5940.51,    78.84  " /></a><a style="cursor:pointer;" ewd:lineID="99"> d=" M  4997.17,   181.39  L  4997.17,   247.11 
	
		<path style="stroke:#000000;stroke-width: 5.10 ;&st6;" d=" M  4997.17,   181.39  L  4997.17,   247.11  " /><path style="stroke:#FFFFFF;stroke-width: 4.53 ;&st6;" d=" M  4997.17,   181.39  L  4997.17,   247.11  " /></a><a style="cursor:pointer;" ewd:lineID="100"><path style="stroke:#56077D;stroke-width: 5.10 ;&st6;" d=" M  5031.16,   181.39  L  5031.16,   247.11  " /></a><a style="cursor:pointer;" ewd:lineID="101"> d=" M  5082.15,   172.32  L  5082.15,   384.22  L  5320.11,   384.22  L  5320.11,   138.33 
	
		<path style="stroke:#000000;stroke-width: 5.10 ;&st6;" d=" M  5082.15,   172.32  L  5082.15,   384.22  L  5320.11,   384.22  L  5320.11,   138.33  " /><path style="stroke:#FFFFFF;stroke-width: 4.53 ;&st6;" d=" M  5082.15,   172.32  L  5082.15,   384.22  L  5320.11,   384.22  L  5320.11,   138.33  " /></a><a style="cursor:pointer;" ewd:lineID="102"><path style="stroke:#7FC97F;stroke-width: 5.10 ;&st6;" d=" M  5116.15,   172.32  L  5116.15,   367.22  L  5269.12,   367.22  L  5269.12,   138.33  " /></a><a style="cursor:pointer;" ewd:lineID="103"><path style="stroke:#7FC97F;stroke-width: 5.10 ;&st6;" d=" M  5269.12,   138.33  L  5269.12,   146.26  L  5277.62,   154.76  L  5294.62,   154.76  L  5294.62,   435.21  L  5031.16,   435.21  L  5031.16,   299.80  " /></a><a style="cursor:pointer;" ewd:lineID="104"> d=" M  5320.11,   138.33  L  5320.11,   146.26  L  5328.61,   154.76  L  5345.61,   154.76  L  5345.61,   452.21  L  4997.17,   452.21  L  4997.17,   299.80 
	
		<path style="stroke:#000000;stroke-width: 5.10 ;&st6;" d=" M  5320.11,   138.33  L  5320.11,   146.26  L  5328.61,   154.76  L  5345.61,   154.76  L  5345.61,   452.21  L  4997.17,   452.21  L  4997.17,   299.80  " /><path style="stroke:#FFFFFF;stroke-width: 4.53 ;&st6;" d=" M  5320.11,   138.33  L  5320.11,   146.26  L  5328.61,   154.76  L  5345.61,   154.76  L  5345.61,   452.21  L  4997.17,   452.21  L  4997.17,   299.80  " /></a><a style="cursor:pointer;" ewd:lineID="105"><path style="stroke:#008837;stroke-width: 5.10 ;&st6;" d=" M  5413.60,   248.24  L  5413.60,   350.23  " /></a><a style="cursor:pointer;" ewd:lineID="106"><path style="stroke:#008837;stroke-width: 5.10 ;&st6;" d=" M  5413.60,   138.33  L  5413.60,   233.51  " /></a><a style="cursor:pointer;" ewd:lineID="107"><path style="stroke:#00A0C6;stroke-width: 5.10 ;&st6;" d=" M  5447.59,   248.24  L  5447.59,   350.23  " /></a><a style="cursor:pointer;" ewd:lineID="108"><path style="stroke:#00A0C6;stroke-width: 5.10 ;&st6;" d=" M  5447.59,   138.33  L  5447.59,   233.51  " /></a><a style="cursor:pointer;" ewd:lineID="109"><path style="stroke:#FF0000;stroke-width: 5.10 ;&st6;" d=" M  5481.58,   248.24  L  5481.58,   350.23  " /></a><a style="cursor:pointer;" ewd:lineID="110"> d=" M  5481.58,   138.33  L  5481.58,   233.23 
	
		<path style="stroke:#000000;stroke-width: 5.10 ;&st6;" d=" M  5481.58,   138.33  L  5481.58,   233.23  " /><path style="stroke:#FFFFFF;stroke-width: 4.53 ;&st6;" d=" M  5481.58,   138.33  L  5481.58,   233.23  " /></a><a style="cursor:pointer;" ewd:lineID="111"><path style="stroke:#56077D;stroke-width: 5.10 ;&st6;" d=" M  5515.58,   248.24  L  5515.58,   350.23  " /></a><a style="cursor:pointer;" ewd:lineID="112"><path style="stroke:#56077D;stroke-width: 5.10 ;&st6;" d=" M  5515.58,   138.33  L  5515.58,   233.51  " /></a><a style="cursor:pointer;" ewd:lineID="113"><path style="stroke:#FFE600;stroke-width: 5.10 ;&st6;" d=" M  5549.57,   248.24  L  5549.57,   350.23  " /></a><a style="cursor:pointer;" ewd:lineID="114"><path style="stroke:#FFE600;stroke-width: 5.10 ;&st6;" d=" M  5549.57,   138.33  L  5549.57,   233.51  " /></a><a style="cursor:pointer;" ewd:lineID="115"><path style="stroke:#999999;stroke-width: 5.10 ;&st6;" d=" M  5583.57,   248.24  L  5583.57,   350.23  " /></a><a style="cursor:pointer;" ewd:lineID="116"><path style="stroke:#C3AF96;stroke-width: 5.10 ;&st6;" d=" M  5583.57,   138.33  L  5583.57,   233.51  " /></a><a style="cursor:pointer;" ewd:lineID="117"><path style="stroke:#7FC97F;stroke-width: 5.10 ;&st6;" d=" M  5617.56,   248.24  L  5617.56,   350.23  " /></a><a style="cursor:pointer;" ewd:lineID="118"><path style="stroke:#7FC97F;stroke-width: 5.10 ;&st6;" d=" M  5617.56,   138.33  L  5617.56,   233.51  " /></a><a style="cursor:pointer;" ewd:lineID="119"> d=" M  5651.56,   452.21  L  5651.56,   503.20 
	
		<path style="stroke:#000000;stroke-width: 5.10 ;&st6;" d=" M  5651.56,   452.21  L  5651.56,   503.20  " /><path style="stroke:#FFFFFF;stroke-width: 4.53 ;&st6;" d=" M  5651.56,   452.21  L  5651.56,   503.20  " /></a><a style="cursor:pointer;" ewd:lineID="120"><path style="stroke:#000000;stroke-width: 5.10 ;&st6;" d=" M  5779.03,   137.76  L  5779.03,   103.77  " /></a><a style="cursor:pointer;" ewd:lineID="121"><path style="stroke:#FF0000;stroke-width: 5.10 ;&st6;" d=" M  5864.02,   410.85  L  5864.02,   562.69  L  5651.56,   562.69  L  5651.56,   517.93  " /></a><a style="cursor:pointer;" ewd:lineID="122"><path style="stroke:#008837;stroke-width: 5.10 ;&st6;" d=" M  5864.02,   357.59  L  5864.02,   290.74  " /></a><a style="cursor:pointer;" ewd:lineID="123"><path style="stroke:#FF0000;stroke-width: 5.10 ;&st6;" d=" M  5864.02,   180.26  L  5864.02,   120.77  L  5813.03,   120.77  L  5813.03,   137.76  " /></a><a style="cursor:pointer;" ewd:lineID="124"><path style="stroke:#FFE600;stroke-width: 5.10 ;&st6;" d=" M  6016.99,   194.99  L  6016.99,   265.24  " /></a><a style="cursor:pointer;" ewd:lineID="125"><path style="stroke:#FFE600;stroke-width: 5.10 ;&st6;" d=" M  6016.99,    78.84  L  6016.99,   180.26  " /></a><a style="cursor:pointer;" ewd:lineID="126"><path style="stroke:#99D9E8;stroke-width: 5.10 ;&st6;" d=" M  6093.48,   194.99  L  6093.48,   197.25  L  6084.98,   205.75  L  6067.99,   205.75  L  6067.99,   248.24  L  6084.98,   248.24  L  6093.48,   256.74  L  6093.48,   265.24  " /></a><a style="cursor:pointer;" ewd:lineID="127"> d=" M  6093.48,   195.27  L  6093.48,   265.24 
	
		<path style="stroke:#000000;stroke-width: 5.10 ;&st6;" d=" M  6093.48,   195.27  L  6093.48,   265.24  " /><path style="stroke:#FFFFFF;stroke-width: 4.53 ;&st6;" d=" M  6093.48,   195.27  L  6093.48,   265.24  " /></a><a style="cursor:pointer;" ewd:lineID="128"><path style="stroke:#99D9E8;stroke-width: 5.10 ;&st6;" d=" M  6093.48,   180.26  L  6093.48,   171.76  L  6084.98,   163.26  L  6067.99,   163.26  L  6067.99,   103.77  L  6084.98,   103.77  L  6093.48,    95.27  L  6093.48,    87.90  " /></a><a style="cursor:pointer;" ewd:lineID="129"> d=" M  6093.48,    87.90  L  6093.48,   180.26 
	
		<path style="stroke:#000000;stroke-width: 5.10 ;&st6;" d=" M  6093.48,    87.90  L  6093.48,   180.26  " /><path style="stroke:#FFFFFF;stroke-width: 4.53 ;&st6;" d=" M  6093.48,    87.90  L  6093.48,   180.26  " /></a><a style="cursor:pointer;" ewd:lineID="130"><path style="stroke:#999999;stroke-width: 5.10 ;&st6;" d=" M  6144.47,   137.76  L  6144.47,   163.26  L  6161.47,   163.26  L  6169.97,   171.76  L  6169.97,   180.26  " /></a><a style="cursor:pointer;" ewd:lineID="131"><path style="stroke:#999999;stroke-width: 5.10 ;&st6;" d=" M  6144.47,   120.77  L  6144.47,    95.27  L  6161.47,    95.27  L  6169.97,    86.77  L  6169.97,    78.84  " /></a><a style="cursor:pointer;" ewd:lineID="132"><path style="stroke:#00A0C6;stroke-width: 5.10 ;&st6;" d=" M  6169.97,   265.24  L  6169.97,   194.99  " /></a><a style="cursor:pointer;" ewd:lineID="133"><path style="stroke:#00A0C6;stroke-width: 5.10 ;&st6;" d=" M  6169.97,    78.84  L  6169.97,   180.26  " /></a><a style="cursor:pointer;" ewd:lineID="134"> d=" M  6322.94,   265.24  L  6322.94,   112.27 
	
		<path style="stroke:#000000;stroke-width: 5.10 ;&st6;" d=" M  6322.94,   265.24  L  6322.94,   112.27  " /><path style="stroke:#FFFFFF;stroke-width: 4.53 ;&st6;" d=" M  6322.94,   265.24  L  6322.94,   112.27  " /></a><a style="cursor:pointer;" ewd:lineID="135"><path style="stroke:#000000;stroke-width: 5.10 ;&st6;" d=" M  6407.93,   112.27  L  6407.93,   247.11  " /></a><a ewd:comment="12" style="cursor:pointer;" ewd:lineID="136"><path style="stroke:#000000;stroke-width: 5.10 ;&st6;" d=" M  6484.42,   613.68  L  6314.44,   613.68  L  6314.44,   503.20  " /><path style="stroke:#FFFFFF;stroke-width: 4.53 ;&st6;" d=" M  6484.42,   613.68  L  6314.44,   613.68  L  6314.44,   503.20  " /><path style="stroke:#000000;stroke-width: 1.13 ;&st6;" d=" M  6484.42,   613.68  L  6314.44,   613.68  L  6314.44,   503.20  " /></a><a style="cursor:pointer;" ewd:lineID="137"><path style="stroke:#000000;stroke-width: 5.10 ;&st6;" d=" M  6492.92,   622.18  L  6492.92,   681.67  " /><path style="stroke:#FFFFFF;stroke-width: 4.53 ;&st6;" d=" M  6492.92,   622.18  L  6492.92,   681.67  " /><path style="stroke:#000000;stroke-width: 1.13 ;&st6;" d=" M  6492.92,   622.18  L  6492.92,   681.67  " /></a><a ewd:comment="11" style="cursor:pointer;" ewd:lineID="138"><path style="stroke:#000000;stroke-width: 5.10 ;&st6;" d=" M  6492.92,   537.20  L  6492.92,   605.18  " /><path style="stroke:#FFFFFF;stroke-width: 4.53 ;&st6;" d=" M  6492.92,   537.20  L  6492.92,   605.18  " /><path style="stroke:#000000;stroke-width: 1.13 ;&st6;" d=" M  6492.92,   537.20  L  6492.92,   605.18  " /></a><a ewd:comment="12" style="cursor:pointer;" ewd:lineID="139"> d=" M  6492.92,   341.73  L  6492.92,   350.23  L  6484.42,   358.73  L  6314.44,   358.73  L  6314.44,   452.21 
	
		<path style="stroke:#000000;stroke-width: 5.10 ;&st6;" d=" M  6492.92,   341.73  L  6492.92,   350.23  L  6484.42,   358.73  L  6314.44,   358.73  L  6314.44,   452.21  " /><path style="stroke:#FFFFFF;stroke-width: 4.53 ;&st6;" d=" M  6492.92,   341.73  L  6492.92,   350.23  L  6484.42,   358.73  L  6314.44,   358.73  L  6314.44,   452.21  " /></a><a ewd:comment="11" style="cursor:pointer;" ewd:lineID="140"> d=" M  6492.92,   341.73  L  6492.92,   418.22 
	
		<path style="stroke:#000000;stroke-width: 5.10 ;&st6;" d=" M  6492.92,   341.73  L  6492.92,   418.22  " /><path style="stroke:#FFFFFF;stroke-width: 4.53 ;&st6;" d=" M  6492.92,   341.73  L  6492.92,   418.22  " /></a><a style="cursor:pointer;" ewd:lineID="141"><path style="stroke:#7FC97F;stroke-width: 5.10 ;&st6;" d=" M  6492.92,   291.87  L  6492.92,   327.00  " /></a><a style="cursor:pointer;" ewd:lineID="142"><path style="stroke:#999999;stroke-width: 5.10 ;&st6;" d=" M  6492.92,   112.27  L  6492.92,   238.61  " /></a><a style="cursor:pointer;" ewd:lineID="143"><path style="stroke:#000000;stroke-width: 5.10 ;&st6;" d=" M  6569.40,   681.67  L  6569.40,   112.27  " /><path style="stroke:#FFFFFF;stroke-width: 4.53 ;&st6;" d=" M  6569.40,   681.67  L  6569.40,   112.27  " /><path style="stroke:#000000;stroke-width: 1.13 ;&st6;" d=" M  6569.40,   681.67  L  6569.40,   112.27  " /></a><a ewd:comment="2" style="cursor:pointer;" ewd:lineID="144"> d=" M  6866.85,   188.75  L  6866.85,   256.74  L  7045.32,   256.74  L  7045.32,   169.77 
	
		<path style="stroke:#000000;stroke-width: 5.10 ;&st6;" d=" M  6866.85,   188.75  L  6866.85,   256.74  L  7045.32,   256.74  L  7045.32,   169.77  " /><path style="stroke:#FFFFFF;stroke-width: 4.53 ;&st6;" d=" M  6866.85,   188.75  L  6866.85,   256.74  L  7045.32,   256.74  L  7045.32,   169.77  " /></a><a ewd:comment="2" style="cursor:pointer;" ewd:lineID="145"><path style="stroke:#56077D;stroke-width: 5.10 ;&st6;" d=" M  6866.85,   112.27  L  6866.85,   171.76  " /></a><a ewd:comment="2" style="cursor:pointer;" ewd:lineID="146"><path style="stroke:#FF0000;stroke-width: 5.10 ;&st6;" d=" M  7045.32,   103.77  L  7045.32,   154.76  " /></a><a ewd:comment="10" style="cursor:pointer;" ewd:lineID="147"> d=" M  7104.81,   163.26  L  7104.81,   273.74  L  6832.86,   273.74  L  6832.86,   129.26  L  6858.35,   129.26  L  6866.85,   120.77  L  6866.85,   112.27 
	
		<path style="stroke:#000000;stroke-width: 5.10 ;&st6;" d=" M  7104.81,   163.26  L  7104.81,   273.74  L  6832.86,   273.74  L  6832.86,   129.26  L  6858.35,   129.26  L  6866.85,   120.77  L  6866.85,   112.27  " /><path style="stroke:#FFFFFF;stroke-width: 4.53 ;&st6;" d=" M  7104.81,   163.26  L  7104.81,   273.74  L  6832.86,   273.74  L  6832.86,   129.26  L  6858.35,   129.26  L  6866.85,   120.77  L  6866.85,   112.27  " /></a><a ewd:comment="10" style="cursor:pointer;" ewd:lineID="148"> d=" M  7104.81,   103.77  L  7104.81,   148.24 
	
		<path style="stroke:#000000;stroke-width: 5.10 ;&st6;" d=" M  7104.81,   103.77  L  7104.81,   148.24  " /><path style="stroke:#FFFFFF;stroke-width: 4.53 ;&st6;" d=" M  7104.81,   103.77  L  7104.81,   148.24  " /></a><a style="cursor:pointer;" ewd:lineID="149"><path style="stroke:#00A0C6;stroke-width: 5.10 ;&st6;" d=" M  7147.31,   197.25  L  7147.31,   324.73  L  6807.36,   324.73  L  6807.36,   129.26  L  6790.37,   129.26  L  6781.87,   120.77  L  6781.87,   112.27  " /></a><a style="cursor:pointer;" ewd:lineID="150"><path style="stroke:#00A0C6;stroke-width: 5.10 ;&st6;" d=" M  7198.30,   197.25  L  7198.30,   341.73  L  6781.87,   341.73  L  6781.87,   112.27  " /></a><a style="cursor:pointer;" ewd:lineID="151"><path style="stroke:#008837;stroke-width: 5.10 ;&st6;" d=" M  7198.30,   103.77  L  7198.30,   112.27  L  7189.80,   120.77  L  7147.31,   120.77  L  7147.31,   180.26  " /></a><a style="cursor:pointer;" ewd:lineID="152"><path style="stroke:#008837;stroke-width: 5.10 ;&st6;" d=" M  7198.30,   103.77  L  7198.30,   180.26  " /></a><a style="cursor:pointer;" ewd:lineID="153"><path style="stroke:#000000;stroke-width: 0.85;stroke-dasharray:3, 1.5;&st6;" d=" M  4249.29,   163.26  L  4283.28,   163.26  " /></a><a ewd:figtype="w2w" style="cursor:pointer;" ewd:pinNo="6" ewd:code="VN1" ewd:figID="69"><path style="&st2;" d=" M   220.96,   537.20  L   203.97,   537.20  L   203.97,   545.69  L   220.96,   545.69  L   220.96,   537.20 " /><text style="&st8;" transform="matrix(&st16;  206.97  543.57 )"><tspan x="0" style="&st18;" y="0">VN1</tspan></text></a><a ewd:figtype="w2w" style="cursor:pointer;" ewd:pinNo="10" ewd:code="GN2" ewd:figID="70"><path style="&st2;" d=" M   220.96,   486.20  L   203.97,   486.20  L   203.97,   494.70  L   220.96,   494.70  L   220.96,   486.20 " /><text style="&st8;" transform="matrix(&st16;  206.82  492.57 )"><tspan x="0" style="&st18;" y="0">GN2</tspan></text></a><a ewd:figtype="w2w" style="cursor:pointer;" ewd:pinNo="17" ewd:code="AG1" ewd:figID="71"><path style="&st2;" d=" M   246.46,   112.27  L   229.46,   112.27  L   229.46,   120.77  L   246.46,   120.77  L   246.46,   112.27 " /><text style="&st8;" transform="matrix(&st16;  232.32  118.64 )"><tspan x="0" style="&st18;" y="0">AG1</tspan></text></a><a ewd:figtype="w2w" style="cursor:pointer;" ewd:pinNo="1" ewd:code="VN1" ewd:figID="72"><path style="&st2;" d=" M   305.95,   537.20  L   288.95,   537.20  L   288.95,   545.69  L   305.95,   545.69  L   305.95,   537.20 " /><text style="&st8;" transform="matrix(&st16;  291.96  543.57 )"><tspan x="0" style="&st18;" y="0">VN1</tspan></text></a><a ewd:figtype="w2w" style="cursor:pointer;" ewd:pinNo="9" ewd:code="GN2" ewd:figID="73"><path style="&st2;" d=" M   305.95,   486.20  L   288.95,   486.20  L   288.95,   494.70  L   305.95,   494.70  L   305.95,   486.20 " /><text style="&st8;" transform="matrix(&st16;  291.81  492.57 )"><tspan x="0" style="&st18;" y="0">GN2</tspan></text></a><a ewd:figtype="w2w" style="cursor:pointer;" ewd:pinNo="1" ewd:code="AG1" ewd:figID="74"><path style="&st2;" d=" M   662.89,   120.77  L   645.89,   120.77  L   645.89,   129.26  L   662.89,   129.26  L   662.89,   120.77 " /><text style="&st8;" transform="matrix(&st16;  648.75  127.13 )"><tspan x="0" style="&st18;" y="0">AG1</tspan></text></a><a ewd:figtype="w2w" style="cursor:pointer;" ewd:pinNo="8" ewd:code="AG1" ewd:figID="75"><path style="&st2;" d=" M  1232.29,   494.70  L  1215.30,   494.70  L  1215.30,   503.20  L  1232.29,   503.20  L  1232.29,   494.70 " /><text style="&st8;" transform="matrix(&st16;  1218.15  501.07 )"><tspan x="0" style="&st18;" y="0">AG1</tspan></text></a><a ewd:figtype="w2w" style="cursor:pointer;" ewd:pinNo="9" ewd:code="AG1" ewd:figID="76"><path style="&st2;" d=" M  1283.29,   494.70  L  1266.29,   494.70  L  1266.29,   503.20  L  1283.29,   503.20  L  1283.29,   494.70 " /><text style="&st8;" transform="matrix(&st16;  1269.14  501.07 )"><tspan x="0" style="&st18;" y="0">AG1</tspan></text></a><a ewd:figtype="w2w" style="cursor:pointer;" ewd:pinNo="8" ewd:code="AG12" ewd:figID="77"><path style="&st2;" d=" M  2133.14,   503.20  L  2116.15,   503.20  L  2116.15,   511.70  L  2133.14,   511.70  L  2133.14,   503.20 " /><text style="&st8;" transform="matrix(&st16;  2117.5  509.57 )"><tspan x="0" style="&st18;" y="0">AG12</tspan></text></a><a ewd:figtype="w2w" style="cursor:pointer;" ewd:pinNo="10" ewd:code="BA1" ewd:figID="78"><path style="&st2;" d=" M  2269.12,   571.19  L  2252.12,   571.19  L  2252.12,   579.69  L  2269.12,   579.69  L  2269.12,   571.19 " /><text style="&st8;" transform="matrix(&st16;  2255.24  577.56 )"><tspan x="0" style="&st18;" y="0">BA1</tspan></text></a><a ewd:figtype="w2w" style="cursor:pointer;" ewd:pinNo="13" ewd:code="AG1" ewd:figID="79"><path style="&st2;" d=" M  2269.12,   503.20  L  2252.12,   503.20  L  2252.12,   511.70  L  2269.12,   511.70  L  2269.12,   503.20 " /><text style="&st8;" transform="matrix(&st16;  2254.98  509.57 )"><tspan x="0" style="&st18;" y="0">AG1</tspan></text></a><a ewd:figtype="w2w" style="cursor:pointer;" ewd:pinNo="6" ewd:code="BA3" ewd:figID="80"><path style="&st2;" d=" M  4623.23,   214.25  L  4606.23,   214.25  L  4606.23,   222.75  L  4623.23,   222.75  L  4623.23,   214.25 " /><text style="&st8;" transform="matrix(&st16;  4609.35  220.62 )"><tspan x="0" style="&st18;" y="0">BA3</tspan></text></a><a ewd:figtype="w2w" style="cursor:pointer;" ewd:pinNo="6" ewd:code="AG5" ewd:figID="81"><path style="&st2;" d=" M  4759.20,   367.22  L  4742.21,   367.22  L  4742.21,   375.72  L  4759.20,   375.72  L  4759.20,   367.22 " /><text style="&st8;" transform="matrix(&st16;  4745.06  373.59 )"><tspan x="0" style="&st18;" y="0">AG5</tspan></text></a><a ewd:figtype="w2w" style="cursor:pointer;" ewd:pinNo="5" ewd:code="AG5" ewd:figID="82"><path style="&st2;" d=" M  4793.20,   367.22  L  4776.20,   367.22  L  4776.20,   375.72  L  4793.20,   375.72  L  4793.20,   367.22 " /><text style="&st8;" transform="matrix(&st16;  4779.06  373.59 )"><tspan x="0" style="&st18;" y="0">AG5</tspan></text></a><a ewd:figtype="w2w" style="cursor:pointer;" ewd:pinNo="17" ewd:code="AG12" ewd:figID="83"><path style="&st2;" d=" M  4835.69,   537.20  L  4818.69,   537.20  L  4818.69,   545.69  L  4835.69,   545.69  L  4835.69,   537.20 " /><text style="&st8;" transform="matrix(&st16;  4820.04  543.57 )"><tspan x="0" style="&st18;" y="0">AG12</tspan></text></a><a ewd:figtype="w2w" style="cursor:pointer;" ewd:pinNo="4" ewd:code="AG1" ewd:figID="84"><path style="&st2;" d=" M  4835.69,   367.22  L  4818.69,   367.22  L  4818.69,   375.72  L  4835.69,   375.72  L  4835.69,   367.22 " /><text style="&st8;" transform="matrix(&st16;  4821.55  373.59 )"><tspan x="0" style="&st18;" y="0">AG1</tspan></text></a><a ewd:figtype="w2w" style="cursor:pointer;" ewd:pinNo="5" ewd:code="AG1" ewd:figID="85"><path style="&st2;" d=" M  4869.69,   367.22  L  4852.69,   367.22  L  4852.69,   375.72  L  4869.69,   375.72  L  4869.69,   367.22 " /><text style="&st8;" transform="matrix(&st16;  4855.54  373.59 )"><tspan x="0" style="&st18;" y="0">AG1</tspan></text></a><a ewd:figtype="w2w" style="cursor:pointer;" ewd:pinNo="2" ewd:code="BA1" ewd:figID="86"><path style="&st2;" d=" M  5422.09,   239.75  L  5405.10,   239.75  L  5405.10,   248.24  L  5422.09,   248.24  L  5422.09,   239.75 " /><text style="&st8;" transform="matrix(&st16;  5408.22  246.11 )"><tspan x="0" style="&st18;" y="0">BA1</tspan></text></a><a ewd:figtype="w2w" style="cursor:pointer;" ewd:pinNo="1" ewd:code="BA1" ewd:figID="87"><path style="&st2;" d=" M  5456.09,   239.75  L  5439.09,   239.75  L  5439.09,   248.24  L  5456.09,   248.24  L  5456.09,   239.75 " /><text style="&st8;" transform="matrix(&st16;  5442.21  246.11 )"><tspan x="0" style="&st18;" y="0">BA1</tspan></text></a><a ewd:figtype="w2w" style="cursor:pointer;" ewd:pinNo="2" ewd:code="BA2" ewd:figID="88"><path style="&st2;" d=" M  5490.08,   239.75  L  5473.09,   239.75  L  5473.09,   248.24  L  5490.08,   248.24  L  5490.08,   239.75 " /><text style="&st8;" transform="matrix(&st16;  5476.2  246.11 )"><tspan x="0" style="&st18;" y="0">BA2</tspan></text></a><a ewd:figtype="w2w" style="cursor:pointer;" ewd:pinNo="3" ewd:code="BA1" ewd:figID="89"><path style="&st2;" d=" M  5524.08,   239.75  L  5507.08,   239.75  L  5507.08,   248.24  L  5524.08,   248.24  L  5524.08,   239.75 " /><text style="&st8;" transform="matrix(&st16;  5510.2  246.11 )"><tspan x="0" style="&st18;" y="0">BA1</tspan></text></a><a ewd:figtype="w2w" style="cursor:pointer;" ewd:pinNo="1" ewd:code="BA2" ewd:figID="90"><path style="&st2;" d=" M  5558.07,   239.75  L  5541.07,   239.75  L  5541.07,   248.24  L  5558.07,   248.24  L  5558.07,   239.75 " /><text style="&st8;" transform="matrix(&st16;  5544.19  246.11 )"><tspan x="0" style="&st18;" y="0">BA2</tspan></text></a><a ewd:figtype="w2w" style="cursor:pointer;" ewd:pinNo="5" ewd:code="BA1" ewd:figID="91"><path style="&st2;" d=" M  5592.07,   239.75  L  5575.07,   239.75  L  5575.07,   248.24  L  5592.07,   248.24  L  5592.07,   239.75 " /><text style="&st8;" transform="matrix(&st16;  5578.19  246.11 )"><tspan x="0" style="&st18;" y="0">BA1</tspan></text></a><a ewd:figtype="w2w" style="cursor:pointer;" ewd:pinNo="4" ewd:code="BA1" ewd:figID="92"><path style="&st2;" d=" M  5626.06,   239.75  L  5609.06,   239.75  L  5609.06,   248.24  L  5626.06,   248.24  L  5626.06,   239.75 " /><text style="&st8;" transform="matrix(&st16;  5612.18  246.11 )"><tspan x="0" style="&st18;" y="0">BA1</tspan></text></a><a ewd:figtype="w2w" style="cursor:pointer;" ewd:pinNo="12" ewd:code="BA1" ewd:figID="93"><path style="&st2;" d=" M  5660.05,   503.20  L  5643.06,   503.20  L  5643.06,   511.70  L  5660.05,   511.70  L  5660.05,   503.20 " /><text style="&st8;" transform="matrix(&st16;  5646.18  509.57 )"><tspan x="0" style="&st18;" y="0">BA1</tspan></text></a><a ewd:figtype="w2w" style="cursor:pointer;" ewd:pinNo="6" ewd:code="GM8" ewd:figID="94"><path style="&st2;" d=" M  6025.49,   180.26  L  6008.50,   180.26  L  6008.50,   188.75  L  6025.49,   188.75  L  6025.49,   180.26 " /><text style="&st8;" transform="matrix(&st16;  6010.94  186.62 )"><tspan x="0" style="&st18;" y="0">GM8</tspan></text></a><a ewd:figtype="w2w" style="cursor:pointer;" ewd:pinNo="19" ewd:code="GN2" ewd:figID="95"><path style="&st2;" d=" M  6101.98,   180.26  L  6084.98,   180.26  L  6084.98,   188.75  L  6101.98,   188.75  L  6101.98,   180.26 " /><text style="&st8;" transform="matrix(&st16;  6087.84  186.62 )"><tspan x="0" style="&st18;" y="0">GN2</tspan></text></a><a ewd:figtype="w2w" style="cursor:pointer;" ewd:pinNo="5" ewd:code="GM8" ewd:figID="96"><path style="&st2;" d=" M  6178.47,   180.26  L  6161.47,   180.26  L  6161.47,   188.75  L  6178.47,   188.75  L  6178.47,   180.26 " /><text style="&st8;" transform="matrix(&st16;  6163.91  186.62 )"><tspan x="0" style="&st18;" y="0">GM8</tspan></text></a><a ewd:figtype="w2w" style="cursor:pointer;" ewd:pinNo="9" ewd:code="UN2" ewd:figID="97"><path style="&st2;" d=" M  6501.41,   333.23  L  6484.42,   333.23  L  6484.42,   341.73  L  6501.41,   341.73  L  6501.41,   333.23 " /><text style="&st8;" transform="matrix(&st16;  6487.35  339.6 )"><tspan x="0" style="&st18;" y="0">UN2</tspan></text></a><a ewd:figtype="w2w" style="cursor:pointer;" ewd:pinNo="14" ewd:code="AG11" ewd:figID="98"><path style="&st2;" d=" M  7053.82,   154.76  L  7036.82,   154.76  L  7036.82,   163.26  L  7053.82,   163.26  L  7053.82,   154.76 " /><text style="&st8;" transform="matrix(&st16;  7038.17  161.13 )"><tspan x="0" style="&st18;" y="0">AG11</tspan></text></a><a ewd:figtype="w2w" style="cursor:pointer;" ewd:pinNo="8" ewd:code="GN1" ewd:figID="99"><path style="&st2;" d=" M  7113.31,   154.76  L  7096.31,   154.76  L  7096.31,   163.26  L  7113.31,   163.26  L  7113.31,   154.76 " /><text style="&st8;" transform="matrix(&st16;  7099.17  161.13 )"><tspan x="0" style="&st18;" y="0">GN1</tspan></text></a><a ewd:figtype="gp" style="cursor:pointer;" ewd:code="GE" ewd:figID="100"><path style="&st2;" d=" M   116.86,   681.67  L   138.10,   681.67  L   127.48,   697.25  L   116.86,   681.67 " /><text style="&st8;" transform="matrix(&st16;  123.53  689.46 )"><tspan x="0" style="&st18;" y="0">GE</tspan></text></a><a ewd:figtype="gp" style="cursor:pointer;" ewd:code="GA" ewd:figID="101"><path style="&st2;" d=" M   150.85,   681.67  L   172.10,   681.67  L   161.47,   697.25  L   150.85,   681.67 " /><text style="&st8;" transform="matrix(&st16;  157.33  689.46 )"><tspan x="0" style="&st18;" y="0">GA</tspan></text></a><a ewd:figtype="gp" style="cursor:pointer;" ewd:code="AC" ewd:figID="102"><path style="&st2;" d=" M  2207.51,   681.67  L  2228.75,   681.67  L  2218.13,   697.25  L  2207.51,   681.67 " /><text style="&st8;" transform="matrix(&st16;  2214.03  689.46 )"><tspan x="0" style="&st18;" y="0">AC</tspan></text></a><a ewd:figtype="gp" style="cursor:pointer;" ewd:code="GD" ewd:figID="103"><path style="&st2;" d=" M  2946.88,   681.67  L  2968.13,   681.67  L  2957.51,   697.25  L  2946.88,   681.67 " /><text style="&st8;" transform="matrix(&st16;  2953.29  689.46 )"><tspan x="0" style="&st18;" y="0">GD</tspan></text></a><a ewd:figtype="gp" style="cursor:pointer;" ewd:code="GE" ewd:figID="104"><path style="&st2;" d=" M  4034.70,   681.67  L  4055.95,   681.67  L  4045.32,   697.25  L  4034.70,   681.67 " /><text style="&st8;" transform="matrix(&st16;  4041.37  689.46 )"><tspan x="0" style="&st18;" y="0">GE</tspan></text></a><a ewd:figtype="gp" style="cursor:pointer;" ewd:code="BC" ewd:figID="105"><path style="&st2;" d=" M  4281.16,   681.67  L  4302.41,   681.67  L  4291.78,   697.25  L  4281.16,   681.67 " /><text style="&st8;" transform="matrix(&st16;  4287.79  689.46 )"><tspan x="0" style="&st18;" y="0">BC</tspan></text></a><a ewd:figtype="gp" style="cursor:pointer;" ewd:code="UA" ewd:figID="106"><path style="&st2;" d=" M  6482.29,   681.67  L  6503.54,   681.67  L  6492.92,   697.25  L  6482.29,   681.67 " /><text style="&st8;" transform="matrix(&st16;  6488.85  689.46 )"><tspan x="0" style="&st18;" y="0">UA</tspan></text></a><a ewd:figtype="gp" style="cursor:pointer;" ewd:code="GA" ewd:figID="107"><path style="&st2;" d=" M  6558.78,   681.67  L  6580.03,   681.67  L  6569.40,   697.25  L  6558.78,   681.67 " /><text style="&st8;" transform="matrix(&st16;  6565.26  689.46 )"><tspan x="0" style="&st18;" y="0">GA</tspan></text></a><a ewd:figtype="sp" style="cursor:pointer;" ewd:code="SP7" ewd:figID="108"><path style="&st2;" d=" M  2213.88,   554.19  L  2222.38,   554.19  L  2226.63,   558.44  L  2226.63,   566.94  L  2222.38,   571.19  L  2213.88,   571.19  L  2209.63,   566.94  L  2209.63,   558.44  L  2213.88,   554.19 " /></a><a ewd:figtype="sp" style="cursor:pointer;" ewd:code="SP22" ewd:figID="109"><path style="&st2;" d=" M  4287.53,   367.22  L  4296.03,   367.22  L  4300.28,   371.47  L  4300.28,   379.97  L  4296.03,   384.22  L  4287.53,   384.22  L  4283.28,   379.97  L  4283.28,   371.47  L  4287.53,   367.22 " /></a><a ewd:figtype="sp" style="cursor:pointer;" ewd:code="SP87" ewd:figID="110"><path style="&st2;" d=" M  4287.53,   154.76  L  4296.03,   154.76  L  4300.28,   159.01  L  4300.28,   167.51  L  4296.03,   171.76  L  4287.53,   171.76  L  4283.28,   167.51  L  4283.28,   159.01  L  4287.53,   154.76 " /></a><a ewd:figtype="sp" style="cursor:pointer;" ewd:code="SP26" ewd:figID="111"><path style="&st2;" d=" M  4610.48,   324.73  L  4618.98,   324.73  L  4623.23,   328.98  L  4623.23,   337.48  L  4618.98,   341.73  L  4610.48,   341.73  L  4606.23,   337.48  L  4606.23,   328.98  L  4610.48,   324.73 " /></a><a ewd:figtype="sp" style="cursor:pointer;" ewd:code="SP75" ewd:figID="112"><path style="&st2;" d=" M  6140.22,   120.77  L  6148.72,   120.77  L  6152.97,   125.01  L  6152.97,   133.51  L  6148.72,   137.76  L  6140.22,   137.76  L  6135.97,   133.51  L  6135.97,   125.01  L  6140.22,   120.77 " /></a><a ewd:figtype="sp" style="cursor:pointer;" ewd:code="SP49" ewd:figID="113"><path style="&st2;" d=" M  6488.67,   605.18  L  6497.16,   605.18  L  6501.41,   609.43  L  6501.41,   617.93  L  6497.16,   622.18  L  6488.67,   622.18  L  6484.42,   617.93  L  6484.42,   609.43  L  6488.67,   605.18 " /></a></g></svg>