﻿<?xml version="1.0" encoding="utf-8"?>
<!DOCTYPE svg PUBLIC "-//W3C//DTD SVG 1.0//EN" "http://www.w3.org/TR/2001/REC-SVG-20010904/DTD/svg10.dtd"[
	<!ENTITY ns_flows "http://ns.adobe.com/Flows/1.0/">
	<!ENTITY ns_svg "http://www.w3.org/2000/svg">
	<!ENTITY ns_xlink "http://www.w3.org/1999/xlink">
	<!ENTITY st0 "font-size:7px;font-family:'MS-PGothic';adobe-font-script:japanese;">
	<!ENTITY st1 "font-size:6px;font-family:'ArialMT';">
	<!-- White fill  -->
	<!ENTITY st2 "fill:#FFFFFF;stroke:#000000; stroke-width:1.41;stroke-linecap:round;stroke-linejoin:round;">
	<!-- Yellow fill  -->
	<!ENTITY st3 "fill:#FFFFCC;stroke:#FFFFCC; stroke-width:0.1;stroke-linecap:round;stroke-linejoin:round;">
	<!-- Gray fill  -->
	<!ENTITY st4 "fill:#CCCCCC;stroke:#CCCCCC; stroke-width:0.1;stroke-linecap:round;stroke-linejoin:round;">
	<!-- Light-blue fill -->
	<!ENTITY st5 "fill:#CCECF4;stroke:#000000; stroke-width:1.133;stroke-linecap:round;stroke-linejoin:round;">
	<!ENTITY st6 "fill:none;stroke-linecap:butt; stroke-linejoin:round;">
	<!ENTITY st7 "fill:none;stroke:#000000;stroke-linecap:round;stroke-linejoin:round;">
	<!ENTITY st8 "enable-background:new    ;">
	<!-- Black fill -->
	<!ENTITY st9 "fill:#000000;stroke:#000000; stroke-linecap:round;stroke-linejoin:round;">
	<!-- SRS note   -->
	<!ENTITY st10 "font-size:9px;font-family:'ArialMT';">
	<!ENTITY st11 "font-size:9px;font-family:'Svg Symbol';">
	<!ENTITY st12 "font-size:6px;font-family:'Svg Symbol';">
	<!ENTITY st13 "fill:none;stroke:#ff0000;stroke-linecap:round;stroke-linejoin:round;">
	<!-- Yellow fill  -->
	<!ENTITY st14 "fill:#FFFF00;stroke:#FFFF00; stroke-width:0.1;stroke-linecap:round;stroke-linejoin:round;">
	<!ENTITY st15 "font-size:6px;font-family:'MS-PGothic';adobe-font-script:japanese;">
	<!ENTITY st16 "1.00 0.00 0.00 1.00">
	<!ENTITY st17 "0.00 -1.00 1.00 0.00">
	<!ENTITY st18 "font-size:6px;font-family:'Arial';">
	<!ENTITY st19 "font-size:9px;font-family:'Arial';">
	<!ENTITY st20 "font-size:6px;font-family:'MS-PGothic','MS PGothic';adobe-font-script:japanese;">
	<!ENTITY st21 "font-size:7px;font-family:'MS-PGothic','MS PGothic';adobe-font-script:japanese;">
	<!ATTLIST svg
		xmlns:ewd CDATA #FIXED "http://shcl.co.jp/ewd"
		xmlns:a CDATA #FIXED "http://ns.adobe.com/AdobeSVGViewerExtensions/3.0/"
		ewd:ver CDATA #IMPLIED
	>
	<!ATTLIST a
		ewd:lineID CDATA #IMPLIED
		ewd:groupID CDATA #IMPLIED
		ewd:figtype CDATA #IMPLIED
		ewd:code CDATA #IMPLIED
		ewd:figID CDATA #IMPLIED
		ewd:pinNo CDATA #IMPLIED
		ewd:comment CDATA #IMPLIED >
	<!ATTLIST g
		ewd:lineID CDATA #IMPLIED
		ewd:groupID CDATA #IMPLIED
		ewd:figtype CDATA #IMPLIED
		ewd:code CDATA #IMPLIED
		ewd:figID CDATA #IMPLIED
		ewd:pinNo CDATA #IMPLIED
		ewd:comment CDATA #IMPLIED >
	<!ATTLIST text
		ewd:textID CDATA #IMPLIED
		ewd:horAlign CDATA #IMPLIED >
	<!ATTLIST title
		ewd:textID CDATA #IMPLIED >
]>
<!-- Generator: Shintec Hozumi YS   -->
<svg onload="call_execInitLoadProc_svg('system')" style="overflow:visible;  enable-background:new 0 0 3093.483 710.000" viewBox="0 0 3101.984 710.000" height="710.000" width="3101.984" xml:space="preserve" ewd:ver="2.1.2.10" xmlns="&ns_svg;" xmlns:ewd="http://shcl.co.jp/ewd" xmlns:a="http://ns.adobe.com/AdobeSVGViewerExtensions/3.0/" xmlns:xlink="&ns_xlink;">
<path style="stroke-width: 1.42 ;&st7;  " d=" M  1606.23,   171.76  L  1597.73,   171.76  " /><path style="stroke-width: 1.42 ;&st7;  " d=" M  1589.23,   452.21  L  1597.73,   452.21  " /><path style="stroke-width: 1.42 ;&st7;  " d=" M  1648.72,   350.23  L  1657.22,   350.23  " /><text style="&st18;" transform="matrix(&st17;  1789.51  126.72 )">W-B</text><text style="&st18;" transform="matrix(&st17;  1594.04  207.56 )">V</text><text style="&st18;" transform="matrix(&st17;  1594.04  322.19 )">W-B</text><text style="&st18;" transform="matrix(&st17;  1653.53  320.05 )">GR</text><text style="&st18;" transform="matrix(&st17;  1594.04  122.57 )">V</text><text style="&st18;" transform="matrix(&st17;  1832.0  122.45 )">B</text><text style="&st18;" transform="matrix(&st17;  1713.02  207.71 )">G</text><text style="&st18;" transform="matrix(&st17;  1713.02  318.7 )">W</text><text style="&st18;" transform="matrix(&st17;  1789.51  322.19 )">W-B</text><text style="&st18;" transform="matrix(&st17;  1789.51  500.66 )">W-B</text><text style="&st18;" transform="matrix(&st17;  1594.04  500.66 )">W-B</text><text style="&st18;" transform="matrix(&st17;  1594.04  407.17 )">W-B</text><text style="&st18;" transform="matrix(&st17;  1933.98  130.84 )">L</text><text style="&st18;" transform="matrix(&st17;  1945.31  133.98 )">(*4)</text><text style="&st18;" transform="matrix(&st17;  1933.98  198.94 )">B</text><text style="&st18;" transform="matrix(&st17;  1945.31  201.97 )">(*4)</text><text style="&st18;" transform="matrix(&st17;  1933.98  283.85 )">R</text><text style="&st18;" transform="matrix(&st17;  1945.31  290.98 )">(*4 *5)</text><text style="&st18;" transform="matrix(&st17;  1942.48  445.28 )">L</text><text style="&st18;" transform="matrix(&st17;  1953.81  452.46 )">(*4 *5)</text><text style="&st18;" transform="matrix(&st17;  1942.48  577.14 )">W-B</text><text style="&st18;" transform="matrix(&st17;  1953.81  575.9 )">(*4)</text><text style="&st18;" transform="matrix(&st17;  1942.48  636.63 )">W-B</text><text style="&st18;" transform="matrix(&st17;  1953.81  635.39 )">(*4)</text><text style="&st18;" transform="matrix(&st16;  1956.46  304.04 )">G</text><text style="&st18;" transform="matrix(&st16;  1949.68  315.37 )">(*4 *5)</text><path style="stroke-width: 1.42 ;&st7;  " d=" M  1594.21,   358.73  L  1589.23,   363.70  " /><path style="stroke-width: 1.42 ;&st7;  " d=" M  1601.26,   375.72  L  1606.23,   370.75  " /><path style="stroke-width: 1.42 ;&st7;  " d=" M  1589.23,   370.75  L  1594.20,   375.72  " /><text style="&st18;" transform="matrix(&st16;  1653.82  32.08 )" ewd:textID="33">Conjunto del relé del limpiaparabrisas</text><text style="&st18;" transform="matrix(&st16;  1653.81  25.26 )">G85</text><path style="stroke-width: 1.42 ;&st7;  " d=" M  1606.23,   363.70  L  1601.26,   358.73  " /><path style="stroke-width: 1.42 ;&st7;  " d=" M  1954.67,   593.16  L  1949.70,   588.19  " /><path style="stroke-width: 1.42 ;&st7;  " d=" M  1937.68,   600.22  L  1942.65,   605.18  " /><path style="stroke-width: 1.42 ;&st7;  " d=" M  1949.70,   605.18  L  1954.67,   600.22  " /><path style="stroke-width: 1.42 ;&st7;  " d=" M  1942.65,   588.19  L  1937.68,   593.16  " /><text style="&st18;" transform="matrix(&st16;  1879.98  304.04 )">G</text><text style="&st18;" transform="matrix(&st16;  1873.19  315.37 )">(*4 *6)</text><text style="&st18;" transform="matrix(&st17;  1899.99  283.85 )">R</text><text style="&st18;" transform="matrix(&st17;  1911.32  290.98 )">(*4 *6)</text><text style="&st18;" transform="matrix(&st17;  1891.49  445.67 )">G</text><text style="&st18;" transform="matrix(&st17;  1902.82  452.46 )">(*4 *6)</text><text style="&st18;" transform="matrix(&st17;  1865.99  445.28 )">L</text><text style="&st18;" transform="matrix(&st17;  1877.32  452.46 )">(*4 *6)</text><g ewd:figtype="conn" ewd:figID="15" ewd:code="Q5,Q10"><path style="stroke-width: 0.85 ;&st7; stroke-dasharray:3, 1.5;" d=" M  1606.23,   286.77  L  1644.47,   286.77  " /><path style="stroke-width: 0.85 ;&st7; stroke-dasharray:3, 1.5;" d=" M  1606.23,   295.84  L  1644.47,   295.84  " /><path style="stroke-width: 1.42 ;&st7;  " d=" M  1580.74,   282.24  L  1674.22,   282.24  L  1674.22,   248.24  L  1580.74,   248.24  L  1580.74,   282.24  " /><g ewd:lineID="34"><text style="&st18;" transform="matrix(&st16;  1589.04  297.81 )">2</text><text style="&st18;" transform="matrix(&st16;  1589.04  288.74 )">2</text><path style="stroke-width: 1.42 ;&st7;   " d=" M  1602.27,   295.84  C  1602.27    293.33   1600.24    291.30   1597.73    291.30  " /><path style="stroke-width: 1.42 ;&st7;   " d=" M  1597.73,   291.30  C  1595.23    291.30   1593.20    293.33   1593.20    295.84  " /><path style="stroke-width: 1.42 ;&st7;   " d=" M  1593.20,   295.84  C  1593.20    298.34   1595.23    300.37   1597.73    300.37  " /><path style="stroke-width: 1.42 ;&st7;   " d=" M  1597.73,   300.37  C  1600.24    300.37   1602.27    298.34   1602.27    295.84  " /><path style="stroke-width: 1.42 ;&st7;   " d=" M  1602.27,   286.77  C  1602.27    284.27   1600.24    282.24   1597.73    282.24  " /><path style="stroke-width: 1.42 ;&st7;   " d=" M  1597.73,   282.24  C  1595.23    282.24   1593.20    284.27   1593.20    286.77  " /><path style="stroke-width: 1.42 ;&st7;   " d=" M  1593.20,   286.77  C  1593.20    289.27   1595.23    291.30   1597.73    291.30  " /><path style="stroke-width: 1.42 ;&st7;   " d=" M  1597.73,   291.30  C  1600.24    291.30   1602.27    289.27   1602.27    286.77  " /><text style="&st18;" transform="matrix(&st16;  1595.43  288.74 )">A</text><text style="&st18;" transform="matrix(&st16;  1595.54  297.81 )">B</text><text style="&st18;" transform="matrix(&st16;  1594.07  278.54 )">ES</text></g><g ewd:comment="2,3" ewd:lineID="35"><text style="&st18;" transform="matrix(&st16;  1589.04  236.62 )">1</text><text style="&st18;" transform="matrix(&st16;  1589.04  245.68 )">1</text><text style="&st18;" transform="matrix(&st16;  1595.54  245.68 )">B</text><path style="stroke-width: 1.42 ;&st7;   " d=" M  1602.27,   243.71  C  1602.27    241.21   1600.24    239.18   1597.73    239.18  " /><path style="stroke-width: 1.42 ;&st7;   " d=" M  1597.73,   239.18  C  1595.23    239.18   1593.20    241.21   1593.20    243.71  " /><path style="stroke-width: 1.42 ;&st7;   " d=" M  1593.20,   243.71  C  1593.20    246.21   1595.23    248.24   1597.73    248.24  " /><path style="stroke-width: 1.42 ;&st7;   " d=" M  1597.73,   248.24  C  1600.24    248.24   1602.27    246.21   1602.27    243.71  " /><text style="&st18;" transform="matrix(&st16;  1595.43  236.62 )">A</text><path style="stroke-width: 1.42 ;&st7;   " d=" M  1602.27,   234.65  C  1602.27    232.14   1600.24    230.11   1597.73    230.11  " /><path style="stroke-width: 1.42 ;&st7;   " d=" M  1597.73,   230.11  C  1595.23    230.11   1593.20    232.14   1593.20    234.65  " /><path style="stroke-width: 1.42 ;&st7;   " d=" M  1593.20,   234.65  C  1593.20    237.15   1595.23    239.18   1597.73    239.18  " /><path style="stroke-width: 1.42 ;&st7;   " d=" M  1597.73,   239.18  C  1600.24    239.18   1602.27    237.15   1602.27    234.65  " /><text style="&st18;" transform="matrix(&st16;  1591.2  255.88 )">MPX</text><g ewd:code="" ewd:figID="75" ewd:comment="2" ewd:figtype="commref"><text style="&st18;" transform="matrix(&st16;  1602.83  236.62 )">(*2)</text></g><g ewd:code="" ewd:figID="76" ewd:comment="3" ewd:figtype="commref"><text style="&st18;" transform="matrix(&st16;  1602.83  245.68 )">(*3)</text></g></g><g ewd:lineID="38"><text style="&st18;" transform="matrix(&st16;  1648.53  288.74 )">4</text><text style="&st18;" transform="matrix(&st16;  1648.53  297.81 )">4</text><path style="stroke-width: 1.42 ;&st7;   " d=" M  1661.76,   286.77  C  1661.76    284.27   1659.73    282.24   1657.22    282.24  " /><path style="stroke-width: 1.42 ;&st7;   " d=" M  1657.22,   282.24  C  1654.72    282.24   1652.69    284.27   1652.69    286.77  " /><path style="stroke-width: 1.42 ;&st7;   " d=" M  1652.69,   286.77  C  1652.69    289.27   1654.72    291.30   1657.22    291.30  " /><path style="stroke-width: 1.42 ;&st7;   " d=" M  1657.22,   291.30  C  1659.73    291.30   1661.76    289.27   1661.76    286.77  " /><path style="stroke-width: 1.42 ;&st7;   " d=" M  1661.76,   295.84  C  1661.76    293.33   1659.73    291.30   1657.22    291.30  " /><path style="stroke-width: 1.42 ;&st7;   " d=" M  1657.22,   291.30  C  1654.72    291.30   1652.69    293.33   1652.69    295.84  " /><path style="stroke-width: 1.42 ;&st7;   " d=" M  1652.69,   295.84  C  1652.69    298.34   1654.72    300.37   1657.22    300.37  " /><path style="stroke-width: 1.42 ;&st7;   " d=" M  1657.22,   300.37  C  1659.73    300.37   1661.76    298.34   1661.76    295.84  " /><text style="&st18;" transform="matrix(&st16;  1654.92  288.74 )">A</text><text style="&st18;" transform="matrix(&st16;  1655.03  297.81 )">B</text><text style="&st18;" transform="matrix(&st16;  1652.32  278.54 )">SIG</text></g><g ewd:figtype="title"><text style="&st18;" transform="matrix(&st17;  1682.11  285.14 )">Q5(A),Q10(B)</text><text style="&st18;" transform="matrix(&st17;  1688.94  285.14 )" ewd:textID="27">Sensor de lluvia</text></g></g><g ewd:figtype="conn" ewd:figID="16" ewd:code="G100"><path style="stroke-width: 1.42 ;&st7;  " d=" M  1708.21,   265.24  L  1725.21,   265.24  L  1725.21,   282.24  L  1708.21,   282.24  L  1708.21,   265.24  " /><path style="stroke-width: 0.85 ;&st7;  " d=" M  1716.71,   265.24  L  1716.71,   282.24  " /><text style="&st18;" transform="matrix(&st16;  1707.43  290.43 )">15</text><text style="&st18;" transform="matrix(&st16;  1707.43  261.55 )">12</text><g ewd:figtype="title"><text style="&st18;" transform="matrix(&st17;  1733.11  285.14 )">G100</text><text style="&st18;" transform="matrix(&st17;  1739.93  285.14 )" ewd:textID="22">Conector de<tspan x="0" dy="6" style="&st18;">unión n.° 13</tspan></text></g></g><g ewd:figtype="conn" ewd:figID="17" ewd:code="G108"><path style="stroke-width: 1.42 ;&st7;  " d=" M  1784.70,   214.25  L  1801.70,   214.25  L  1801.70,   231.25  L  1784.70,   231.25  L  1784.70,   214.25  " /><path style="stroke-width: 0.85 ;&st7;  " d=" M  1793.20,   214.25  L  1793.20,   231.25  " /><text style="&st18;" transform="matrix(&st16;  1783.91  239.44 )">10</text><text style="&st18;" transform="matrix(&st16;  1787.02  210.56 )">1</text><g ewd:figtype="title"><text style="&st18;" transform="matrix(&st17;  1809.59  234.15 )">G108</text><text style="&st18;" transform="matrix(&st17;  1816.42  234.15 )" ewd:textID="24">Conector de<tspan x="0" dy="6" style="&st18;">unión n.° 20</tspan></text></g></g><g ewd:figtype="conn" ewd:figID="18" ewd:code="G98"><path style="stroke-width: 1.42 ;&st7;  " d=" M  1784.70,   392.72  L  1801.70,   392.72  L  1801.70,   409.72  L  1784.70,   409.72  L  1784.70,   392.72  " /><path style="stroke-width: 0.85 ;&st7;  " d=" M  1793.20,   392.72  L  1793.20,   409.72  " /><text style="&st18;" transform="matrix(&st16;  1787.02  417.91 )">6</text><text style="&st18;" transform="matrix(&st16;  1787.02  389.03 )">5</text><g ewd:figtype="title"><text style="&st18;" transform="matrix(&st17;  1809.59  412.62 )">G98</text><text style="&st18;" transform="matrix(&st17;  1816.42  412.62 )" ewd:textID="21">Conector de<tspan x="0" dy="6" style="&st18;">unión n.° 11</tspan></text></g></g><g ewd:figtype="conn" ewd:figID="19" ewd:code="A70"><path style="stroke-width: 1.42 ;&st7;  " d=" M  1929.18,   154.76  L  1946.17,   154.76  L  1946.17,   171.76  L  1929.18,   171.76  L  1929.18,   154.76  " /><path style="stroke-width: 0.85 ;&st7;  " d=" M  1937.68,   154.76  L  1937.68,   171.76  " /><text style="&st18;" transform="matrix(&st16;  1928.39  179.95 )">22</text><text style="&st18;" transform="matrix(&st16;  1928.39  151.07 )">21</text><g ewd:figtype="title"><text style="&st18;" transform="matrix(&st17;  1960.89  174.66 )" ewd:textID="17">Conector de<tspan x="0 " dy="6.0">unión n.° 1</tspan></text><text style="&st18;" transform="matrix(&st17;  1954.07  174.66 )">A70</text></g></g><g ewd:figtype="conn" ewd:figID="20" ewd:code="A70"><path style="stroke-width: 1.42 ;&st7;  " d=" M  1929.18,   231.25  L  1946.17,   231.25  L  1946.17,   248.24  L  1929.18,   248.24  L  1929.18,   231.25  " /><path style="stroke-width: 0.85 ;&st7;  " d=" M  1937.68,   231.25  L  1937.68,   248.24  " /><text style="&st18;" transform="matrix(&st16;  1928.39  256.44 )">13</text><text style="&st18;" transform="matrix(&st16;  1928.39  227.56 )">12</text><g ewd:figtype="title"><text style="&st18;" transform="matrix(&st17;  1960.89  251.15 )" ewd:textID="17">Conector de<tspan x="0 " dy="6.0">unión n.° 1</tspan></text><text style="&st18;" transform="matrix(&st17;  1954.07  251.14 )">A70</text></g></g><g ewd:figtype="rb" ewd:figID="21" ewd:code="2"><path style="stroke-width: 1.42 ;&st7;  " d=" M  1948.30,   341.73  L  1944.05,   341.73  " /><path style="stroke-width: 1.42 ;&st7;  " d=" M  1948.30,   333.23  L  1944.05,   333.23  " /><path style="stroke-width: 1.42 ;&st7;  " d=" M  1973.80,   333.23  L  1969.55,   333.23  " /><path style="stroke-width: 1.42 ;&st7;  " d=" M  1973.80,   341.73  L  1969.55,   341.73  " /><path style="stroke-width: 1.42 ;&st7;  " d=" M  1948.30,   409.72  L  1944.05,   409.72  " /><path style="stroke-width: 1.42 ;&st7;  " d=" M  1948.30,   418.22  L  1944.05,   418.22  " /><path style="stroke-width: 1.42 ;&st7;  " d=" M  1973.80,   409.72  L  1969.55,   409.72  " /><path style="stroke-width: 1.42 ;&st7;  " d=" M  1973.80,   418.22  L  1969.55,   418.22  " /><path style="stroke-width: 1.42 ;&st7;   " d=" M  1952.55,   337.48  C  1952.55    335.13   1950.65    333.23   1948.30    333.23  " /><path style="stroke-width: 1.42 ;&st7;   " d=" M  1948.30,   341.73  C  1950.65    341.73   1952.55    339.83   1952.55    337.48  " /><path style="stroke-width: 1.42 ;&st7;   " d=" M  1939.80,   337.48  C  1939.80    339.83   1941.70    341.73   1944.05    341.73  " /><path style="stroke-width: 1.42 ;&st7;   " d=" M  1944.05,   333.23  C  1941.70    333.23   1939.80    335.13   1939.80    337.48  " /><path style="stroke-width: 1.42 ;&st7;   " d=" M  1969.55,   333.23  C  1967.20    333.23   1965.30    335.13   1965.30    337.48  " /><path style="stroke-width: 1.42 ;&st7;   " d=" M  1965.30,   337.48  C  1965.30    339.83   1967.20    341.73   1969.55    341.73  " /><path style="stroke-width: 1.42 ;&st7;   " d=" M  1973.80,   341.73  C  1976.14    341.73   1978.04    339.83   1978.04    337.48  " /><path style="stroke-width: 1.42 ;&st7;   " d=" M  1978.04,   337.48  C  1978.04    335.13   1976.14    333.23   1973.80    333.23  " /><path style="stroke-width: 1.42 ;&st7;   " d=" M  1944.05,   409.72  C  1941.70    409.72   1939.80    411.62   1939.80    413.97  " /><path style="stroke-width: 1.42 ;&st7;   " d=" M  1939.80,   413.97  C  1939.80    416.31   1941.70    418.22   1944.05    418.22  " /><path style="stroke-width: 1.42 ;&st7;   " d=" M  1948.30,   418.22  C  1950.65    418.22   1952.55    416.31   1952.55    413.97  " /><path style="stroke-width: 1.42 ;&st7;   " d=" M  1952.55,   413.97  C  1952.55    411.62   1950.65    409.72   1948.30    409.72  " /><path style="stroke-width: 1.42 ;&st7;   " d=" M  1969.55,   409.72  C  1967.20    409.72   1965.30    411.62   1965.30    413.97  " /><path style="stroke-width: 1.42 ;&st7;   " d=" M  1965.30,   413.97  C  1965.30    416.31   1967.20    418.22   1969.55    418.22  " /><path style="stroke-width: 1.42 ;&st7;   " d=" M  1973.80,   418.22  C  1976.14    418.22   1978.04    416.31   1978.04    413.97  " /><path style="stroke-width: 1.42 ;&st7;   " d=" M  1978.04,   413.97  C  1978.04    411.62   1976.14    409.72   1973.80    409.72  " /><path style="stroke-width: 0.28 ;&st9;  " d=" M  1946.17,   346.62  L  1949.01,   349.46  L  1949.01,   345.21  L  1946.17,   342.37  L  1943.34,   345.21  L  1943.34,   349.46  L  1946.17,   346.62  " /><path style="stroke-width: 0.28 ;&st9;  " d=" M  1971.67,   346.62  L  1974.50,   349.46  L  1974.50,   345.21  L  1971.67,   342.37  L  1968.84,   345.21  L  1968.84,   349.46  L  1971.67,   346.62  " /><path style="stroke-width: 0.28 ;&st9;  " d=" M  1946.17,   404.82  L  1943.34,   401.99  L  1943.34,   406.24  L  1946.17,   409.07  L  1949.01,   406.24  L  1949.01,   401.99  L  1946.17,   404.82  " /><path style="stroke-width: 0.28 ;&st9;  " d=" M  1971.67,   404.82  L  1968.84,   401.99  L  1968.84,   406.24  L  1971.67,   409.07  L  1974.50,   406.24  L  1974.50,   401.99  L  1971.67,   404.82  " /><path style="stroke-width: 0.85 ;&st7;  " d=" M  1946.17,   341.73  L  1946.17,   358.73  " /><path style="stroke-width: 0.85 ;&st7;  " d=" M  1971.67,   341.73  L  1971.67,   358.73  " /><path style="stroke-width: 0.85 ;&st7;  " d=" M  1946.17,   392.72  L  1946.17,   409.72  " /><path style="stroke-width: 0.85 ;&st7;  " d=" M  1971.67,   392.72  L  1971.67,   409.72  " /><text style="&st18;" transform="matrix(&st16;  1939.99  400.91 )">3</text><text style="&st18;" transform="matrix(&st16;  1965.49  400.91 )">1</text><text style="&st18;" transform="matrix(&st16;  1939.99  355.03 )">5</text><text style="&st18;" transform="matrix(&st16;  1965.49  355.03 )">2</text><text style="&st18;" transform="matrix(&st16;  1944.37  339.45 )">2</text><text style="&st18;" transform="matrix(&st16;  1969.87  339.45 )">2</text><text style="&st18;" transform="matrix(&st16;  1944.37  415.94 )">2</text><text style="&st18;" transform="matrix(&st16;  1969.87  415.94 )">2</text><text style="&st18;" transform="matrix(&st17; 1928.05 390.52)" ewd:textID="29">Relé WSH<tspan x="0 " dy="6.0">NZL HTR</tspan></text><path style="stroke-width: 1.42 ;&st7;  " d=" M  1946.17,   385.64  L  1940.51,   362.97  " /><path style="stroke-width: 0.85 ;&st7;  " d=" M  1946.17,   392.72  L  1946.17,   388.47  " /><path style="stroke-width: 0.85 ;&st7;  " d=" M  1946.17,   362.97  L  1946.17,   358.73  " /><path style="stroke-width: 0.85 ;&st7;  " d=" M  1971.67,   358.73  L  1971.67,   367.22  " /><path style="stroke-width: 0.85 ;&st7;  " d=" M  1971.67,   384.22  L  1971.67,   392.72  " /><path style="stroke-width: 0.85 ;&st7;   " d=" M  1947.59,   387.05  C  1947.59    386.27   1946.96    385.64   1946.17    385.64  " /><path style="stroke-width: 0.85 ;&st7;   " d=" M  1946.17,   385.64  C  1945.39    385.64   1944.76    386.27   1944.76    387.05  " /><path style="stroke-width: 0.85 ;&st7;   " d=" M  1944.76,   387.05  C  1944.76    387.84   1945.39    388.47   1946.17    388.47  " /><path style="stroke-width: 0.85 ;&st7;   " d=" M  1946.17,   388.47  C  1946.96    388.47   1947.59    387.84   1947.59    387.05  " /><path style="stroke-width: 0.85 ;&st7;   " d=" M  1947.59,   364.39  C  1947.59    363.61   1946.96    362.97   1946.17    362.97  " /><path style="stroke-width: 0.85 ;&st7;   " d=" M  1946.17,   362.97  C  1945.39    362.97   1944.76    363.61   1944.76    364.39  " /><path style="stroke-width: 0.85 ;&st7;   " d=" M  1944.76,   364.39  C  1944.76    365.17   1945.39    365.81   1946.17    365.81  " /><path style="stroke-width: 0.85 ;&st7;   " d=" M  1946.17,   365.81  C  1946.96    365.81   1947.59    365.17   1947.59    364.39  " /><path style="stroke-width: 0.85 ;&st7;   " d=" M  1969.14,   373.24  C  1970.51    374.64   1972.75    374.66   1974.15    373.29  " /><path style="stroke-width: 0.85 ;&st7;   " d=" M  1974.15,   373.29  C  1975.55    371.93   1975.57    369.68   1974.20    368.29  " /><path style="stroke-width: 0.85 ;&st7;   " d=" M  1974.20,   368.29  C  1973.51    367.58   1972.66    367.22   1971.67    367.22  " /><path style="stroke-width: 0.85 ;&st7;   " d=" M  1969.14,   378.20  C  1970.51    379.60   1972.75    379.62   1974.15    378.25  " /><path style="stroke-width: 0.85 ;&st7;   " d=" M  1974.15,   378.25  C  1975.55    376.88   1975.57    374.64   1974.20    373.24  " /><path style="stroke-width: 0.85 ;&st7;   " d=" M  1974.20,   373.24  C  1972.83    371.85   1970.59    371.82   1969.19    373.19  " /><path style="stroke-width: 0.85 ;&st7;   " d=" M  1969.19,   373.19  C  1969.17    373.21   1969.16    373.23   1969.14    373.24  " /><path style="stroke-width: 0.85 ;&st7;   " d=" M  1971.67,   384.22  C  1973.63    384.22   1975.21    382.64   1975.21    380.68  " /><path style="stroke-width: 0.85 ;&st7;   " d=" M  1975.21,   380.68  C  1975.21    378.72   1973.63    377.14   1971.67    377.14  " /><path style="stroke-width: 0.85 ;&st7;   " d=" M  1971.67,   377.14  C  1970.68    377.14   1969.83    377.49   1969.14    378.20  " /><path style="stroke-width: 1.42 ;&st7;  " d=" M  1980.17,   358.73  L  1937.68,   358.73  L  1937.68,   392.72  L  1980.17,   392.72  L  1980.17,   358.73  " /></g><g ewd:figtype="conn" ewd:figID="22" ewd:code="A96"><path style="stroke-width: 1.42 ;&st7;  " d=" M  1929.18,   503.20  L  1929.18,   537.20  L  1963.17,   537.20  L  1963.17,   503.20  L  1929.18,   503.20  " /><g ewd:lineID="44,53"><text style="&st18;" transform="matrix(&st16;  1939.99  499.51 )">2</text><text style="&st18;" transform="matrix(&st16;  1943.99  510.84 )">B</text></g><g ewd:lineID="52"><text style="&st18;" transform="matrix(&st16;  1939.99  545.39 )">1</text><text style="&st18;" transform="matrix(&st16;  1944.06  533.5 )">E</text></g><g ewd:figtype="title"><text style="&st18;" transform="matrix(&st17;  1971.07  540.09 )">A96</text><text style="&st18;" transform="matrix(&st17;  1977.89  540.1 )" ewd:textID="10">Boquilla del<tspan x="0 " dy="6.0">lavaparabrisas</tspan><tspan x="0 " dy="6.0">y conjunto de</tspan><tspan x="0" dy="6" style="&st18;">manguera</tspan></text></g></g><g ewd:figtype="conn" ewd:figID="24" ewd:code="G85"><g ewd:lineID="36"><text style="&st18;" transform="matrix(&st16;  1588.45  86.47 )">14</text><text style="&st18;" transform="matrix(&st16;  1589.65  74.58 )">MPX1</text></g><g ewd:lineID="42"><text style="&st18;" transform="matrix(&st16;  1783.91  86.47 )">12</text><text style="&st18;" transform="matrix(&st16;  1791.09  74.58 )">E</text></g><g ewd:lineID="43"><text style="&st18;" transform="matrix(&st16;  1826.41  86.47 )">24</text><text style="&st18;" transform="matrix(&st16;  1830.02  74.58 )">SPD</text></g></g><g ewd:figtype="rb" ewd:figID="25" ewd:code="2"><path style="stroke-width: 1.42 ;&st7;  " d=" M  1871.81,   341.73  L  1867.56,   341.73  " /><path style="stroke-width: 1.42 ;&st7;  " d=" M  1871.81,   333.23  L  1867.56,   333.23  " /><path style="stroke-width: 1.42 ;&st7;  " d=" M  1897.31,   333.23  L  1893.06,   333.23  " /><path style="stroke-width: 1.42 ;&st7;  " d=" M  1897.31,   341.73  L  1893.06,   341.73  " /><path style="stroke-width: 1.42 ;&st7;  " d=" M  1871.81,   409.72  L  1867.56,   409.72  " /><path style="stroke-width: 1.42 ;&st7;  " d=" M  1871.81,   418.22  L  1867.56,   418.22  " /><path style="stroke-width: 1.42 ;&st7;  " d=" M  1897.31,   409.72  L  1893.06,   409.72  " /><path style="stroke-width: 1.42 ;&st7;  " d=" M  1897.31,   418.22  L  1893.06,   418.22  " /><path style="stroke-width: 1.42 ;&st7;   " d=" M  1876.06,   337.48  C  1876.06    335.13   1874.16    333.23   1871.81    333.23  " /><path style="stroke-width: 1.42 ;&st7;   " d=" M  1871.81,   341.73  C  1874.16    341.73   1876.06    339.83   1876.06    337.48  " /><path style="stroke-width: 1.42 ;&st7;   " d=" M  1863.31,   337.48  C  1863.31    339.83   1865.22    341.73   1867.56    341.73  " /><path style="stroke-width: 1.42 ;&st7;   " d=" M  1867.56,   333.23  C  1865.22    333.23   1863.31    335.13   1863.31    337.48  " /><path style="stroke-width: 1.42 ;&st7;   " d=" M  1893.06,   333.23  C  1890.71    333.23   1888.81    335.13   1888.81    337.48  " /><path style="stroke-width: 1.42 ;&st7;   " d=" M  1888.81,   337.48  C  1888.81    339.83   1890.71    341.73   1893.06    341.73  " /><path style="stroke-width: 1.42 ;&st7;   " d=" M  1897.31,   341.73  C  1899.65    341.73   1901.56    339.83   1901.56    337.48  " /><path style="stroke-width: 1.42 ;&st7;   " d=" M  1901.56,   337.48  C  1901.56    335.13   1899.65    333.23   1897.31    333.23  " /><path style="stroke-width: 1.42 ;&st7;   " d=" M  1867.56,   409.72  C  1865.22    409.72   1863.31    411.62   1863.31    413.97  " /><path style="stroke-width: 1.42 ;&st7;   " d=" M  1863.31,   413.97  C  1863.31    416.31   1865.22    418.22   1867.56    418.22  " /><path style="stroke-width: 1.42 ;&st7;   " d=" M  1871.81,   418.22  C  1874.16    418.22   1876.06    416.31   1876.06    413.97  " /><path style="stroke-width: 1.42 ;&st7;   " d=" M  1876.06,   413.97  C  1876.06    411.62   1874.16    409.72   1871.81    409.72  " /><path style="stroke-width: 1.42 ;&st7;   " d=" M  1893.06,   409.72  C  1890.71    409.72   1888.81    411.62   1888.81    413.97  " /><path style="stroke-width: 1.42 ;&st7;   " d=" M  1888.81,   413.97  C  1888.81    416.31   1890.71    418.22   1893.06    418.22  " /><path style="stroke-width: 1.42 ;&st7;   " d=" M  1897.31,   418.22  C  1899.65    418.22   1901.56    416.31   1901.56    413.97  " /><path style="stroke-width: 1.42 ;&st7;   " d=" M  1901.56,   413.97  C  1901.56    411.62   1899.65    409.72   1897.31    409.72  " /><path style="stroke-width: 0.28 ;&st9;  " d=" M  1869.69,   346.62  L  1872.52,   349.46  L  1872.52,   345.21  L  1869.69,   342.37  L  1866.85,   345.21  L  1866.85,   349.46  L  1869.69,   346.62  " /><path style="stroke-width: 0.28 ;&st9;  " d=" M  1895.18,   346.62  L  1898.02,   349.46  L  1898.02,   345.21  L  1895.18,   342.37  L  1892.35,   345.21  L  1892.35,   349.46  L  1895.18,   346.62  " /><path style="stroke-width: 0.28 ;&st9;  " d=" M  1869.69,   404.82  L  1866.85,   401.99  L  1866.85,   406.24  L  1869.69,   409.07  L  1872.52,   406.24  L  1872.52,   401.99  L  1869.69,   404.82  " /><path style="stroke-width: 0.28 ;&st9;  " d=" M  1895.18,   404.82  L  1892.35,   401.99  L  1892.35,   406.24  L  1895.18,   409.07  L  1898.02,   406.24  L  1898.02,   401.99  L  1895.18,   404.82  " /><path style="stroke-width: 0.85 ;&st7;  " d=" M  1869.69,   341.73  L  1869.69,   358.73  " /><path style="stroke-width: 0.85 ;&st7;  " d=" M  1895.18,   341.73  L  1895.18,   358.73  " /><path style="stroke-width: 0.85 ;&st7;  " d=" M  1869.69,   392.72  L  1869.69,   409.72  " /><path style="stroke-width: 0.85 ;&st7;  " d=" M  1895.18,   392.72  L  1895.18,   409.72  " /><text style="&st18;" transform="matrix(&st16;  1863.5  400.91 )">3</text><text style="&st18;" transform="matrix(&st16;  1889.0  400.91 )">1</text><text style="&st18;" transform="matrix(&st16;  1863.5  355.03 )">5</text><text style="&st18;" transform="matrix(&st16;  1889.0  355.03 )">2</text><text style="&st18;" transform="matrix(&st16;  1867.89  339.45 )">1</text><text style="&st18;" transform="matrix(&st16;  1893.38  339.45 )">1</text><text style="&st18;" transform="matrix(&st16;  1867.89  415.94 )">1</text><text style="&st18;" transform="matrix(&st16;  1893.38  415.94 )">1</text><text style="&st18;" transform="matrix(&st17; 1851.56 390.52)" ewd:textID="29">Relé WSH<tspan x="0 " dy="6.0">NZL HTR</tspan></text><path style="stroke-width: 1.42 ;&st7;  " d=" M  1869.69,   385.64  L  1864.02,   362.97  " /><path style="stroke-width: 0.85 ;&st7;  " d=" M  1869.69,   392.72  L  1869.69,   388.47  " /><path style="stroke-width: 0.85 ;&st7;  " d=" M  1869.69,   362.97  L  1869.69,   358.73  " /><path style="stroke-width: 0.85 ;&st7;  " d=" M  1895.18,   358.73  L  1895.18,   367.22  " /><path style="stroke-width: 0.85 ;&st7;  " d=" M  1895.18,   384.22  L  1895.18,   392.72  " /><path style="stroke-width: 0.85 ;&st7;   " d=" M  1871.10,   387.05  C  1871.10    386.27   1870.47    385.64   1869.69    385.64  " /><path style="stroke-width: 0.85 ;&st7;   " d=" M  1869.69,   385.64  C  1868.91    385.64   1868.27    386.27   1868.27    387.05  " /><path style="stroke-width: 0.85 ;&st7;   " d=" M  1868.27,   387.05  C  1868.27    387.84   1868.91    388.47   1869.69    388.47  " /><path style="stroke-width: 0.85 ;&st7;   " d=" M  1869.69,   388.47  C  1870.47    388.47   1871.10    387.84   1871.10    387.05  " /><path style="stroke-width: 0.85 ;&st7;   " d=" M  1871.10,   364.39  C  1871.10    363.61   1870.47    362.97   1869.69    362.97  " /><path style="stroke-width: 0.85 ;&st7;   " d=" M  1869.69,   362.97  C  1868.91    362.97   1868.27    363.61   1868.27    364.39  " /><path style="stroke-width: 0.85 ;&st7;   " d=" M  1868.27,   364.39  C  1868.27    365.17   1868.91    365.81   1869.69    365.81  " /><path style="stroke-width: 0.85 ;&st7;   " d=" M  1869.69,   365.81  C  1870.47    365.81   1871.10    365.17   1871.10    364.39  " /><path style="stroke-width: 0.85 ;&st7;   " d=" M  1892.65,   373.24  C  1894.02    374.64   1896.26    374.66   1897.66    373.29  " /><path style="stroke-width: 0.85 ;&st7;   " d=" M  1897.66,   373.29  C  1899.06    371.93   1899.08    369.68   1897.71    368.29  " /><path style="stroke-width: 0.85 ;&st7;   " d=" M  1897.71,   368.29  C  1897.02    367.58   1896.17    367.22   1895.18    367.22  " /><path style="stroke-width: 0.85 ;&st7;   " d=" M  1892.65,   378.20  C  1894.02    379.60   1896.26    379.62   1897.66    378.25  " /><path style="stroke-width: 0.85 ;&st7;   " d=" M  1897.66,   378.25  C  1899.06    376.88   1899.08    374.64   1897.71    373.24  " /><path style="stroke-width: 0.85 ;&st7;   " d=" M  1897.71,   373.24  C  1896.34    371.85   1894.10    371.82   1892.70    373.19  " /><path style="stroke-width: 0.85 ;&st7;   " d=" M  1892.70,   373.19  C  1892.69    373.21   1892.67    373.23   1892.65    373.24  " /><path style="stroke-width: 0.85 ;&st7;   " d=" M  1895.18,   384.22  C  1897.14    384.22   1898.72    382.64   1898.72    380.68  " /><path style="stroke-width: 0.85 ;&st7;   " d=" M  1898.72,   380.68  C  1898.72    378.72   1897.14    377.14   1895.18    377.14  " /><path style="stroke-width: 0.85 ;&st7;   " d=" M  1895.18,   377.14  C  1894.19    377.14   1893.35    377.49   1892.65    378.20  " /><path style="stroke-width: 1.42 ;&st7;  " d=" M  1903.68,   358.73  L  1861.19,   358.73  L  1861.19,   392.72  L  1903.68,   392.72  L  1903.68,   358.73  " /></g><g ewd:figtype="jb" ewd:figID="31" ewd:code="3"><path style="stroke-width: 0.85 ;&st7;  " d=" M  1716.71,   137.76  L  1716.71,   163.26  " /><path style="stroke-width: 1.42 ;&st7;  " d=" M  1718.84,   163.26  L  1714.59,   163.26  " /><path style="stroke-width: 1.42 ;&st7;  " d=" M  1718.84,   171.76  L  1714.59,   171.76  " /><path style="stroke-width: 1.42 ;&st7;   " d=" M  1723.09,   167.51  C  1723.09    165.16   1721.18    163.26   1718.84    163.26  " /><path style="stroke-width: 1.42 ;&st7;   " d=" M  1716.71,   115.10  C  1713.98    116.71   1713.06    120.24   1714.68    122.98  " /><path style="stroke-width: 1.42 ;&st7;   " d=" M  1714.68,   122.98  C  1715.20    123.86   1715.83    124.49   1716.71    125.01  " /><path style="stroke-width: 1.42 ;&st7;   " d=" M  1716.71,   134.93  C  1719.45    133.32   1720.36    129.79   1718.75    127.05  " /><path style="stroke-width: 1.42 ;&st7;   " d=" M  1718.75,   127.05  C  1718.23    126.17   1717.60    125.53   1716.71    125.01  " /><path style="stroke-width: 0.85 ;&st7;   " d=" M  1718.13,   113.68  C  1718.13    112.90   1717.50    112.27   1716.71    112.27  " /><path style="stroke-width: 0.85 ;&st7;   " d=" M  1716.71,   112.27  C  1715.93    112.27   1715.30    112.90   1715.30    113.68  " /><path style="stroke-width: 0.85 ;&st7;   " d=" M  1715.30,   113.68  C  1715.30    114.47   1715.93    115.10   1716.71    115.10  " /><path style="stroke-width: 0.85 ;&st7;   " d=" M  1716.71,   115.10  C  1717.50    115.10   1718.13    114.47   1718.13    113.68  " /><path style="stroke-width: 0.85 ;&st7;   " d=" M  1718.13,   136.35  C  1718.13    135.56   1717.50    134.93   1716.71    134.93  " /><path style="stroke-width: 0.85 ;&st7;   " d=" M  1716.71,   134.93  C  1715.93    134.93   1715.30    135.56   1715.30    136.35  " /><path style="stroke-width: 0.85 ;&st7;   " d=" M  1715.30,   136.35  C  1715.30    137.13   1715.93    137.76   1716.71    137.76  " /><path style="stroke-width: 0.85 ;&st7;   " d=" M  1716.71,   137.76  C  1717.50    137.76   1718.13    137.13   1718.13    136.35  " /><path style="stroke-width: 1.42 ;&st7;   " d=" M  1714.59,   163.26  C  1712.24    163.26   1710.34    165.16   1710.34    167.51  " /><path style="stroke-width: 1.42 ;&st7;   " d=" M  1710.34,   167.51  C  1710.34    169.85   1712.24    171.76   1714.59    171.76  " /><path style="stroke-width: 1.42 ;&st7;   " d=" M  1718.84,   171.76  C  1721.18    171.76   1723.09    169.85   1723.09    167.51  " /><path style="stroke-width: 0.28 ;&st9;  " d=" M  1716.71,   158.36  L  1713.88,   155.53  L  1713.88,   159.78  L  1716.71,   162.61  L  1719.55,   159.78  L  1719.55,   155.53  L  1716.71,   158.36  " /><path style="stroke-width: 1.42 ;&st7;  " d=" M  1703.96,   103.77  L  1703.96,   146.26  L  1729.46,   146.26  L  1729.46,   103.77  L  1703.96,   103.77  " /><text style="&st18;" transform="matrix(&st16;  1733.14  121.33 )">5A <tspan x="0 " dy="6.0">ECU-IG </tspan><tspan x="0 " dy="6.0">NO.2</tspan></text><text style="&st18;" transform="matrix(&st16;  1712.74  169.48 )">3C</text><text style="&st18;" transform="matrix(&st16;  1703.1  169.48 )">15</text><text style="&st18;" transform="matrix(&st16;  1710.53  154.45 )">2</text><text style="&st18;" transform="matrix(&st16;  1711.5  100.07 )">(IG)</text></g><g ewd:figtype="jb" ewd:figID="34" ewd:code="3"><path style="stroke-width: 0.85 ;&st7;  " d=" M  1937.68,    69.77  L  1937.68,    78.27  " /><path style="stroke-width: 1.42 ;&st7;  " d=" M  1939.80,    95.27  L  1935.55,    95.27  " /><path style="stroke-width: 1.42 ;&st7;  " d=" M  1939.80,   103.77  L  1935.55,   103.77  " /><path style="stroke-width: 0.85 ;&st7;  " d=" M  1937.68,    78.27  L  1937.68,    95.27  " /><path style="stroke-width: 1.42 ;&st7;   " d=" M  1937.68,    47.11  C  1934.94     48.72   1934.03     52.25   1935.64     54.99  " /><path style="stroke-width: 1.42 ;&st7;   " d=" M  1935.64,    54.99  C  1936.16     55.87   1936.79     56.51   1937.68     57.03  " /><path style="stroke-width: 1.42 ;&st7;   " d=" M  1937.68,    66.94  C  1940.41     65.33   1941.33     61.80   1939.71     59.06  " /><path style="stroke-width: 1.42 ;&st7;   " d=" M  1939.71,    59.06  C  1939.19     58.18   1938.56     57.55   1937.68     57.03  " /><path style="stroke-width: 0.85 ;&st7;   " d=" M  1939.09,    45.69  C  1939.09     44.91   1938.46     44.28   1937.68     44.28  " /><path style="stroke-width: 0.85 ;&st7;   " d=" M  1937.68,    44.28  C  1936.89     44.28   1936.26     44.91   1936.26     45.69  " /><path style="stroke-width: 0.85 ;&st7;   " d=" M  1936.26,    45.69  C  1936.26     46.48   1936.89     47.11   1937.68     47.11  " /><path style="stroke-width: 0.85 ;&st7;   " d=" M  1937.68,    47.11  C  1938.46     47.11   1939.09     46.48   1939.09     45.69  " /><path style="stroke-width: 0.85 ;&st7;   " d=" M  1939.09,    68.36  C  1939.09     67.57   1938.46     66.94   1937.68     66.94  " /><path style="stroke-width: 0.85 ;&st7;   " d=" M  1937.68,    66.94  C  1936.89     66.94   1936.26     67.57   1936.26     68.36  " /><path style="stroke-width: 0.85 ;&st7;   " d=" M  1936.26,    68.36  C  1936.26     69.14   1936.89     69.77   1937.68     69.77  " /><path style="stroke-width: 0.85 ;&st7;   " d=" M  1937.68,    69.77  C  1938.46     69.77   1939.09     69.14   1939.09     68.36  " /><path style="stroke-width: 1.42 ;&st7;   " d=" M  1935.55,    95.27  C  1933.20     95.27   1931.30     97.17   1931.30     99.52  " /><path style="stroke-width: 1.42 ;&st7;   " d=" M  1931.30,    99.52  C  1931.30    101.87   1933.20    103.77   1935.55    103.77  " /><path style="stroke-width: 1.42 ;&st7;   " d=" M  1939.80,   103.77  C  1942.15    103.77   1944.05    101.87   1944.05     99.52  " /><path style="stroke-width: 1.42 ;&st7;   " d=" M  1944.05,    99.52  C  1944.05     97.17   1942.15     95.27   1939.80     95.27  " /><path style="stroke-width: 0.28 ;&st9;  " d=" M  1937.68,    90.37  L  1934.84,    87.54  L  1934.84,    91.79  L  1937.68,    94.62  L  1940.51,    91.79  L  1940.51,    87.54  L  1937.68,    90.37  " /><path style="stroke-width: 1.42 ;&st7;  " d=" M  1924.93,    35.78  L  1924.93,    78.27  L  1950.42,    78.27  L  1950.42,    35.78  L  1924.93,    35.78  " /><text style="&st18;" transform="matrix(&st16;  1954.1  53.34 )">7.5A <tspan x="0 " dy="6.0">ECU-IG </tspan><tspan x="0 " dy="6.0">NO.3</tspan></text><text style="&st18;" transform="matrix(&st16;  1933.94  101.49 )">3B</text><text style="&st18;" transform="matrix(&st16;  1924.07  101.49 )">25</text><text style="&st18;" transform="matrix(&st16;  1931.49  86.47 )">2</text><text style="&st18;" transform="matrix(&st16;  1932.46  32.08 )">(IG)</text></g><g ewd:figtype="w2w" ewd:figID="45" ewd:code="GQ1"><path style="stroke-width: 1.42 ;&st7;  " d=" M  1593.48,   443.14  L  1597.73,   447.39  L  1601.98,   443.14  " /><path style="stroke-width: 1.42 ;&st7;  " d=" M  1601.98,   446.54  L  1597.73,   450.79  L  1593.48,   446.54  " /><text style="&st18;" transform="matrix(&st16;  1582.0  458.43 )">11</text></g><g ewd:figtype="w2w" ewd:figID="46" ewd:code="GQ1"><path style="stroke-width: 1.42 ;&st7;  " d=" M  1601.98,   180.82  L  1597.73,   176.57  L  1593.48,   180.82  " /><path style="stroke-width: 1.42 ;&st7;  " d=" M  1601.98,   177.42  L  1597.73,   173.17  L  1593.48,   177.42  " /><text style="&st18;" transform="matrix(&st16;  1585.1  169.48 )">9</text></g><g ewd:figtype="w2w" ewd:figID="47" ewd:code="GQ1"><path style="stroke-width: 1.42 ;&st7;  " d=" M  1652.97,   341.16  L  1657.22,   345.41  L  1661.47,   341.16  " /><path style="stroke-width: 1.42 ;&st7;  " d=" M  1661.47,   344.56  L  1657.22,   348.81  L  1652.97,   344.56  " /><text style="&st18;" transform="matrix(&st16;  1644.59  356.45 )">3</text></g><g ewd:figtype="gp" ewd:figID="57" ewd:code="GD"><path style="stroke-width: 0.85 ;&st7;  " d=" M  1791.78,   710.00  L  1794.62,   710.00  " /><path style="stroke-width: 0.85 ;&st7;  " d=" M  1790.37,   707.17  L  1796.03,   707.17  " /><path style="stroke-width: 0.85 ;&st7;  " d=" M  1788.95,   704.33  L  1797.45,   704.33  " /><path style="stroke-width: 0.85 ;&st7;  " d=" M  1784.70,   701.50  L  1801.70,   701.50  " /><path style="stroke-width: 0.85 ;&st7;  " d=" M  1793.20,   697.25  L  1793.20,   701.50  " /></g><g ewd:figtype="gp" ewd:figID="58" ewd:code="AC"><path style="stroke-width: 0.85 ;&st7;  " d=" M  1946.17,   697.25  L  1946.17,   701.50  " /><path style="stroke-width: 0.85 ;&st7;  " d=" M  1937.68,   701.50  L  1954.67,   701.50  " /><path style="stroke-width: 0.85 ;&st7;  " d=" M  1941.92,   704.33  L  1950.42,   704.33  " /><path style="stroke-width: 0.85 ;&st7;  " d=" M  1943.34,   707.17  L  1949.01,   707.17  " /><path style="stroke-width: 0.85 ;&st7;  " d=" M  1944.76,   710.00  L  1947.59,   710.00  " /></g><g ewd:code="" ewd:figID="77" ewd:comment="3" ewd:figtype="commref"><text style="&st18;" transform="matrix(&st16;  1662.32  297.81 )">(*3)</text></g><g ewd:code="" ewd:figID="78" ewd:comment="2" ewd:figtype="commref"><text style="&st18;" transform="matrix(&st16;  1662.32  288.74 )">(*2)</text></g><g ewd:code="3" ewd:figID="79" ewd:comment="" ewd:figtype="comment"><text style="&st18;" transform="matrix(&st16;  1619.82  513.67 )" ewd:textID="2">* 3 :con alerta de desvío del carril</text></g><g ewd:code="2" ewd:figID="80" ewd:comment="" ewd:figtype="comment"><text style="&st18;" transform="matrix(&st16;  1619.82  505.17 )" ewd:textID="1">* 2 :sin alerta de desvío del carril</text></g><g ewd:code="6" ewd:figID="91" ewd:comment="" ewd:figtype="comment"><text style="&st18;" transform="matrix(&st16;  1619.82  539.16 )" ewd:textID="5">* 6 :Desde la producción de agosto de 2016</text></g><g ewd:code="5" ewd:figID="92" ewd:comment="" ewd:figtype="comment"><text style="&st18;" transform="matrix(&st16;  1619.82  530.67 )" ewd:textID="4">* 5 :Anterior a la producción de agosto de 2016</text></g><g ewd:code="4" ewd:figID="81" ewd:comment="" ewd:figtype="comment"><text style="&st18;" transform="matrix(&st16;  1619.82  522.17 )" ewd:textID="3">* 4 :con boquilla del lavaparabrisas y conjunto de manguera</text></g></svg>