﻿<?xml version="1.0" encoding="utf-8"?>
<!DOCTYPE svg PUBLIC "-//W3C//DTD SVG 1.0//EN" "http://www.w3.org/TR/2001/REC-SVG-20010904/DTD/svg10.dtd"[
	<!ENTITY ns_flows "http://ns.adobe.com/Flows/1.0/">
	<!ENTITY ns_svg "http://www.w3.org/2000/svg">
	<!ENTITY ns_xlink "http://www.w3.org/1999/xlink">
	<!ENTITY st0 "font-size:7px;font-family:'MS-PGothic';adobe-font-script:japanese;">
	<!ENTITY st1 "font-size:6px;font-family:'ArialMT';">
	<!-- White fill  -->
	<!ENTITY st2 "fill:#FFFFFF;stroke:#000000; stroke-width:1.41;stroke-linecap:round;stroke-linejoin:round;">
	<!-- Yellow fill  -->
	<!ENTITY st3 "fill:#FFFFCC;stroke:#FFFFCC; stroke-width:0.1;stroke-linecap:round;stroke-linejoin:round;">
	<!-- Gray fill  -->
	<!ENTITY st4 "fill:#CCCCCC;stroke:#CCCCCC; stroke-width:0.1;stroke-linecap:round;stroke-linejoin:round;">
	<!-- Light-blue fill -->
	<!ENTITY st5 "fill:#CCECF4;stroke:#000000; stroke-width:1.133;stroke-linecap:round;stroke-linejoin:round;">
	<!ENTITY st6 "fill:none;stroke-linecap:butt; stroke-linejoin:round;">
	<!ENTITY st7 "fill:none;stroke:#000000;stroke-linecap:round;stroke-linejoin:round;">
	<!ENTITY st8 "enable-background:new    ;">
	<!-- Black fill -->
	<!ENTITY st9 "fill:#000000;stroke:#000000; stroke-linecap:round;stroke-linejoin:round;">
	<!-- SRS note   -->
	<!ENTITY st10 "font-size:9px;font-family:'ArialMT';">
	<!ENTITY st11 "font-size:9px;font-family:'Svg Symbol';">
	<!ENTITY st12 "font-size:6px;font-family:'Svg Symbol';">
	<!ENTITY st13 "fill:none;stroke:#ff0000;stroke-linecap:round;stroke-linejoin:round;">
	<!-- Yellow fill  -->
	<!ENTITY st14 "fill:#FFFF00;stroke:#FFFF00; stroke-width:0.1;stroke-linecap:round;stroke-linejoin:round;">
	<!ENTITY st15 "font-size:6px;font-family:'MS-PGothic';adobe-font-script:japanese;">
	<!ENTITY st16 "1.00 0.00 0.00 1.00">
	<!ENTITY st17 "0.00 -1.00 1.00 0.00">
	<!ENTITY st18 "font-size:6px;font-family:'Arial';">
	<!ENTITY st19 "font-size:9px;font-family:'Arial';">
	<!ENTITY st20 "font-size:6px;font-family:'MS-PGothic','MS PGothic';adobe-font-script:japanese;">
	<!ENTITY st21 "font-size:7px;font-family:'MS-PGothic','MS PGothic';adobe-font-script:japanese;">
	<!ATTLIST svg
		xmlns:ewd CDATA #FIXED "http://shcl.co.jp/ewd"
		xmlns:a CDATA #FIXED "http://ns.adobe.com/AdobeSVGViewerExtensions/3.0/"
		ewd:ver CDATA #IMPLIED
	>
	<!ATTLIST a
		ewd:lineID CDATA #IMPLIED
		ewd:groupID CDATA #IMPLIED
		ewd:figtype CDATA #IMPLIED
		ewd:code CDATA #IMPLIED
		ewd:figID CDATA #IMPLIED
		ewd:pinNo CDATA #IMPLIED
		ewd:comment CDATA #IMPLIED >
	<!ATTLIST g
		ewd:lineID CDATA #IMPLIED
		ewd:groupID CDATA #IMPLIED
		ewd:figtype CDATA #IMPLIED
		ewd:code CDATA #IMPLIED
		ewd:figID CDATA #IMPLIED
		ewd:pinNo CDATA #IMPLIED
		ewd:comment CDATA #IMPLIED >
	<!ATTLIST text
		ewd:textID CDATA #IMPLIED
		ewd:horAlign CDATA #IMPLIED >
	<!ATTLIST title
		ewd:textID CDATA #IMPLIED >
]>
<!-- Generator: Shintec Hozumi YS   -->
<svg onload="call_execInitLoadProc_svg('system')" style="overflow:visible;  enable-background:new 0 0 10878.891 710.000" viewBox="0 0 10886.684 710.000" height="710.000" width="10886.684" xml:space="preserve" ewd:ver="2.1.2.10" xmlns="&ns_svg;" xmlns:ewd="http://shcl.co.jp/ewd" xmlns:a="http://ns.adobe.com/AdobeSVGViewerExtensions/3.0/" xmlns:xlink="&ns_xlink;">
<text style="&st18;" transform="matrix(&st16;  537.46  57.58 )">W-B</text><path d=" M   735.85,   239.75  L   730.88,   244.72  " style="stroke-width: 1.42 ;&st7;  " /><path d=" M   742.90,   256.74  L   747.88,   251.77  " style="stroke-width: 1.42 ;&st7;  " /><path d=" M   730.88,   251.77  L   735.85,   256.74  " style="stroke-width: 1.42 ;&st7;  " /><path d=" M   747.88,   244.72  L   742.90,   239.75  " style="stroke-width: 1.42 ;&st7;  " /><path d=" M   735.85,   197.25  L   730.88,   202.22  " style="stroke-width: 1.42 ;&st7;  " /><path d=" M   742.90,   214.25  L   747.88,   209.28  " style="stroke-width: 1.42 ;&st7;  " /><path d=" M   730.88,   209.28  L   735.85,   214.25  " style="stroke-width: 1.42 ;&st7;  " /><path d=" M   747.88,   202.22  L   742.90,   197.25  " style="stroke-width: 1.42 ;&st7;  " /><path d=" M   735.85,   154.76  L   730.88,   159.73  " style="stroke-width: 1.42 ;&st7;  " /><path d=" M   742.90,   171.76  L   747.88,   166.79  " style="stroke-width: 1.42 ;&st7;  " /><path d=" M   730.88,   166.79  L   735.85,   171.76  " style="stroke-width: 1.42 ;&st7;  " /><path d=" M   747.88,   159.73  L   742.90,   154.76  " style="stroke-width: 1.42 ;&st7;  " /><text style="&st18;" transform="matrix(&st16;  537.46  652.48 )">W-B</text><text style="&st18;" transform="matrix(&st16;  888.3  117.07 )">BR</text><text style="&st18;" transform="matrix(&st16;  681.93  244.55 )">W-B</text><text style="&st18;" transform="matrix(&st16;  681.93  202.05 )">W-B</text><text style="&st18;" transform="matrix(&st16;  681.93  159.56 )">W-B</text><text style="&st18;" transform="matrix(&st17;  735.68  232.95 )">W-B</text><text style="&st18;" transform="matrix(&st17;  735.68  190.46 )">W-B</text><text style="&st18;" transform="matrix(&st16;  885.9  159.56 )">W-B</text><path d=" M   832.86,   116.52  L   832.86,   120.77  " style="stroke-width: 1.42 ;&st7;  " /><text style="&st18;" transform="matrix(&st17;  829.17  339.18 )">W-B</text><text style="&st18;" transform="matrix(&st16;  769.32  117.07 )">BR</text><text style="&st18;" transform="matrix(&st16;  766.61  128.4 )">(*25)</text><path d=" M   858.36,   244.72  L   853.38,   239.75  " style="stroke-width: 1.42 ;&st7;  " /><path d=" M   841.36,   251.77  L   846.33,   256.74  " style="stroke-width: 1.42 ;&st7;  " /><path d=" M   853.38,   256.74  L   858.36,   251.77  " style="stroke-width: 1.42 ;&st7;  " /><path d=" M   846.33,   239.75  L   841.36,   244.72  " style="stroke-width: 1.42 ;&st7;  " /><text style="&st18;" transform="matrix(&st16;  792.41  244.55 )">W-B</text><path d=" M   934.84,   193.73  L   929.87,   188.75  " style="stroke-width: 1.42 ;&st7;  " /><path d=" M   917.85,   200.78  L   922.82,   205.75  " style="stroke-width: 1.42 ;&st7;  " /><path d=" M   929.87,   205.75  L   934.84,   200.78  " style="stroke-width: 1.42 ;&st7;  " /><path d=" M   922.82,   188.75  L   917.85,   193.73  " style="stroke-width: 1.42 ;&st7;  " /><path d=" M   934.84,   219.22  L   929.87,   214.25  " style="stroke-width: 1.42 ;&st7;  " /><path d=" M   917.85,   226.28  L   922.82,   231.25  " style="stroke-width: 1.42 ;&st7;  " /><path d=" M   929.87,   231.25  L   934.84,   226.28  " style="stroke-width: 1.42 ;&st7;  " /><path d=" M   922.82,   214.25  L   917.85,   219.22  " style="stroke-width: 1.42 ;&st7;  " /><path d=" M   922.82,   239.75  L   917.85,   244.72  " style="stroke-width: 1.42 ;&st7;  " /><path d=" M   929.87,   256.74  L   934.84,   251.77  " style="stroke-width: 1.42 ;&st7;  " /><path d=" M   917.85,   251.77  L   922.82,   256.74  " style="stroke-width: 1.42 ;&st7;  " /><path d=" M   934.84,   244.72  L   929.87,   239.75  " style="stroke-width: 1.42 ;&st7;  " /><path d=" M   934.84,   270.21  L   929.87,   265.24  " style="stroke-width: 1.42 ;&st7;  " /><path d=" M   917.85,   277.27  L   922.82,   282.24  " style="stroke-width: 1.42 ;&st7;  " /><path d=" M   929.87,   282.24  L   934.84,   277.27  " style="stroke-width: 1.42 ;&st7;  " /><path d=" M   922.82,   265.24  L   917.85,   270.21  " style="stroke-width: 1.42 ;&st7;  " /><path d=" M   985.98,   189.77  C   984.07    191.91    984.01    195.04    985.84    197.25  " style="stroke-width: 1.42 ;&st7;   " /><path d=" M   985.98,   215.26  C   984.07    217.40    984.01    220.54    985.84    222.75  " style="stroke-width: 1.42 ;&st7;   " /><path d=" M   985.98,   240.76  C   984.07    242.90    984.01    246.03    985.84    248.24  " style="stroke-width: 1.42 ;&st7;   " /><path d=" M   985.98,   266.26  C   984.07    268.40    984.01    271.53    985.84    273.74  " style="stroke-width: 1.42 ;&st7;   " /><text style="&st18;" transform="matrix(&st16;  888.3  270.04 )">BR</text><text style="&st18;" transform="matrix(&st16;  888.3  244.55 )">BR</text><text style="&st18;" transform="matrix(&st16;  888.3  219.05 )">BR</text><text style="&st18;" transform="matrix(&st16;  888.3  193.56 )">BR</text><text style="&st18;" transform="matrix(&st17;  846.16  339.18 )">W-B</text><text ewd:textID="1" style="&st18;" transform="matrix(&st16;  947.6  193.56 )">(Protegido)</text><text ewd:textID="1" style="&st18;" transform="matrix(&st16;  947.6  219.05 )">(Protegido)</text><text ewd:textID="1" style="&st18;" transform="matrix(&st16;  947.6  244.55 )">(Protegido)</text><text ewd:textID="1" style="&st18;" transform="matrix(&st16;  947.6  270.04 )">(Protegido)</text><text style="&st18;" transform="matrix(&st16;  885.59  128.4 )">(*25)</text><text style="&st18;" transform="matrix(&st16;  664.93  117.07 )">W-B</text><path d=" M   696.88,   499.67  L   691.91,   494.70  " style="stroke-width: 1.42 ;&st7;  " /><path d=" M   679.89,   506.73  L   684.86,   511.70  " style="stroke-width: 1.42 ;&st7;  " /><path d=" M   691.91,   511.70  L   696.88,   506.73  " style="stroke-width: 1.42 ;&st7;  " /><path d=" M   684.86,   494.70  L   679.89,   499.67  " style="stroke-width: 1.42 ;&st7;  " /><path d=" M   696.88,   567.66  L   691.91,   562.69  " style="stroke-width: 1.42 ;&st7;  " /><path d=" M   679.89,   574.72  L   684.86,   579.69  " style="stroke-width: 1.42 ;&st7;  " /><path d=" M   691.91,   579.69  L   696.88,   574.72  " style="stroke-width: 1.42 ;&st7;  " /><path d=" M   684.86,   562.69  L   679.89,   567.66  " style="stroke-width: 1.42 ;&st7;  " /><path d=" M   892.35,   559.16  L   887.38,   554.19  " style="stroke-width: 1.42 ;&st7;  " /><path d=" M   875.35,   566.22  L   880.32,   571.19  " style="stroke-width: 1.42 ;&st7;  " /><path d=" M   887.38,   571.19  L   892.35,   566.22  " style="stroke-width: 1.42 ;&st7;  " /><path d=" M   880.32,   554.19  L   875.35,   559.16  " style="stroke-width: 1.42 ;&st7;  " /><path d=" M   892.35,   601.66  L   887.38,   596.69  " style="stroke-width: 1.42 ;&st7;  " /><path d=" M   875.35,   608.71  L   880.32,   613.68  " style="stroke-width: 1.42 ;&st7;  " /><path d=" M   887.38,   613.68  L   892.35,   608.71  " style="stroke-width: 1.42 ;&st7;  " /><path d=" M   880.32,   596.69  L   875.35,   601.66  " style="stroke-width: 1.42 ;&st7;  " /><text style="&st18;" transform="matrix(&st16;  639.44  465.51 )">W-B</text><text style="&st18;" transform="matrix(&st16;  639.44  499.5 )">W-B</text><text style="&st18;" transform="matrix(&st16;  639.44  533.5 )">W-B</text><text style="&st18;" transform="matrix(&st16;  639.44  567.49 )">W-B</text><text style="&st18;" transform="matrix(&st16;  639.44  601.49 )">W-B</text><text style="&st18;" transform="matrix(&st16;  724.42  567.49 )">W-B</text><text style="&st18;" transform="matrix(&st16;  902.89  558.99 )">W-B</text><text style="&st18;" transform="matrix(&st16;  902.89  601.49 )">W-B</text><text style="&st18;" transform="matrix(&st16;  843.4  558.99 )">W-B</text><text style="&st18;" transform="matrix(&st16;  843.4  601.49 )">W-B</text><text style="&st18;" transform="matrix(&st17;  684.69  543.15 )">W-B</text><text style="&st18;" transform="matrix(&st16;  902.89  372.03 )">W-B</text><text style="&st18;" transform="matrix(&st16;  902.89  338.03 )">W-B</text><text style="&st18;" transform="matrix(&st16;  537.46  321.03 )">W-B</text><g ewd:code="A107" ewd:figID="7" ewd:figtype="conn"><g ewd:lineID="30"><text style="&st18;" transform="matrix(&st16;  614.48  117.07 )">1</text></g><path d=" M   526.91,   112.76  L   526.91,   138.26  L   611.90,   138.26  L   611.90,   112.76  L   526.91,   112.76  " style="stroke-width: 1.42 ;&st7;  " /><text style="&st18;" transform="matrix(&st16; 593.15 122.23)">(GND)</text><g ewd:figtype="title" ewd:horAlign="center"><text ewd:textID="139" style="&st18;" transform="matrix(&st16; 529.27 128.89)">Conjunto de la bomba de<tspan dy="6.0" x="0 ">agua del inversor (con motor)</tspan></text><text style="&st18;" transform="matrix(&st16; 529.26 121.79)">A107</text></g></g><g ewd:code="Z6" ewd:figID="10" ewd:figtype="conn"><g ewd:lineID="43"><text style="&st18;" transform="matrix(&st16;  937.16  117.08 )">1</text></g><text style="&st18;" transform="matrix(&st16; 944.08 122.73)">(SGND)</text><path d=" M   943.34,   112.27  L   943.34,   146.26  L  1028.33,   146.26  L  1028.33,   112.27  L   943.34,   112.27  " style="stroke-width: 1.42 ;&st7;  " /><g ewd:figtype="title" ewd:horAlign="center"><text ewd:textID="147" style="&st18;" transform="matrix(&st16; 971.05 128.40)">Conjunto del sensor<tspan dy="6.0" x="0 ">de radar de ondas</tspan><tspan dy="6.0" x="0 ">milimétricas</tspan></text><text style="&st18;" transform="matrix(&st16; 971.04 121.29)">Z6</text></g></g><g ewd:code="A62" ewd:figID="14" ewd:figtype="conn"><g ewd:lineID="40"><text style="&st18;" transform="matrix(&st16;  935.46  156.73 )">14</text><path d=" M   943.34,   163.26  C   943.34    160.75    941.31    158.73    938.81    158.73  " style="stroke-width: 1.42 ;&st7;   " /><path d=" M   938.81,   158.73  C   936.31    158.73    934.28    160.75    934.28    163.26  " style="stroke-width: 1.42 ;&st7;   " /><path d=" M   934.28,   163.26  C   934.28    165.76    936.31    167.79    938.81    167.79  " style="stroke-width: 1.42 ;&st7;   " /><path d=" M   938.81,   167.79  C   941.31    167.79    943.34    165.76    943.34    163.26  " style="stroke-width: 1.42 ;&st7;   " /><text style="&st18;" transform="matrix(&st16;  936.51  165.23 )">A</text></g><path d=" M   943.34,   154.76  L   943.34,   180.26  L  1028.33,   180.26  L  1028.33,   154.76  L   943.34,   154.76  " style="stroke-width: 1.42 ;&st7;  " /><text style="&st18;" transform="matrix(&st16; 944.08 165.23)">(EC)</text><path d=" M   943.34,   163.26  C   943.34    160.75    941.31    158.73    938.81    158.73  " style="stroke-width: 1.42 ;&st7;   " /><path d=" M   938.81,   158.73  C   936.31    158.73    934.28    160.75    934.28    163.26  " style="stroke-width: 1.42 ;&st7;   " /><path d=" M   934.28,   163.26  C   934.28    165.76    936.31    167.79    938.81    167.79  " style="stroke-width: 1.42 ;&st7;   " /><path d=" M   938.81,   167.79  C   941.31    167.79    943.34    165.76    943.34    163.26  " style="stroke-width: 1.42 ;&st7;   " /><g ewd:figtype="title"><text style="&st18;" transform="matrix(&st16; 971.05 170.89)">ECM</text><text style="&st18;" transform="matrix(&st16; 971.04 163.79)">A62(A)</text></g></g><g ewd:code="1" ewd:figID="33" ewd:figtype="rb"><path d=" M   641.64,   252.49  L   637.39,   252.49  " style="stroke-width: 1.42 ;&st7;  " /><path d=" M   641.64,   243.99  L   637.39,   243.99  " style="stroke-width: 1.42 ;&st7;  " /><path d=" M   645.89,   248.24  C   645.89    245.90    643.99    243.99    641.64    243.99  " style="stroke-width: 1.42 ;&st7;   " /><path d=" M   641.64,   252.49  C   643.99    252.49    645.89    250.59    645.89    248.24  " style="stroke-width: 1.42 ;&st7;   " /><path d=" M   633.14,   248.24  C   633.14    250.59    635.05    252.49    637.39    252.49  " style="stroke-width: 1.42 ;&st7;   " /><path d=" M   637.39,   243.99  C   635.05    243.99    633.14    245.90    633.14    248.24  " style="stroke-width: 1.42 ;&st7;   " /><path d=" M   611.90,   248.24  L   633.14,   248.24  " style="stroke-width: 0.85 ;&st7;  " /><path d=" M   628.25,   248.24  L   625.42,   245.41  L   629.67,   245.41  L   632.50,   248.24  L   629.67,   251.08  L   625.42,   251.08  L   628.25,   248.24  " style="stroke-width: 0.28 ;&st9;  " /><text style="&st18;" transform="matrix(&st16;  637.72  250.21 )">1</text><text style="&st18;" transform="matrix(&st16;  614.48  244.55 )">2</text><path d=" M   526.91,   239.75  L   526.91,   265.24  L   611.90,   265.24  L   611.90,   239.75  L   526.91,   239.75  " style="stroke-width: 1.42 ;&st7;  " /><text ewd:textID="58" style="&st18;" transform="matrix(&st16; 529.26 255.88)">Relé A/F</text><text style="&st18;" transform="matrix(&st16; 602.48 250.21)">(E)</text></g><g ewd:code="1" ewd:figID="59" ewd:figtype="rb"><path d=" M   641.64,   210.00  L   637.39,   210.00  " style="stroke-width: 1.42 ;&st7;  " /><path d=" M   641.64,   201.50  L   637.39,   201.50  " style="stroke-width: 1.42 ;&st7;  " /><path d=" M   645.89,   205.75  C   645.89    203.40    643.99    201.50    641.64    201.50  " style="stroke-width: 1.42 ;&st7;   " /><path d=" M   641.64,   210.00  C   643.99    210.00    645.89    208.10    645.89    205.75  " style="stroke-width: 1.42 ;&st7;   " /><path d=" M   633.14,   205.75  C   633.14    208.10    635.05    210.00    637.39    210.00  " style="stroke-width: 1.42 ;&st7;   " /><path d=" M   637.39,   201.50  C   635.05    201.50    633.14    203.40    633.14    205.75  " style="stroke-width: 1.42 ;&st7;   " /><path d=" M   611.90,   205.75  L   633.14,   205.75  " style="stroke-width: 0.85 ;&st7;  " /><path d=" M   628.25,   205.75  L   625.42,   202.92  L   629.67,   202.92  L   632.50,   205.75  L   629.67,   208.58  L   625.42,   208.58  L   628.25,   205.75  " style="stroke-width: 0.28 ;&st9;  " /><text style="&st18;" transform="matrix(&st16;  637.72  207.72 )">1</text><text style="&st18;" transform="matrix(&st16;  614.48  202.06 )">2</text><path d=" M   526.91,   197.25  L   526.91,   222.75  L   611.90,   222.75  L   611.90,   197.25  L   526.91,   197.25  " style="stroke-width: 1.42 ;&st7;  " /><text ewd:textID="92" style="&st18;" transform="matrix(&st16; 529.26 213.39)">Relé EFI-MAIN</text><text style="&st18;" transform="matrix(&st16; 602.48 207.72)">(E)</text></g><g ewd:code="1" ewd:figID="64" ewd:figtype="rb"><path d=" M   641.64,   159.01  L   637.39,   159.01  " style="stroke-width: 1.42 ;&st7;  " /><path d=" M   641.64,   167.51  L   637.39,   167.51  " style="stroke-width: 1.42 ;&st7;  " /><path d=" M   637.39,   159.01  C   635.05    159.01    633.14    160.91    633.14    163.26  " style="stroke-width: 1.42 ;&st7;   " /><path d=" M   633.14,   163.26  C   633.14    165.60    635.05    167.51    637.39    167.51  " style="stroke-width: 1.42 ;&st7;   " /><path d=" M   641.64,   167.51  C   643.99    167.51    645.89    165.60    645.89    163.26  " style="stroke-width: 1.42 ;&st7;   " /><path d=" M   645.89,   163.26  C   645.89    160.91    643.99    159.01    641.64    159.01  " style="stroke-width: 1.42 ;&st7;   " /><path d=" M   628.25,   163.26  L   625.42,   160.43  L   629.67,   160.43  L   632.50,   163.26  L   629.67,   166.09  L   625.42,   166.09  L   628.25,   163.26  " style="stroke-width: 0.28 ;&st9;  " /><path d=" M   611.90,   163.26  L   633.14,   163.26  " style="stroke-width: 0.85 ;&st7;  " /><text style="&st18;" transform="matrix(&st16;  614.48  159.57 )">2</text><text style="&st18;" transform="matrix(&st16;  637.72  165.23 )">1</text><path d=" M   526.91,   154.76  L   526.91,   180.26  L   611.90,   180.26  L   611.90,   154.76  L   526.91,   154.76  " style="stroke-width: 1.42 ;&st7;  " /><text ewd:textID="129" style="&st18;" transform="matrix(&st16; 529.26 170.89)">Relé IG2</text><text style="&st18;" transform="matrix(&st16; 600.48 165.23)">(-S)</text></g><g ewd:code="A110" ewd:figID="222" ewd:figtype="conn"><g ewd:lineID="25"><text style="&st18;" transform="matrix(&st16;  614.48  601.49 )">23</text></g><g ewd:lineID="26"><text style="&st18;" transform="matrix(&st16;  614.48  567.5 )">24</text></g><g ewd:lineID="27"><text style="&st18;" transform="matrix(&st16;  614.48  533.51 )">25</text></g><g ewd:lineID="28"><text style="&st18;" transform="matrix(&st16;  614.48  499.51 )">26</text></g><g ewd:lineID="29"><text style="&st18;" transform="matrix(&st16;  614.48  465.52 )">27</text></g><text style="&st18;" transform="matrix(&st16; 589.81 505.17)">(GND3)</text><path d=" M   526.91,   460.71  L   526.91,   622.18  L   611.90,   622.18  L   611.90,   460.71  L   526.91,   460.71  " style="stroke-width: 1.42 ;&st7;  " /><text style="&st18;" transform="matrix(&st16; 589.81 471.18)">(GND2)</text><text style="&st18;" transform="matrix(&st16; 589.81 539.16)">(GND4)</text><text style="&st18;" transform="matrix(&st16; 589.81 573.16)">(GND5)</text><text style="&st18;" transform="matrix(&st16; 589.81 607.15)">(GND6)</text><g ewd:figtype="title" ewd:horAlign="center"><text ewd:textID="73" style="&st18;" transform="matrix(&st16; 529.27 476.84)">Conjunto<tspan dy="6.0" x="0 ">del servofreno</tspan><tspan dy="6.0" x="0 ">con cilindro</tspan><tspan x="0" dy="6" style="&st18;">principal</tspan></text><text style="&st18;" transform="matrix(&st16; 529.26 469.74)">A110</text></g></g><g ewd:code="A104" ewd:figID="240" ewd:figtype="conn"><g ewd:lineID="50"><text style="&st18;" transform="matrix(&st16;  937.01  598.65 )">1</text><path d=" M   943.34,   605.18  C   943.34    602.68    941.31    600.65    938.81    600.65  " style="stroke-width: 1.42 ;&st7;   " /><path d=" M   938.81,   600.65  C   936.31    600.65    934.28    602.68    934.28    605.18  " style="stroke-width: 1.42 ;&st7;   " /><path d=" M   934.28,   605.18  C   934.28    607.69    936.31    609.72    938.81    609.72  " style="stroke-width: 1.42 ;&st7;   " /><path d=" M   938.81,   609.72  C   941.31    609.72    943.34    607.69    943.34    605.18  " style="stroke-width: 1.42 ;&st7;   " /><text style="&st18;" transform="matrix(&st16;  936.62  607.15 )">B</text></g><path d=" M   943.34,   596.69  L   943.34,   622.18  L  1028.33,   622.18  L  1028.33,   596.69  L   943.34,   596.69  " style="stroke-width: 1.42 ;&st7;  " /><text style="&st18;" transform="matrix(&st16; 944.08 607.15)">(GND2)</text><path d=" M   943.34,   605.18  C   943.34    602.68    941.31    600.65    938.81    600.65  " style="stroke-width: 1.42 ;&st7;   " /><path d=" M   938.81,   600.65  C   936.31    600.65    934.28    602.68    934.28    605.18  " style="stroke-width: 1.42 ;&st7;   " /><path d=" M   934.28,   605.18  C   934.28    607.69    936.31    609.72    938.81    609.72  " style="stroke-width: 1.42 ;&st7;   " /><path d=" M   938.81,   609.72  C   941.31    609.72    943.34    607.69    943.34    605.18  " style="stroke-width: 1.42 ;&st7;   " /><g ewd:figtype="title" ewd:horAlign="center"><text style="&st18;" transform="matrix(&st16; 965.04 605.71)">A104(B)</text><text ewd:textID="72" style="&st18;" transform="matrix(&st16; 965.05 612.82)">Conjunto de la bomba<tspan dy="6.0" x="0 ">del reforzador del freno</tspan></text></g></g><g ewd:code="A103" ewd:figID="244" ewd:figtype="conn"><g ewd:lineID="51"><text style="&st18;" transform="matrix(&st16;  937.01  556.16 )">2</text><path d=" M   943.34,   562.69  C   943.34    560.19    941.31    558.16    938.81    558.16  " style="stroke-width: 1.42 ;&st7;   " /><path d=" M   938.81,   558.16  C   936.31    558.16    934.28    560.19    934.28    562.69  " style="stroke-width: 1.42 ;&st7;   " /><path d=" M   934.28,   562.69  C   934.28    565.19    936.31    567.22    938.81    567.22  " style="stroke-width: 1.42 ;&st7;   " /><path d=" M   938.81,   567.22  C   941.31    567.22    943.34    565.19    943.34    562.69  " style="stroke-width: 1.42 ;&st7;   " /><text style="&st18;" transform="matrix(&st16;  936.51  564.66 )">A</text></g><path d=" M   943.34,   554.19  L   943.34,   579.69  L  1028.33,   579.69  L  1028.33,   554.19  L   943.34,   554.19  " style="stroke-width: 1.42 ;&st7;  " /><text style="&st18;" transform="matrix(&st16; 944.08 564.66)">(GND1)</text><path d=" M   943.34,   562.69  C   943.34    560.19    941.31    558.16    938.81    558.16  " style="stroke-width: 1.42 ;&st7;   " /><path d=" M   938.81,   558.16  C   936.31    558.16    934.28    560.19    934.28    562.69  " style="stroke-width: 1.42 ;&st7;   " /><path d=" M   934.28,   562.69  C   934.28    565.19    936.31    567.22    938.81    567.22  " style="stroke-width: 1.42 ;&st7;   " /><path d=" M   938.81,   567.22  C   941.31    567.22    943.34    565.19    943.34    562.69  " style="stroke-width: 1.42 ;&st7;   " /><g ewd:figtype="title" ewd:horAlign="center"><text style="&st18;" transform="matrix(&st16; 965.04 563.22)">A103(A)</text><text ewd:textID="72" style="&st18;" transform="matrix(&st16; 965.05 570.33)">Conjunto de la bomba<tspan dy="6.0" x="0 ">del reforzador del freno</tspan></text></g></g><g ewd:code="A111" ewd:figID="247" ewd:figtype="conn"><g ewd:lineID="53"><text style="&st18;" transform="matrix(&st16;  935.46  369.19 )">11</text><path d=" M   943.34,   375.72  C   943.34    373.22    941.31    371.19    938.81    371.19  " style="stroke-width: 1.42 ;&st7;   " /><path d=" M   938.81,   371.19  C   936.31    371.19    934.28    373.22    934.28    375.72  " style="stroke-width: 1.42 ;&st7;   " /><path d=" M   934.28,   375.72  C   934.28    378.23    936.31    380.26    938.81    380.26  " style="stroke-width: 1.42 ;&st7;   " /><path d=" M   938.81,   380.26  C   941.31    380.26    943.34    378.23    943.34    375.72  " style="stroke-width: 1.42 ;&st7;   " /><text style="&st18;" transform="matrix(&st16;  936.51  377.69 )">A</text></g><g ewd:lineID="54"><text style="&st18;" transform="matrix(&st16;  935.46  335.2 )">10</text><path d=" M   943.34,   341.73  C   943.34    339.22    941.31    337.20    938.81    337.20  " style="stroke-width: 1.42 ;&st7;   " /><path d=" M   938.81,   337.20  C   936.31    337.20    934.28    339.22    934.28    341.73  " style="stroke-width: 1.42 ;&st7;   " /><path d=" M   934.28,   341.73  C   934.28    344.23    936.31    346.26    938.81    346.26  " style="stroke-width: 1.42 ;&st7;   " /><path d=" M   938.81,   346.26  C   941.31    346.26    943.34    344.23    943.34    341.73  " style="stroke-width: 1.42 ;&st7;   " /><text style="&st18;" transform="matrix(&st16;  936.51  343.7 )">A</text></g><path d=" M   943.34,   333.23  L   943.34,   392.72  L  1028.33,   392.72  L  1028.33,   333.23  L   943.34,   333.23  " style="stroke-width: 1.42 ;&st7;  " /><text style="&st18;" transform="matrix(&st16; 944.08 343.70)">(GND1)</text><text style="&st18;" transform="matrix(&st16; 944.08 377.69)">(GND2)</text><path d=" M   943.34,   341.73  C   943.34    339.22    941.31    337.20    938.81    337.20  " style="stroke-width: 1.42 ;&st7;   " /><path d=" M   938.81,   337.20  C   936.31    337.20    934.28    339.22    934.28    341.73  " style="stroke-width: 1.42 ;&st7;   " /><path d=" M   934.28,   341.73  C   934.28    344.23    936.31    346.26    938.81    346.26  " style="stroke-width: 1.42 ;&st7;   " /><path d=" M   938.81,   346.26  C   941.31    346.26    943.34    344.23    943.34    341.73  " style="stroke-width: 1.42 ;&st7;   " /><path d=" M   943.34,   375.72  C   943.34    373.22    941.31    371.19    938.81    371.19  " style="stroke-width: 1.42 ;&st7;   " /><path d=" M   938.81,   371.19  C   936.31    371.19    934.28    373.22    934.28    375.72  " style="stroke-width: 1.42 ;&st7;   " /><path d=" M   934.28,   375.72  C   934.28    378.23    936.31    380.26    938.81    380.26  " style="stroke-width: 1.42 ;&st7;   " /><path d=" M   938.81,   380.26  C   941.31    380.26    943.34    378.23    943.34    375.72  " style="stroke-width: 1.42 ;&st7;   " /><g ewd:figtype="title" ewd:horAlign="center"><text ewd:textID="140" style="&st18;" transform="matrix(&st16; 971.05 349.36)">Conjunto del<tspan dy="6.0" x="0 ">inversor con</tspan><tspan dy="6.0" x="0 ">convertidor</tspan></text><text style="&st18;" transform="matrix(&st16; 971.04 342.26)">A111(A)</text></g></g><g ewd:code="AZ1" ewd:figID="287" ewd:figtype="w2w"><text style="&st18;" transform="matrix(&st16;  822.56  113.53 )">9</text><path d=" M   841.93,   125.01  L   837.68,   120.77  L   841.93,   116.52  " style="stroke-width: 1.42 ;&st7;  " /><path d=" M   838.53,   125.01  L   834.28,   120.77  L   838.53,   116.52  " style="stroke-width: 1.42 ;&st7;  " /></g><g ewd:code="AI" ewd:figID="325" ewd:figtype="gp"><path d=" M   773.37,   697.25  L   773.37,   701.50  " style="stroke-width: 0.85 ;&st7;  " /><path d=" M   764.87,   701.50  L   781.87,   701.50  " style="stroke-width: 0.85 ;&st7;  " /><path d=" M   769.12,   704.33  L   777.62,   704.33  " style="stroke-width: 0.85 ;&st7;  " /><path d=" M   770.54,   707.17  L   776.20,   707.17  " style="stroke-width: 0.85 ;&st7;  " /><path d=" M   771.95,   710.00  L   774.79,   710.00  " style="stroke-width: 0.85 ;&st7;  " /></g><g ewd:code="AF" ewd:figID="326" ewd:figtype="gp"><path d=" M   832.86,   416.80  L   832.86,   421.05  " style="stroke-width: 0.85 ;&st7;  " /><path d=" M   824.36,   421.05  L   841.36,   421.05  " style="stroke-width: 0.85 ;&st7;  " /><path d=" M   828.61,   423.88  L   837.11,   423.88  " style="stroke-width: 0.85 ;&st7;  " /><path d=" M   830.03,   426.71  L   835.69,   426.71  " style="stroke-width: 0.85 ;&st7;  " /><path d=" M   831.44,   429.55  L   834.28,   429.55  " style="stroke-width: 0.85 ;&st7;  " /></g><g ewd:code=" " ewd:figID="514" ewd:figtype="annex"><path d=" M   985.98,   189.77  C   984.07    191.91    984.01    195.04    985.84    197.25  " style="stroke-width: 1.42 ;&st7;   " /><path d=" M   985.69,   204.74  C   987.60    202.60    987.66    199.46    985.83    197.25  " style="stroke-width: 1.42 ;&st7;   " /></g><g ewd:code=" " ewd:figID="515" ewd:figtype="annex"><path d=" M   985.98,   215.26  C   984.07    217.40    984.01    220.54    985.84    222.75  " style="stroke-width: 1.42 ;&st7;   " /><path d=" M   985.69,   230.23  C   987.60    228.09    987.66    224.96    985.83    222.75  " style="stroke-width: 1.42 ;&st7;   " /></g><g ewd:code=" " ewd:figID="516" ewd:figtype="annex"><path d=" M   985.98,   240.76  C   984.07    242.90    984.01    246.03    985.84    248.24  " style="stroke-width: 1.42 ;&st7;   " /><path d=" M   985.69,   255.73  C   987.60    253.59    987.66    250.46    985.83    248.24  " style="stroke-width: 1.42 ;&st7;   " /></g><g ewd:code=" " ewd:figID="517" ewd:figtype="annex"><path d=" M   985.98,   266.26  C   984.07    268.40    984.01    271.53    985.84    273.74  " style="stroke-width: 1.42 ;&st7;   " /><path d=" M   985.69,   281.22  C   987.60    279.08    987.66    275.95    985.83    273.74  " style="stroke-width: 1.42 ;&st7;   " /></g></svg>