﻿<?xml version="1.0" encoding="utf-8"?>
<!DOCTYPE svg PUBLIC "-//W3C//DTD SVG 1.0//EN" "http://www.w3.org/TR/2001/REC-SVG-20010904/DTD/svg10.dtd"[
	<!ENTITY ns_flows "http://ns.adobe.com/Flows/1.0/">
	<!ENTITY ns_svg "http://www.w3.org/2000/svg">
	<!ENTITY ns_xlink "http://www.w3.org/1999/xlink">
	<!ENTITY st0 "font-size:7px;font-family:'MS-PGothic';adobe-font-script:japanese;">
	<!ENTITY st1 "font-size:6px;font-family:'ArialMT';">
	<!-- White fill  -->
	<!ENTITY st2 "fill:#FFFFFF;stroke:#000000; stroke-width:1.41;stroke-linecap:round;stroke-linejoin:round;">
	<!-- Yellow fill  -->
	<!ENTITY st3 "fill:#FFFFCC;stroke:#FFFFCC; stroke-width:0.1;stroke-linecap:round;stroke-linejoin:round;">
	<!-- Gray fill  -->
	<!ENTITY st4 "fill:#CCCCCC;stroke:#CCCCCC; stroke-width:0.1;stroke-linecap:round;stroke-linejoin:round;">
	<!-- Light-blue fill -->
	<!ENTITY st5 "fill:#CCECF4;stroke:#000000; stroke-width:1.133;stroke-linecap:round;stroke-linejoin:round;">
	<!ENTITY st6 "fill:none;stroke-linecap:butt; stroke-linejoin:round;">
	<!ENTITY st7 "fill:none;stroke:#000000;stroke-linecap:round;stroke-linejoin:round;">
	<!ENTITY st8 "enable-background:new    ;">
	<!-- Black fill -->
	<!ENTITY st9 "fill:#000000;stroke:#000000; stroke-linecap:round;stroke-linejoin:round;">
	<!-- SRS note   -->
	<!ENTITY st10 "font-size:9px;font-family:'ArialMT';">
	<!ENTITY st11 "font-size:9px;font-family:'Svg Symbol';">
	<!ENTITY st12 "font-size:6px;font-family:'Svg Symbol';">
	<!ENTITY st13 "fill:none;stroke:#ff0000;stroke-linecap:round;stroke-linejoin:round;">
	<!-- Yellow fill  -->
	<!ENTITY st14 "fill:#FFFF00;stroke:#FFFF00; stroke-width:0.1;stroke-linecap:round;stroke-linejoin:round;">
	<!ENTITY st15 "font-size:6px;font-family:'MS-PGothic';adobe-font-script:japanese;">
	<!ENTITY st16 "1.00 0.00 0.00 1.00">
	<!ENTITY st17 "0.00 -1.00 1.00 0.00">
	<!ENTITY st18 "font-size:6px;font-family:'Arial';">
	<!ENTITY st19 "font-size:9px;font-family:'Arial';">
	<!ENTITY st20 "font-size:6px;font-family:'MS-PGothic','MS PGothic';adobe-font-script:japanese;">
	<!ENTITY st21 "font-size:7px;font-family:'MS-PGothic','MS PGothic';adobe-font-script:japanese;">
	<!ATTLIST svg
		xmlns:ewd CDATA #FIXED "http://shcl.co.jp/ewd"
		xmlns:a CDATA #FIXED "http://ns.adobe.com/AdobeSVGViewerExtensions/3.0/"
		ewd:ver CDATA #IMPLIED
	>
	<!ATTLIST a
		ewd:lineID CDATA #IMPLIED
		ewd:groupID CDATA #IMPLIED
		ewd:figtype CDATA #IMPLIED
		ewd:code CDATA #IMPLIED
		ewd:figID CDATA #IMPLIED
		ewd:pinNo CDATA #IMPLIED
		ewd:comment CDATA #IMPLIED >
	<!ATTLIST g
		ewd:lineID CDATA #IMPLIED
		ewd:groupID CDATA #IMPLIED
		ewd:figtype CDATA #IMPLIED
		ewd:code CDATA #IMPLIED
		ewd:figID CDATA #IMPLIED
		ewd:pinNo CDATA #IMPLIED
		ewd:comment CDATA #IMPLIED >
	<!ATTLIST text
		ewd:textID CDATA #IMPLIED
		ewd:horAlign CDATA #IMPLIED >
	<!ATTLIST title
		ewd:textID CDATA #IMPLIED >
]>
<!-- Generator: Shintec Hozumi YS   -->
<svg onload="call_execInitLoadProc_svg('system')" style="overflow:visible;  enable-background:new 0 0 1003.541 710.000" viewBox="0 0 1011.334 710.000" height="710.000" width="1011.334" xml:space="preserve" ewd:ver="2.1.2.10" xmlns="&ns_svg;" xmlns:ewd="http://shcl.co.jp/ewd" xmlns:a="http://ns.adobe.com/AdobeSVGViewerExtensions/3.0/" xmlns:xlink="&ns_xlink;">
<path style="stroke-width: 1.42 ;&st7;  " d=" M   892.35,   503.20  L   883.85,   503.20  " /><path style="stroke-width: 1.42 ;&st7;  " d=" M   892.35,   414.69  L   887.38,   409.72  " /><path style="stroke-width: 1.42 ;&st7;  " d=" M   875.35,   421.75  L   880.32,   426.71  " /><text style="&st18;" transform="matrix(&st17;  761.18  334.84 )">R</text><text style="&st18;" transform="matrix(&st17;  973.64  462.41 )">W-B</text><text style="&st18;" transform="matrix(&st17;  880.16  215.86 )">R</text><text style="&st18;" transform="matrix(&st17;  880.16  305.1 )">R</text><text style="&st18;" transform="matrix(&st17;  922.65  458.92 )">W</text><text style="&st18;" transform="matrix(&st17;  761.18  215.74 )">P</text><text style="&st18;" transform="matrix(&st17;  565.71  122.34 )">L</text><path style="stroke-width: 1.42 ;&st7;  " d=" M   880.32,   409.72  L   875.35,   414.69  " /><path style="stroke-width: 1.42 ;&st7;  " d=" M   887.38,   426.71  L   892.35,   421.75  " /><text style="&st18;" transform="matrix(&st16;  540.95  584.49 )">W</text><text style="&st18;" transform="matrix(&st17;  659.19  215.82 )">L</text><text style="&st18;" transform="matrix(&st17;  880.16  386.69 )">W</text><text style="&st18;" transform="matrix(&st17;  880.16  458.92 )">W</text><g ewd:figtype="conn" ewd:figID="8" ewd:code="A45"><path style="stroke-width: 1.42 ;&st7;  " d=" M   879.60,   353.06  L   888.10,   353.06  " /><path style="stroke-width: 1.42 ;&st7;  " d=" M   879.60,   349.09  L   879.60,   353.06  " /><path style="stroke-width: 1.42 ;&st7;  " d=" M   888.10,   353.06  L   888.10,   349.09  " /><path style="stroke-width: 1.42 ;&st7;  " d=" M   879.60,   330.40  L   888.10,   330.40  " /><path style="stroke-width: 1.42 ;&st7;  " d=" M   879.60,   334.36  L   879.60,   330.40  " /><path style="stroke-width: 1.42 ;&st7;  " d=" M   888.10,   330.40  L   888.10,   334.36  " /><path style="stroke-width: 1.42 ;&st7;   " d=" M   875.35,   341.73  C   875.35    346.42    879.16    350.23    883.85    350.23  " /><path style="stroke-width: 1.42 ;&st7;   " d=" M   883.85,   350.23  C   888.55    350.23    892.35    346.42    892.35    341.73  " /><path style="stroke-width: 1.42 ;&st7;   " d=" M   892.35,   341.73  C   892.35    337.03    888.55    333.23    883.85    333.23  " /><path style="stroke-width: 1.42 ;&st7;   " d=" M   883.85,   333.23  C   879.16    333.23    875.35    337.03    875.35    341.73  " /><text style="&st18;" transform="matrix(&st16;  881.12  343.7 )">M</text><text style="&st18;" transform="matrix(&st16;  877.67  361.25 )">2</text><text style="&st18;" transform="matrix(&st16;  877.67  326.71 )">1</text><g ewd:figtype="title"><text style="&st18;" transform="matrix(&st17;  899.96  353.13 )">A45</text><text style="&st18;" transform="matrix(&st17;  907.07  353.13 )" ewd:textID="9">Conjunto de la<tspan x="0 " dy="6.0">bomba y motor</tspan><tspan x="0" dy="6" style="&st18;">del lavaparabrisas</tspan></text></g></g><g ewd:figtype="conn" ewd:figID="9" ewd:code="G114"><path style="stroke-width: 1.42 ;&st7;  " d=" M   756.37,   265.24  L   773.37,   265.24  L   773.37,   282.24  L   756.37,   282.24  L   756.37,   265.24  " /><path style="stroke-width: 0.85 ;&st7;  " d=" M   764.87,   265.24  L   764.87,   282.24  " /><text style="&st18;" transform="matrix(&st16;  758.69  290.43 )">4</text><text style="&st18;" transform="matrix(&st16;  758.69  261.55 )">6</text><g ewd:figtype="title"><text style="&st18;" transform="matrix(&st17;  788.09  285.14 )" ewd:textID="6">Conector<tspan x="0 " dy="6.0">de unión</tspan><tspan x="0 " dy="6.0">n.° 26</tspan></text><text style="&st18;" transform="matrix(&st17;  780.98  285.14 )">G114</text></g></g><g ewd:figtype="conn" ewd:figID="10" ewd:code="G10,G11"><path style="stroke-width: 1.42 ;&st7;  " d=" M  1002.83,   154.76  L   645.89,   154.76  L   645.89,    35.78  L  1002.83,    35.78  L  1002.83,   154.76  " /><path style="stroke-width: 0.85 ;&st7;  " d=" M   798.87,   103.77  L   798.87,   137.76  L   977.34,   137.76  L   977.34,   154.76  " /><path style="stroke-width: 0.85 ;&st7;  " d=" M   866.85,   103.77  L   866.85,   120.77  L   662.89,   120.77  L   662.89,   154.76  " /><path style="stroke-width: 0.85 ;&st7;  " d=" M   764.87,   103.77  L   764.87,   154.76  " /><path style="stroke-width: 0.85 ;&st7;  " d=" M   832.86,   103.77  L   832.86,   129.26  L   883.85,   129.26  L   883.85,   154.76  " /><path style="stroke-width: 0.85 ;&st7;   " d=" M   766.29,    95.27  C   766.29     94.49    765.65     93.85    764.87     93.85  " /><path style="stroke-width: 0.85 ;&st7;   " d=" M   764.87,    93.85  C   764.09     93.85    763.46     94.49    763.46     95.27  " /><path style="stroke-width: 0.85 ;&st7;   " d=" M   763.46,    95.27  C   763.46     96.05    764.09     96.69    764.87     96.69  " /><path style="stroke-width: 0.85 ;&st7;   " d=" M   764.87,    96.69  C   765.65     96.69    766.29     96.05    766.29     95.27  " /><path style="stroke-width: 0.85 ;&st7;   " d=" M   800.28,    95.27  C   800.28     94.49    799.65     93.85    798.87     93.85  " /><path style="stroke-width: 0.85 ;&st7;   " d=" M   798.87,    93.85  C   798.08     93.85    797.45     94.49    797.45     95.27  " /><path style="stroke-width: 0.85 ;&st7;   " d=" M   797.45,    95.27  C   797.45     96.05    798.08     96.69    798.87     96.69  " /><path style="stroke-width: 0.85 ;&st7;   " d=" M   798.87,    96.69  C   799.65     96.69    800.28     96.05    800.28     95.27  " /><path style="stroke-width: 1.42 ;&st7;  " d=" M   662.89,    52.78  L   662.89,   103.77  L   883.85,   103.77  L   883.85,    52.78  L   662.89,    52.78  " /><path style="stroke-width: 0.85 ;&st7;  " d=" M   766.29,    95.27  L   797.45,    95.27  " /><path style="stroke-width: 0.85 ;&st7;  " d=" M   696.88,    86.77  L   883.85,    86.77  " /><path style="stroke-width: 0.85 ;&st7;  " d=" M   747.87,    52.78  L   747.87,   103.77  " /><path style="stroke-width: 0.85 ;&st7;  " d=" M   781.87,    52.78  L   781.87,   103.77  " /><path style="stroke-width: 0.85 ;&st7;  " d=" M   696.88,    69.77  L   883.85,    69.77  " /><text style="&st18;" transform="matrix(&st16;  794.04  63.24 )">EW</text><text style="&st18;" transform="matrix(&st16;  760.05  63.24 )">WF</text><text style="&st18;" transform="matrix(&st16; 702.29 94.41)" ewd:textID="1" ewd:horAlign="center">Lavaparabrisas<tspan x="0 " dy="6.0">conectado</tspan></text><text style="&st18;" transform="matrix(&st16; 702.98 80.24)" ewd:textID="7" ewd:horAlign="center">Desconectado</text><path style="stroke-width: 0.85 ;&st7;  " d=" M   834.28,    95.27  L   865.44,    95.27  " /><path style="stroke-width: 0.85 ;&st7;  " d=" M   815.86,    52.78  L   815.86,   103.77  " /><text style="&st18;" transform="matrix(&st16;  828.04  63.24 )">WR</text><path style="stroke-width: 0.85 ;&st7;  " d=" M   849.86,    52.78  L   849.86,   103.77  " /><text style="&st18;" transform="matrix(&st16;  861.57  63.24 )">+B2</text><path style="stroke-width: 0.85 ;&st7;   " d=" M   868.27,    95.27  C   868.27     94.49    867.64     93.85    866.86     93.85  " /><path style="stroke-width: 0.85 ;&st7;   " d=" M   866.86,    93.85  C   866.07     93.85    865.44     94.49    865.44     95.27  " /><path style="stroke-width: 0.85 ;&st7;   " d=" M   865.44,    95.27  C   865.44     96.05    866.07     96.69    866.86     96.69  " /><path style="stroke-width: 0.85 ;&st7;   " d=" M   866.86,    96.69  C   867.64     96.69    868.27     96.05    868.27     95.27  " /><path style="stroke-width: 0.85 ;&st7;   " d=" M   834.28,    95.27  C   834.28     94.49    833.64     93.85    832.86     93.85  " /><path style="stroke-width: 0.85 ;&st7;   " d=" M   832.86,    93.85  C   832.08     93.85    831.44     94.49    831.44     95.27  " /><path style="stroke-width: 0.85 ;&st7;   " d=" M   831.44,    95.27  C   831.44     96.05    832.08     96.69    832.86     96.69  " /><path style="stroke-width: 0.85 ;&st7;   " d=" M   832.86,    96.69  C   833.64     96.69    834.28     96.05    834.28     95.27  " /><path style="stroke-width: 0.85 ;&st7;  " d=" M   696.88,    52.78  L   696.88,   103.77  " /><text style="&st18;" transform="matrix(&st17; 679.03 98.06)" ewd:textID="8">Interruptor del<tspan x="0 " dy="6.0">lavaparabrisas</tspan></text><text style="&st18;" transform="matrix(&st16;  665.47  151.07 )">+B2</text><text style="&st18;" transform="matrix(&st16;  767.46  151.07 )">WF</text><text style="&st18;" transform="matrix(&st16;  886.44  151.07 )">WR</text><text style="&st18;" transform="matrix(&st16;  979.92  151.07 )">EW</text><text style="&st18;" transform="matrix(&st16;  651.09  161.26 )">10</text><text style="&st18;" transform="matrix(&st16;  660.51  161.26 )">D</text><path style="stroke-width: 1.42 ;&st7;   " d=" M   667.42,   159.29  C   667.42    156.79    665.39    154.76    662.89    154.76  " /><path style="stroke-width: 1.42 ;&st7;   " d=" M   662.89,   154.76  C   660.39    154.76    658.36    156.79    658.36    159.29  " /><path style="stroke-width: 1.42 ;&st7;   " d=" M   658.36,   159.29  C   658.36    161.80    660.39    163.82    662.89    163.82  " /><path style="stroke-width: 1.42 ;&st7;   " d=" M   662.89,   163.82  C   665.39    163.82    667.42    161.80    667.42    159.29  " /><text style="&st18;" transform="matrix(&st16;  756.18  161.26 )">7</text><text style="&st18;" transform="matrix(&st16;  762.45  161.26 )">C</text><path style="stroke-width: 1.42 ;&st7;   " d=" M   769.40,   159.29  C   769.40    156.79    767.38    154.76    764.87    154.76  " /><path style="stroke-width: 1.42 ;&st7;   " d=" M   764.87,   154.76  C   762.37    154.76    760.34    156.79    760.34    159.29  " /><path style="stroke-width: 1.42 ;&st7;   " d=" M   760.34,   159.29  C   760.34    161.80    762.37    163.82    764.87    163.82  " /><path style="stroke-width: 1.42 ;&st7;   " d=" M   764.87,   163.82  C   767.38    163.82    769.40    161.80    769.40    159.29  " /><text style="&st18;" transform="matrix(&st16;  875.16  161.26 )">5</text><path style="stroke-width: 1.42 ;&st7;   " d=" M   888.38,   159.29  C   888.38    156.79    886.36    154.76    883.85    154.76  " /><path style="stroke-width: 1.42 ;&st7;   " d=" M   883.85,   154.76  C   881.35    154.76    879.32    156.79    879.32    159.29  " /><path style="stroke-width: 1.42 ;&st7;   " d=" M   879.32,   159.29  C   879.32    161.80    881.35    163.82    883.85    163.82  " /><path style="stroke-width: 1.42 ;&st7;   " d=" M   883.85,   163.82  C   886.36    163.82    888.38    161.80    888.38    159.29  " /><text style="&st18;" transform="matrix(&st16;  881.47  161.26 )">D</text><text style="&st18;" transform="matrix(&st16;  968.64  161.26 )">4</text><path style="stroke-width: 1.42 ;&st7;   " d=" M   981.87,   159.29  C   981.87    156.79    979.84    154.76    977.34    154.76  " /><path style="stroke-width: 1.42 ;&st7;   " d=" M   977.34,   154.76  C   974.83    154.76    972.80    156.79    972.80    159.29  " /><path style="stroke-width: 1.42 ;&st7;   " d=" M   972.80,   159.29  C   972.80    161.80    974.83    163.82    977.34    163.82  " /><path style="stroke-width: 1.42 ;&st7;   " d=" M   977.34,   163.82  C   979.84    163.82    981.87    161.80    981.87    159.29  " /><text style="&st18;" transform="matrix(&st16;  974.92  161.26 )">C</text><g ewd:figtype="title"><text style="&st18;" transform="matrix(&st16;  659.48  32.08 )" ewd:textID="10">Conjunto del interruptor del limpiaparabrisas</text><text style="&st18;" transform="matrix(&st16;  659.48  24.98 )">G10(C),G11(D)</text></g></g><g ewd:figtype="jb" ewd:figID="14" ewd:code="3"><path style="stroke-width: 1.42 ;&st7;  " d=" M   885.98,   282.24  L   881.73,   282.24  " /><path style="stroke-width: 1.42 ;&st7;  " d=" M   885.98,   273.74  L   881.73,   273.74  " /><path style="stroke-width: 1.42 ;&st7;  " d=" M   885.98,   248.24  L   881.73,   248.24  " /><path style="stroke-width: 1.42 ;&st7;  " d=" M   885.98,   239.75  L   881.73,   239.75  " /><path style="stroke-width: 1.42 ;&st7;   " d=" M   890.23,   277.99  C   890.23    275.64    888.32    273.74    885.98    273.74  " /><path style="stroke-width: 1.42 ;&st7;   " d=" M   885.98,   282.24  C   888.32    282.24    890.23    280.34    890.23    277.99  " /><path style="stroke-width: 1.42 ;&st7;   " d=" M   877.48,   277.99  C   877.48    280.34    879.38    282.24    881.73    282.24  " /><path style="stroke-width: 1.42 ;&st7;   " d=" M   881.73,   273.74  C   879.38    273.74    877.48    275.64    877.48    277.99  " /><path style="stroke-width: 1.42 ;&st7;   " d=" M   890.23,   243.99  C   890.23    241.65    888.32    239.75    885.98    239.75  " /><path style="stroke-width: 1.42 ;&st7;   " d=" M   885.98,   248.24  C   888.32    248.24    890.23    246.34    890.23    243.99  " /><path style="stroke-width: 1.42 ;&st7;   " d=" M   877.48,   243.99  C   877.48    246.34    879.38    248.24    881.73    248.24  " /><path style="stroke-width: 1.42 ;&st7;   " d=" M   881.73,   239.75  C   879.38    239.75    877.48    241.65    877.48    243.99  " /><path style="stroke-width: 0.85 ;&st7;  " d=" M   883.85,   273.74  L   883.85,   248.24  " /><path style="stroke-width: 0.28 ;&st9;  " d=" M   883.85,   268.84  L   881.02,   266.01  L   881.02,   270.26  L   883.85,   273.09  L   886.68,   270.26  L   886.68,   266.01  L   883.85,   268.84  " /><path style="stroke-width: 0.28 ;&st9;  " d=" M   883.85,   253.14  L   886.68,   255.97  L   886.68,   251.72  L   883.85,   248.89  L   881.02,   251.72  L   881.02,   255.97  L   883.85,   253.14  " /><text style="&st18;" transform="matrix(&st16;  873.35  279.96 )">7</text><text style="&st18;" transform="matrix(&st16;  880.11  279.96 )">3B</text><text style="&st18;" transform="matrix(&st16;  873.35  245.96 )">4</text><text style="&st18;" transform="matrix(&st16;  879.88  245.96 )">3C</text></g><g ewd:figtype="jb" ewd:figID="16" ewd:code="3"><path style="stroke-width: 0.85 ;&st7;  " d=" M   569.40,    69.77  L   569.40,    78.27  " /><path style="stroke-width: 1.42 ;&st7;  " d=" M   571.53,    95.27  L   567.28,    95.27  " /><path style="stroke-width: 1.42 ;&st7;  " d=" M   571.53,   103.77  L   567.28,   103.77  " /><path style="stroke-width: 0.85 ;&st7;  " d=" M   569.40,    78.27  L   569.40,    95.27  " /><path style="stroke-width: 1.42 ;&st7;   " d=" M   569.40,    47.11  C   566.67     48.72    565.76     52.25    567.37     54.99  " /><path style="stroke-width: 1.42 ;&st7;   " d=" M   567.37,    54.99  C   567.89     55.87    568.52     56.51    569.40     57.03  " /><path style="stroke-width: 1.42 ;&st7;   " d=" M   569.40,    66.94  C   572.14     65.33    573.05     61.80    571.44     59.06  " /><path style="stroke-width: 1.42 ;&st7;   " d=" M   571.44,    59.06  C   570.92     58.18    570.29     57.55    569.40     57.03  " /><path style="stroke-width: 0.85 ;&st7;   " d=" M   570.82,    45.69  C   570.82     44.91    570.19     44.28    569.40     44.28  " /><path style="stroke-width: 0.85 ;&st7;   " d=" M   569.40,    44.28  C   568.62     44.28    567.99     44.91    567.99     45.69  " /><path style="stroke-width: 0.85 ;&st7;   " d=" M   567.99,    45.69  C   567.99     46.48    568.62     47.11    569.40     47.11  " /><path style="stroke-width: 0.85 ;&st7;   " d=" M   569.40,    47.11  C   570.19     47.11    570.82     46.48    570.82     45.69  " /><path style="stroke-width: 0.85 ;&st7;   " d=" M   570.82,    68.36  C   570.82     67.57    570.19     66.94    569.40     66.94  " /><path style="stroke-width: 0.85 ;&st7;   " d=" M   569.40,    66.94  C   568.62     66.94    567.99     67.57    567.99     68.36  " /><path style="stroke-width: 0.85 ;&st7;   " d=" M   567.99,    68.36  C   567.99     69.14    568.62     69.77    569.40     69.77  " /><path style="stroke-width: 0.85 ;&st7;   " d=" M   569.40,    69.77  C   570.19     69.77    570.82     69.14    570.82     68.36  " /><path style="stroke-width: 1.42 ;&st7;   " d=" M   567.28,    95.27  C   564.93     95.27    563.03     97.17    563.03     99.52  " /><path style="stroke-width: 1.42 ;&st7;   " d=" M   563.03,    99.52  C   563.03    101.87    564.93    103.77    567.28    103.77  " /><path style="stroke-width: 1.42 ;&st7;   " d=" M   571.53,   103.77  C   573.88    103.77    575.78    101.87    575.78     99.52  " /><path style="stroke-width: 1.42 ;&st7;   " d=" M   575.78,    99.52  C   575.78     97.17    573.88     95.27    571.53     95.27  " /><path style="stroke-width: 0.28 ;&st9;  " d=" M   569.40,    90.37  L   566.57,    87.54  L   566.57,    91.79  L   569.40,    94.62  L   572.24,    91.79  L   572.24,    87.54  L   569.40,    90.37  " /><path style="stroke-width: 1.42 ;&st7;  " d=" M   556.66,    35.78  L   556.66,    78.27  L   582.15,    78.27  L   582.15,    35.78  L   556.66,    35.78  " /><text style="&st18;" transform="matrix(&st16;  585.83  56.17 )">15A <tspan x="0 " dy="6.0">WSH</tspan></text><text style="&st18;" transform="matrix(&st16;  565.43  101.49 )">3C</text><text style="&st18;" transform="matrix(&st16;  558.9  101.49 )">6</text><text style="&st18;" transform="matrix(&st16;  563.22  86.47 )">2</text><text style="&st18;" transform="matrix(&st16;  564.19  32.08 )">(IG)</text></g><g ewd:figtype="w2w" ewd:figID="17" ewd:code="AG12"><path style="stroke-width: 1.42 ;&st7;  " d=" M   888.10,   512.27  L   883.85,   508.02  L   879.60,   512.27  " /><path style="stroke-width: 1.42 ;&st7;  " d=" M   888.10,   508.87  L   883.85,   504.62  L   879.60,   508.87  " /><text style="&st18;" transform="matrix(&st16;  868.12  500.92 )">12</text></g><g ewd:figtype="gp" ewd:figID="19" ewd:code="GD"><path style="stroke-width: 0.85 ;&st7;  " d=" M   975.92,   710.00  L   978.75,   710.00  " /><path style="stroke-width: 0.85 ;&st7;  " d=" M   974.50,   707.17  L   980.17,   707.17  " /><path style="stroke-width: 0.85 ;&st7;  " d=" M   973.09,   704.33  L   981.59,   704.33  " /><path style="stroke-width: 0.85 ;&st7;  " d=" M   968.84,   701.50  L   985.83,   701.50  " /><path style="stroke-width: 0.85 ;&st7;  " d=" M   977.34,   697.25  L   977.34,   701.50  " /></g></svg>