﻿<?xml version="1.0" encoding="utf-8"?>
<!DOCTYPE svg PUBLIC "-//W3C//DTD SVG 1.0//EN" "http://www.w3.org/TR/2001/REC-SVG-20010904/DTD/svg10.dtd"[
	<!ENTITY ns_flows "http://ns.adobe.com/Flows/1.0/">
	<!ENTITY ns_svg "http://www.w3.org/2000/svg">
	<!ENTITY ns_xlink "http://www.w3.org/1999/xlink">
	<!ENTITY st0 "font-size:7px;font-family:'MS-PGothic';adobe-font-script:japanese;">
	<!ENTITY st1 "font-size:6px;font-family:'ArialMT';">
	<!-- White fill  -->
	<!ENTITY st2 "fill:#FFFFFF;stroke:#000000; stroke-width:1.41;stroke-linecap:round;stroke-linejoin:round;">
	<!-- Yellow fill  -->
	<!ENTITY st3 "fill:#FFFFCC;stroke:#FFFFCC; stroke-width:0.1;stroke-linecap:round;stroke-linejoin:round;">
	<!-- Gray fill  -->
	<!ENTITY st4 "fill:#CCCCCC;stroke:#CCCCCC; stroke-width:0.1;stroke-linecap:round;stroke-linejoin:round;">
	<!-- Light-blue fill -->
	<!ENTITY st5 "fill:#CCECF4;stroke:#000000; stroke-width:1.133;stroke-linecap:round;stroke-linejoin:round;">
	<!ENTITY st6 "fill:none;stroke-linecap:butt; stroke-linejoin:round;">
	<!ENTITY st7 "fill:none;stroke:#000000;stroke-linecap:round;stroke-linejoin:round;">
	<!ENTITY st8 "enable-background:new    ;">
	<!-- Black fill -->
	<!ENTITY st9 "fill:#000000;stroke:#000000; stroke-linecap:round;stroke-linejoin:round;">
	<!-- SRS note   -->
	<!ENTITY st10 "font-size:9px;font-family:'ArialMT';">
	<!ENTITY st11 "font-size:9px;font-family:'Svg Symbol';">
	<!ENTITY st12 "font-size:6px;font-family:'Svg Symbol';">
	<!ENTITY st13 "fill:none;stroke:#ff0000;stroke-linecap:round;stroke-linejoin:round;">
	<!-- Yellow fill  -->
	<!ENTITY st14 "fill:#FFFF00;stroke:#FFFF00; stroke-width:0.1;stroke-linecap:round;stroke-linejoin:round;">
	<!ENTITY st15 "font-size:6px;font-family:'MS-PGothic';adobe-font-script:japanese;">
	<!ENTITY st16 "1.00 0.00 0.00 1.00">
	<!ENTITY st17 "0.00 -1.00 1.00 0.00">
	<!ENTITY st18 "font-size:6px;font-family:'Arial';">
	<!ENTITY st19 "font-size:9px;font-family:'Arial';">
	<!ENTITY st20 "font-size:6px;font-family:'MS-PGothic','MS PGothic';adobe-font-script:japanese;">
	<!ENTITY st21 "font-size:7px;font-family:'MS-PGothic','MS PGothic';adobe-font-script:japanese;">
	<!ATTLIST svg
		xmlns:ewd CDATA #FIXED "http://shcl.co.jp/ewd"
		xmlns:a CDATA #FIXED "http://ns.adobe.com/AdobeSVGViewerExtensions/3.0/"
		ewd:ver CDATA #IMPLIED
	>
	<!ATTLIST a
		ewd:lineID CDATA #IMPLIED
		ewd:groupID CDATA #IMPLIED
		ewd:figtype CDATA #IMPLIED
		ewd:code CDATA #IMPLIED
		ewd:figID CDATA #IMPLIED
		ewd:pinNo CDATA #IMPLIED
		ewd:comment CDATA #IMPLIED >
	<!ATTLIST g
		ewd:lineID CDATA #IMPLIED
		ewd:groupID CDATA #IMPLIED
		ewd:figtype CDATA #IMPLIED
		ewd:code CDATA #IMPLIED
		ewd:figID CDATA #IMPLIED
		ewd:pinNo CDATA #IMPLIED
		ewd:comment CDATA #IMPLIED >
	<!ATTLIST text
		ewd:textID CDATA #IMPLIED
		ewd:horAlign CDATA #IMPLIED >
	<!ATTLIST title
		ewd:textID CDATA #IMPLIED >
]>
<!-- Generator: Shintec Hozumi YS   -->
<svg onload="call_execInitLoadProc_svg('system')" style="overflow:visible;  enable-background:new 0 0 504.788 710.000" viewBox="0 0 509.014 710.000" height="710.000" width="509.014" xml:space="preserve" ewd:ver="2.1.2.10" xmlns="&ns_svg;" xmlns:ewd="http://shcl.co.jp/ewd" xmlns:a="http://ns.adobe.com/AdobeSVGViewerExtensions/3.0/" xmlns:xlink="&ns_xlink;"><script type="text/javascript" xlink:href="../../../../../system/js/ewd/fig/svgfig.js" xmlns:xlink="http://www.w3.org/1999/xlink" />
<g id="ewd_top"><a ewd:figtype="rb" style="cursor:pointer;" ewd:code="FUSE40" ewd:figID="1"><path style="fill:#CCECF4;stroke:#000000; stroke-width:0; stroke-linecap:round;stroke-linejoin:round; " d=" M   225.21,    35.78  L   225.21,    78.27  L   250.71,    78.27  L   250.71,    35.78  L   225.21,    35.78 " /></a><a ewd:figtype="rb" style="cursor:pointer;" ewd:code="2" ewd:figID="2"><path style="fill:#CCECF4;stroke:#000000; stroke-width:0; stroke-linecap:round;stroke-linejoin:round; " d=" M   271.95,   324.73  L   229.46,   324.73  L   229.46,   358.73  L   271.95,   358.73  L   271.95,   324.73 " /></a><a ewd:figtype="conn" style="cursor:pointer;" ewd:code="G179" ewd:figID="3"><path style="&st5;" d=" M   373.94,   248.24  L   373.94,   375.72  L   484.42,   375.72  L   484.42,   248.24  L   373.94,   248.24 " /><title ewd:textID="7">Interruptor del calefactor del volante</title></a><a ewd:figtype="conn" style="cursor:pointer;" ewd:code="G98" ewd:figID="4"><path style="&st5;" d=" M    42.49,   494.70  L    59.49,   494.70  L    59.49,   511.70  L    42.49,   511.70  L    42.49,   494.70 " /><title ewd:textID="1">Conector de unión n.° 11</title></a><a ewd:figtype="conn" style="cursor:pointer;" ewd:code="G103" ewd:figID="5"><path style="&st5;" d=" M   390.93,   171.76  L   407.93,   171.76  L   407.93,   188.75  L   390.93,   188.75  L   390.93,   171.76 " /><title ewd:textID="2">Conector de unión n.° 16</title></a><a ewd:figtype="conn" style="cursor:pointer;" ewd:code="z5" ewd:figID="6"><path style="&st5;" d=" M    33.99,   188.75  L    33.99,   324.16  L   195.47,   324.16  L   195.47,   188.75  L    33.99,   188.75 " /><title ewd:textID="5">Subconjunto del cable espiral, interruptor del calefactor del volante</title></a><a ewd:figtype="conn" style="cursor:pointer;" ewd:code="G175,z5" ewd:figID="7"><path style="&st5;" d=" M    33.99,   333.23  L    33.99,   358.73  L   195.47,   358.73  L   195.47,   333.23  L    33.99,   333.23 " /><title ewd:textID="5">Subconjunto del cable espiral, interruptor del calefactor del volante</title></a><a ewd:figtype="jb" style="cursor:pointer;" ewd:code="3" ewd:figID="10"><path style="&st4; " d=" M    33.99,   622.18  L    59.49,   622.18  L    59.49,   571.19  L    33.99,   571.19  L    33.99,   622.18  " /></a><a ewd:figtype="jb" style="cursor:pointer;" ewd:code="3" ewd:figID="11"><path style="&st4; " d=" M   382.44,   112.27  L   450.42,   112.27  L   450.42,    35.78  L   382.44,    35.78  L   382.44,   112.27  " /></a><a ewd:figtype="fuse" style="cursor:pointer;" ewd:code="FUSE40" ewd:figID="17"><path style="&st7; stroke-width:0;" d=" M   225.21,    35.78  L   225.21,    78.27  L   250.71,    78.27  L   250.71,    35.78  L   225.21,    35.78 " /></a><a ewd:figtype="fuse" style="cursor:pointer;" ewd:code="FUSE67" ewd:figID="18"><path style="&st7; stroke-width:0;" d=" M   386.69,    35.78  L   386.69,    78.27  L   412.18,    78.27  L   412.18,    35.78  L   386.69,    35.78 " /></a><a style="cursor:pointer;" ewd:lineID="1"><path style="stroke:#000000;stroke-width: 5.10 ;&st6;" d=" M    50.99,   622.18  L    50.99,   681.67  " /><path style="stroke:#FFFFFF;stroke-width: 4.53 ;&st6;" d=" M    50.99,   622.18  L    50.99,   681.67  " /><path style="stroke:#000000;stroke-width: 1.13 ;&st6;" d=" M    50.99,   622.18  L    50.99,   681.67  " /></a><a style="cursor:pointer;" ewd:lineID="2"><path style="stroke:#000000;stroke-width: 5.10 ;&st6;" d=" M    50.99,   511.70  L    50.99,   571.19  " /><path style="stroke:#FFFFFF;stroke-width: 4.53 ;&st6;" d=" M    50.99,   511.70  L    50.99,   571.19  " /><path style="stroke:#000000;stroke-width: 1.13 ;&st6;" d=" M    50.99,   511.70  L    50.99,   571.19  " /></a><a style="cursor:pointer;" ewd:lineID="3"><path style="stroke:#000000;stroke-width: 5.10 ;&st6;" d=" M    50.99,   367.79  L    50.99,   494.70  " /><path style="stroke:#FFFFFF;stroke-width: 4.53 ;&st6;" d=" M    50.99,   367.79  L    50.99,   494.70  " /><path style="stroke:#000000;stroke-width: 1.13 ;&st6;" d=" M    50.99,   367.79  L    50.99,   494.70  " /></a><a style="cursor:pointer;" ewd:lineID="4"><path style="stroke:#FF0000;stroke-width: 5.10 ;&st6;" d=" M   169.97,   460.71  L   169.97,   477.71  L   237.96,   477.71  L   237.96,   384.22  " /></a><a style="cursor:pointer;" ewd:lineID="5"><path style="stroke:#FF0000;stroke-width: 5.10 ;&st6;" d=" M   169.97,   367.79  L   169.97,   445.98  " /></a><a style="cursor:pointer;" ewd:lineID="6"><path style="stroke:#000000;stroke-width: 5.10 ;&st6;" d=" M   237.96,   112.27  L   237.96,   299.24  " /></a><a style="cursor:pointer;" ewd:lineID="7"><path style="stroke:#000000;stroke-width: 5.10 ;&st6;" d=" M   263.46,   681.67  L   263.46,   554.19  " /><path style="stroke:#FFFFFF;stroke-width: 4.53 ;&st6;" d=" M   263.46,   681.67  L   263.46,   554.19  " /><path style="stroke:#000000;stroke-width: 1.13 ;&st6;" d=" M   263.46,   681.67  L   263.46,   554.19  " /></a><a style="cursor:pointer;" ewd:lineID="8"><path style="stroke:#000000;stroke-width: 5.10 ;&st6;" d=" M   263.46,   384.22  L   263.46,   537.20  " /><path style="stroke:#FFFFFF;stroke-width: 4.53 ;&st6;" d=" M   263.46,   384.22  L   263.46,   537.20  " /><path style="stroke:#000000;stroke-width: 1.13 ;&st6;" d=" M   263.46,   384.22  L   263.46,   537.20  " /></a><a style="cursor:pointer;" ewd:lineID="9"><path style="stroke:#000000;stroke-width: 5.10 ;&st6;" d=" M   263.46,   299.24  L   263.46,   265.24  L   331.44,   265.24  L   331.44,   486.20  L   399.43,   486.20  L   399.43,   460.71  " /></a><a style="cursor:pointer;" ewd:lineID="10"><path style="stroke:#000000;stroke-width: 5.10 ;&st6;" d=" M   399.43,   375.72  L   399.43,   445.98  " /></a><a style="cursor:pointer;" ewd:lineID="11"><path style="stroke:#FFE600;stroke-width: 5.10 ;&st6;" d=" M   399.43,   188.75  L   399.43,   248.24  " /></a><a style="cursor:pointer;" ewd:lineID="12"><path style="stroke:#FFE600;stroke-width: 5.10 ;&st6;" d=" M   399.43,   112.27  L   399.43,   171.76  " /></a><a style="cursor:pointer;" ewd:lineID="13"><path style="stroke:#000000;stroke-width: 5.10 ;&st6;" d=" M   450.42,   375.72  L   450.42,   503.20  L    59.49,   503.20  " /><path style="stroke:#FFFFFF;stroke-width: 4.53 ;&st6;" d=" M   450.42,   375.72  L   450.42,   503.20  L    59.49,   503.20  " /><path style="stroke:#000000;stroke-width: 1.13 ;&st6;" d=" M   450.42,   375.72  L   450.42,   503.20  L    59.49,   503.20  " /></a><a ewd:figtype="w2w" style="cursor:pointer;" ewd:pinNo="3" ewd:code="AG15" ewd:figID="12"><path style="&st2;" d=" M   178.47,   452.21  L   161.47,   452.21  L   161.47,   460.71  L   178.47,   460.71  L   178.47,   452.21 " /><text style="&st8;" transform="matrix(&st16;  162.82  458.58 )"><tspan x="0" style="&st18;" y="0">AG15</tspan></text></a><a ewd:figtype="w2w" style="cursor:pointer;" ewd:pinNo="2" ewd:code="AG15" ewd:figID="13"><path style="&st2;" d=" M   407.93,   452.21  L   390.93,   452.21  L   390.93,   460.71  L   407.93,   460.71  L   407.93,   452.21 " /><text style="&st8;" transform="matrix(&st16;  392.28  458.58 )"><tspan x="0" style="&st18;" y="0">AG15</tspan></text></a><a ewd:figtype="gp" style="cursor:pointer;" ewd:code="GA" ewd:figID="14"><path style="&st2;" d=" M    40.37,   681.67  L    61.61,   681.67  L    50.99,   697.25  L    40.37,   681.67 " /><text style="&st8;" transform="matrix(&st16;  46.85  689.46 )"><tspan x="0" style="&st18;" y="0">GA</tspan></text></a><a ewd:figtype="gp" style="cursor:pointer;" ewd:code="AC" ewd:figID="15"><path style="&st2;" d=" M   252.83,   681.67  L   274.08,   681.67  L   263.46,   697.25  L   252.83,   681.67 " /><text style="&st8;" transform="matrix(&st16;  259.35  689.46 )"><tspan x="0" style="&st18;" y="0">AC</tspan></text></a><a ewd:figtype="sp" style="cursor:pointer;" ewd:code="SP4" ewd:figID="16"><path style="&st2;" d=" M   259.21,   537.20  L   267.71,   537.20  L   271.95,   541.44  L   271.95,   549.94  L   267.71,   554.19  L   259.21,   554.19  L   254.96,   549.94  L   254.96,   541.44  L   259.21,   537.20 " /></a></g></svg>