﻿<?xml version="1.0" encoding="utf-8"?>
<!DOCTYPE svg PUBLIC "-//W3C//DTD SVG 1.0//EN" "http://www.w3.org/TR/2001/REC-SVG-20010904/DTD/svg10.dtd"[
	<!ENTITY ns_flows "http://ns.adobe.com/Flows/1.0/">
	<!ENTITY ns_svg "http://www.w3.org/2000/svg">
	<!ENTITY ns_xlink "http://www.w3.org/1999/xlink">
	<!ENTITY st0 "font-size:7px;font-family:'MS-PGothic';adobe-font-script:japanese;">
	<!ENTITY st1 "font-size:6px;font-family:'ArialMT';">
	<!-- White fill  -->
	<!ENTITY st2 "fill:#FFFFFF;stroke:#000000; stroke-width:1.41;stroke-linecap:round;stroke-linejoin:round;">
	<!-- Yellow fill  -->
	<!ENTITY st3 "fill:#FFFFCC;stroke:#FFFFCC; stroke-width:0.1;stroke-linecap:round;stroke-linejoin:round;">
	<!-- Gray fill  -->
	<!ENTITY st4 "fill:#CCCCCC;stroke:#CCCCCC; stroke-width:0.1;stroke-linecap:round;stroke-linejoin:round;">
	<!-- Light-blue fill -->
	<!ENTITY st5 "fill:#CCECF4;stroke:#000000; stroke-width:1.133;stroke-linecap:round;stroke-linejoin:round;">
	<!ENTITY st6 "fill:none;stroke-linecap:butt; stroke-linejoin:round;">
	<!ENTITY st7 "fill:none;stroke:#000000;stroke-linecap:round;stroke-linejoin:round;">
	<!ENTITY st8 "enable-background:new    ;">
	<!-- Black fill -->
	<!ENTITY st9 "fill:#000000;stroke:#000000; stroke-linecap:round;stroke-linejoin:round;">
	<!-- SRS note   -->
	<!ENTITY st10 "font-size:9px;font-family:'ArialMT';">
	<!ENTITY st11 "font-size:9px;font-family:'Svg Symbol';">
	<!ENTITY st12 "font-size:6px;font-family:'Svg Symbol';">
	<!ENTITY st13 "fill:none;stroke:#ff0000;stroke-linecap:round;stroke-linejoin:round;">
	<!-- Yellow fill  -->
	<!ENTITY st14 "fill:#FFFF00;stroke:#FFFF00; stroke-width:0.1;stroke-linecap:round;stroke-linejoin:round;">
	<!ENTITY st15 "font-size:6px;font-family:'MS-PGothic';adobe-font-script:japanese;">
	<!ENTITY st16 "1.00 0.00 0.00 1.00">
	<!ENTITY st17 "0.00 -1.00 1.00 0.00">
	<!ENTITY st18 "font-size:6px;font-family:'Arial';">
	<!ENTITY st19 "font-size:9px;font-family:'Arial';">
	<!ENTITY st20 "font-size:6px;font-family:'MS-PGothic','MS PGothic';adobe-font-script:japanese;">
	<!ENTITY st21 "font-size:7px;font-family:'MS-PGothic','MS PGothic';adobe-font-script:japanese;">
	<!ATTLIST svg
		xmlns:ewd CDATA #FIXED "http://shcl.co.jp/ewd"
		xmlns:a CDATA #FIXED "http://ns.adobe.com/AdobeSVGViewerExtensions/3.0/"
		ewd:ver CDATA #IMPLIED
	>
	<!ATTLIST a
		ewd:lineID CDATA #IMPLIED
		ewd:groupID CDATA #IMPLIED
		ewd:figtype CDATA #IMPLIED
		ewd:code CDATA #IMPLIED
		ewd:figID CDATA #IMPLIED
		ewd:pinNo CDATA #IMPLIED
		ewd:comment CDATA #IMPLIED >
	<!ATTLIST g
		ewd:lineID CDATA #IMPLIED
		ewd:groupID CDATA #IMPLIED
		ewd:figtype CDATA #IMPLIED
		ewd:code CDATA #IMPLIED
		ewd:figID CDATA #IMPLIED
		ewd:pinNo CDATA #IMPLIED
		ewd:comment CDATA #IMPLIED >
	<!ATTLIST text
		ewd:textID CDATA #IMPLIED
		ewd:horAlign CDATA #IMPLIED >
	<!ATTLIST title
		ewd:textID CDATA #IMPLIED >
]>
<!-- Generator: Shintec Hozumi YS   -->
<svg onload="call_execInitLoadProc_svg('system')" style="overflow:visible;  enable-background:new 0 0 11303.820 710.000" viewBox="0 0 11311.614 710.000" height="710.000" width="11311.614" xml:space="preserve" ewd:ver="2.1.2.10" xmlns="&ns_svg;" xmlns:ewd="http://shcl.co.jp/ewd" xmlns:a="http://ns.adobe.com/AdobeSVGViewerExtensions/3.0/" xmlns:xlink="&ns_xlink;">
<text style="&st18;" transform="matrix(&st16;  9822.17  525.0 )">Y</text><text style="&st18;" transform="matrix(&st16;  9821.39  542.0 )">W</text><text style="&st18;" transform="matrix(&st16;  9873.16  525.0 )">Y</text><text style="&st18;" transform="matrix(&st16;  9872.39  542.0 )">W</text><text style="&st18;" transform="matrix(&st16;  9873.24  558.99 )">R</text><text style="&st18;" transform="matrix(&st16;  9872.39  575.99 )">W</text><text style="&st18;" transform="matrix(&st16;  9822.25  558.99 )">R</text><text style="&st18;" transform="matrix(&st16;  9821.39  575.99 )">W</text><text style="&st18;" transform="matrix(&st16;  9872.39  626.98 )">W</text><text style="&st18;" transform="matrix(&st16;  9872.89  643.98 )">G</text><text style="&st18;" transform="matrix(&st16;  9873.16  660.98 )">B</text><text style="&st18;" transform="matrix(&st16;  9821.39  626.98 )">W</text><text style="&st18;" transform="matrix(&st16;  9821.9  643.98 )">G</text><text style="&st18;" transform="matrix(&st16;  9822.17  660.98 )">B</text><text style="&st18;" transform="matrix(&st16;  9873.16  677.97 )">B</text><text style="&st18;" transform="matrix(&st16;  9822.17  677.97 )">B</text><text style="&st18;" transform="matrix(&st17;  9628.03  358.08 )">(RHD)</text><text style="&st18;" transform="matrix(&st17;  9616.7  354.01 )">LG</text><text style="&st18;" transform="matrix(&st17;  9574.2  352.69 )">W</text><path style="stroke-width: 1.42 ;&st7;  " d=" M  9535.41,   358.73  L  9526.91,   358.73  " /><text style="&st18;" transform="matrix(&st17;  9803.67  233.71 )">W</text><text style="&st18;" transform="matrix(&st17;  9803.67  352.69 )">W</text><text style="&st18;" transform="matrix(&st17;  9761.17  352.19 )">G</text><text style="&st18;" transform="matrix(&st17;  9772.51  239.1 )">(RHD)</text><text style="&st18;" transform="matrix(&st17;  9585.54  358.08 )">(RHD)</text><text style="&st18;" transform="matrix(&st17;  9687.52  358.04 )">(LHD)</text><text style="&st18;" transform="matrix(&st17;  9676.19  354.01 )">LG</text><text style="&st18;" transform="matrix(&st17;  9718.68  352.69 )">W</text><text style="&st18;" transform="matrix(&st17;  9730.01  358.04 )">(LHD)</text><text style="&st18;" transform="matrix(&st17;  9815.0  239.1 )">(RHD)</text><text style="&st18;" transform="matrix(&st17;  9534.54  239.06 )">(LHD)</text><path style="stroke-width: 1.42 ;&st7;  " d=" M  9518.41,   146.26  L  9526.91,   146.26  " /><text style="&st18;" transform="matrix(&st17;  9523.21  234.8 )">BE</text><text style="&st18;" transform="matrix(&st17;  9523.21  106.23 )">W</text><text style="&st18;" transform="matrix(&st17;  9761.17  235.03 )">LG</text><text style="&st18;" transform="matrix(&st17;  9523.21  334.92 )">Y</text><text style="&st18;" transform="matrix(&st17;  9523.21  402.91 )">Y</text><text style="&st18;" transform="matrix(&st17;  9574.2  233.71 )">W</text><text style="&st18;" transform="matrix(&st17;  9616.7  233.05 )">V</text><g ewd:figtype="conn" ewd:figID="37" ewd:code="G172,G189"><path style="stroke-width: 0.85 ;&st7; stroke-dasharray:3, 1.5;" d=" M  9773.36,   312.83  L  9790.36,   312.83  " /><path style="stroke-width: 0.85 ;&st7; stroke-dasharray:3, 1.5;" d=" M  9773.36,   303.77  L  9790.36,   303.77  " /><path style="stroke-width: 0.85 ;&st7; stroke-dasharray:3, 1.5;" d=" M  9688.38,   260.14  L  9705.37,   260.14  " /><path style="stroke-width: 0.85 ;&st7; stroke-dasharray:3, 1.5;" d=" M  9688.38,   269.21  L  9705.37,   269.21  " /><path style="stroke-width: 1.42 ;&st7;  " d=" M  9671.38,   273.74  L  9671.38,   299.24  L  9815.86,   299.24  L  9815.86,   273.74  L  9671.38,   273.74  " /><path style="stroke-width: 0.85 ;&st7;  " d=" M  9678.69,   281.24  L  9678.41,   281.71  L  9678.32,   282.24  L  9678.41,   282.77  L  9678.69,   283.24  L  9679.10,   283.59  L  9679.61,   283.77  L  9680.15,   283.77  L  9680.66,   283.59  L  9681.07,   283.24  L  9681.34,   282.77  L  9681.44,   282.24  L  9681.34,   281.71  L  9681.07,   281.24  L  9680.66,   280.89  L  9680.15,   280.70  L  9679.61,   280.70  L  9679.10,   280.89  L  9678.69,   281.24  L  9679.08,   281.95  L  9679.08,   282.53  L  9679.45,   282.97  L  9680.03,   283.07  L  9680.53,   282.79  L  9680.73,   282.24  L  9680.53,   281.69  L  9680.03,   281.40  L  9679.45,   281.50  L  9679.88,   282.24  " /><path style="stroke-width: 0.85 ;&st7;  " d=" M  9763.67,   281.24  L  9763.40,   281.71  L  9763.31,   282.24  L  9763.40,   282.77  L  9763.67,   283.24  L  9764.09,   283.59  L  9764.60,   283.77  L  9765.13,   283.77  L  9765.64,   283.59  L  9766.06,   283.24  L  9766.33,   282.77  L  9766.42,   282.24  L  9766.33,   281.71  L  9766.06,   281.24  L  9765.64,   280.89  L  9765.13,   280.70  L  9764.60,   280.70  L  9764.09,   280.89  L  9763.67,   281.24  L  9764.07,   281.95  L  9764.07,   282.53  L  9764.44,   282.97  L  9765.01,   283.07  L  9765.52,   282.79  L  9765.71,   282.24  L  9765.52,   281.69  L  9765.01,   281.40  L  9764.44,   281.50  L  9764.86,   282.24  " /><path style="stroke-width: 0.85 ;&st7;  " d=" M  9806.16,   289.73  L  9805.89,   290.20  L  9805.80,   290.74  L  9805.89,   291.27  L  9806.16,   291.74  L  9806.58,   292.09  L  9807.09,   292.27  L  9807.63,   292.27  L  9808.14,   292.09  L  9808.55,   291.74  L  9808.82,   291.27  L  9808.92,   290.74  L  9808.82,   290.20  L  9808.55,   289.73  L  9808.14,   289.39  L  9807.63,   289.20  L  9807.09,   289.20  L  9806.58,   289.39  L  9806.16,   289.73  L  9806.56,   290.45  L  9806.56,   291.03  L  9806.93,   291.47  L  9807.50,   291.57  L  9808.01,   291.28  L  9808.21,   290.74  L  9808.01,   290.19  L  9807.50,   289.90  L  9806.93,   290.00  L  9807.36,   290.74  " /><path style="stroke-width: 0.85 ;&st7;  " d=" M  9721.18,   289.73  L  9720.91,   290.20  L  9720.81,   290.74  L  9720.91,   291.27  L  9721.18,   291.74  L  9721.59,   292.09  L  9722.10,   292.27  L  9722.64,   292.27  L  9723.15,   292.09  L  9723.56,   291.74  L  9723.84,   291.27  L  9723.93,   290.74  L  9723.84,   290.20  L  9723.56,   289.73  L  9723.15,   289.39  L  9722.64,   289.20  L  9722.10,   289.20  L  9721.59,   289.39  L  9721.18,   289.73  L  9721.57,   290.45  L  9721.57,   291.03  L  9721.95,   291.47  L  9722.52,   291.57  L  9723.02,   291.28  L  9723.22,   290.74  L  9723.02,   290.19  L  9722.52,   289.90  L  9721.95,   290.00  L  9722.37,   290.74  " /><path style="stroke-width: 0.85 ;&st7;  " d=" M  9679.88,   282.24  L  9764.86,   282.24  " /><path style="stroke-width: 0.85 ;&st7;  " d=" M  9722.37,   290.74  L  9807.36,   290.74  " /><path style="stroke-width: 0.85 ;&st7;  " d=" M  9679.88,   273.74  L  9679.88,   299.24  " /><path style="stroke-width: 0.85 ;&st7;  " d=" M  9722.37,   273.74  L  9722.37,   299.24  " /><path style="stroke-width: 0.85 ;&st7;  " d=" M  9764.86,   282.24  L  9764.86,   299.24  " /><path style="stroke-width: 0.85 ;&st7;  " d=" M  9807.36,   290.74  L  9807.36,   299.24  " /><path style="stroke-width: 0.85 ;&st7;  " d=" M  9764.86,   273.74  L  9764.86,   282.24  " /><path style="stroke-width: 0.85 ;&st7;  " d=" M  9807.36,   273.74  L  9807.36,   290.74  " /><text style="&st18;" transform="matrix(&st16;  9671.19  305.74 )">4</text><path style="stroke-width: 1.42 ;&st7;   " d=" M  9684.42,   303.77  C  9684.42    301.26   9682.39    299.24   9679.88    299.24  " /><path style="stroke-width: 1.42 ;&st7;   " d=" M  9679.88,   299.24  C  9677.38    299.24   9675.35    301.26   9675.35    303.77  " /><path style="stroke-width: 1.42 ;&st7;   " d=" M  9675.35,   303.77  C  9675.35    306.27   9677.38    308.30   9679.88    308.30  " /><path style="stroke-width: 1.42 ;&st7;   " d=" M  9679.88,   308.30  C  9682.39    308.30   9684.42    306.27   9684.42    303.77  " /><text style="&st18;" transform="matrix(&st16;  9677.58  305.74 )">A</text><text style="&st18;" transform="matrix(&st16;  9710.58  305.74 )">14</text><path style="stroke-width: 1.42 ;&st7;   " d=" M  9726.91,   303.77  C  9726.91    301.26   9724.88    299.24   9722.38    299.24  " /><path style="stroke-width: 1.42 ;&st7;   " d=" M  9722.38,   299.24  C  9719.87    299.24   9717.84    301.26   9717.84    303.77  " /><path style="stroke-width: 1.42 ;&st7;   " d=" M  9717.84,   303.77  C  9717.84    306.27   9719.87    308.30   9722.38    308.30  " /><path style="stroke-width: 1.42 ;&st7;   " d=" M  9722.38,   308.30  C  9724.88    308.30   9726.91    306.27   9726.91    303.77  " /><text style="&st18;" transform="matrix(&st16;  9720.07  305.74 )">A</text><text style="&st18;" transform="matrix(&st16;  9795.57  271.18 )">13</text><path style="stroke-width: 1.42 ;&st7;   " d=" M  9811.89,   269.21  C  9811.89    266.70   9809.86    264.67   9807.36    264.67  " /><path style="stroke-width: 1.42 ;&st7;   " d=" M  9807.36,   264.67  C  9804.86    264.67   9802.83    266.70   9802.83    269.21  " /><path style="stroke-width: 1.42 ;&st7;   " d=" M  9802.83,   269.21  C  9802.83    271.71   9804.86    273.74   9807.36    273.74  " /><path style="stroke-width: 1.42 ;&st7;   " d=" M  9807.36,   273.74  C  9809.86    273.74   9811.89    271.71   9811.89    269.21  " /><text style="&st18;" transform="matrix(&st16;  9805.17  271.18 )">B</text><text style="&st18;" transform="matrix(&st16;  9756.17  271.18 )">2</text><text style="&st18;" transform="matrix(&st16;  9762.68  271.18 )">B</text><path style="stroke-width: 1.42 ;&st7;   " d=" M  9769.40,   269.21  C  9769.40    266.70   9767.37    264.67   9764.87    264.67  " /><path style="stroke-width: 1.42 ;&st7;   " d=" M  9764.87,   264.67  C  9762.37    264.67   9760.34    266.70   9760.34    269.21  " /><path style="stroke-width: 1.42 ;&st7;   " d=" M  9760.34,   269.21  C  9760.34    271.71   9762.37    273.74   9764.87    273.74  " /><path style="stroke-width: 1.42 ;&st7;   " d=" M  9764.87,   273.74  C  9767.37    273.74   9769.40    271.71   9769.40    269.21  " /><text style="&st18;" transform="matrix(&st16;  9710.58  271.18 )">19</text><text style="&st18;" transform="matrix(&st16;  9710.58  262.11 )">18</text><text style="&st18;" transform="matrix(&st16;  9720.07  262.11 )">A</text><path style="stroke-width: 1.42 ;&st7;   " d=" M  9726.91,   269.21  C  9726.91    266.70   9724.88    264.67   9722.38    264.67  " /><path style="stroke-width: 1.42 ;&st7;   " d=" M  9722.38,   264.67  C  9719.87    264.67   9717.84    266.70   9717.84    269.21  " /><path style="stroke-width: 1.42 ;&st7;   " d=" M  9717.84,   269.21  C  9717.84    271.71   9719.87    273.74   9722.38    273.74  " /><path style="stroke-width: 1.42 ;&st7;   " d=" M  9722.38,   273.74  C  9724.88    273.74   9726.91    271.71   9726.91    269.21  " /><path style="stroke-width: 1.42 ;&st7;   " d=" M  9726.91,   260.14  C  9726.91    257.64   9724.88    255.61   9722.38    255.61  " /><path style="stroke-width: 1.42 ;&st7;   " d=" M  9722.38,   255.61  C  9719.87    255.61   9717.84    257.64   9717.84    260.14  " /><path style="stroke-width: 1.42 ;&st7;   " d=" M  9717.84,   260.14  C  9717.84    262.65   9719.87    264.67   9722.38    264.67  " /><path style="stroke-width: 1.42 ;&st7;   " d=" M  9722.38,   264.67  C  9724.88    264.67   9726.91    262.65   9726.91    260.14  " /><text style="&st18;" transform="matrix(&st16;  9720.19  271.18 )">B</text><text style="&st18;" transform="matrix(&st16;  9671.19  271.18 )">8</text><text style="&st18;" transform="matrix(&st16;  9671.19  262.11 )">8</text><text style="&st18;" transform="matrix(&st16;  9677.58  262.11 )">A</text><path style="stroke-width: 1.42 ;&st7;   " d=" M  9684.42,   260.14  C  9684.42    257.64   9682.39    255.61   9679.88    255.61  " /><path style="stroke-width: 1.42 ;&st7;   " d=" M  9679.88,   255.61  C  9677.38    255.61   9675.35    257.64   9675.35    260.14  " /><path style="stroke-width: 1.42 ;&st7;   " d=" M  9675.35,   260.14  C  9675.35    262.65   9677.38    264.67   9679.88    264.67  " /><path style="stroke-width: 1.42 ;&st7;   " d=" M  9679.88,   264.67  C  9682.39    264.67   9684.42    262.65   9684.42    260.14  " /><text style="&st18;" transform="matrix(&st16;  9677.69  271.18 )">B</text><path style="stroke-width: 1.42 ;&st7;   " d=" M  9684.42,   269.21  C  9684.42    266.70   9682.39    264.67   9679.88    264.67  " /><path style="stroke-width: 1.42 ;&st7;   " d=" M  9679.88,   264.67  C  9677.38    264.67   9675.35    266.70   9675.35    269.21  " /><path style="stroke-width: 1.42 ;&st7;   " d=" M  9675.35,   269.21  C  9675.35    271.71   9677.38    273.74   9679.88    273.74  " /><path style="stroke-width: 1.42 ;&st7;   " d=" M  9679.88,   273.74  C  9682.39    273.74   9684.42    271.71   9684.42    269.21  " /><text style="&st18;" transform="matrix(&st16;  9756.17  314.8 )">1</text><text style="&st18;" transform="matrix(&st16;  9756.17  305.74 )">1</text><path style="stroke-width: 1.42 ;&st7;   " d=" M  9769.40,   312.83  C  9769.40    310.33   9767.37    308.30   9764.87    308.30  " /><path style="stroke-width: 1.42 ;&st7;   " d=" M  9764.87,   308.30  C  9762.37    308.30   9760.34    310.33   9760.34    312.83  " /><path style="stroke-width: 1.42 ;&st7;   " d=" M  9760.34,   312.83  C  9760.34    315.34   9762.37    317.37   9764.87    317.37  " /><path style="stroke-width: 1.42 ;&st7;   " d=" M  9764.87,   317.37  C  9767.37    317.37   9769.40    315.34   9769.40    312.83  " /><text style="&st18;" transform="matrix(&st16;  9762.68  314.8 )">B</text><path style="stroke-width: 1.42 ;&st7;   " d=" M  9769.40,   303.77  C  9769.40    301.26   9767.37    299.24   9764.87    299.24  " /><path style="stroke-width: 1.42 ;&st7;   " d=" M  9764.87,   299.24  C  9762.37    299.24   9760.34    301.26   9760.34    303.77  " /><path style="stroke-width: 1.42 ;&st7;   " d=" M  9760.34,   303.77  C  9760.34    306.27   9762.37    308.30   9764.87    308.30  " /><path style="stroke-width: 1.42 ;&st7;   " d=" M  9764.87,   308.30  C  9767.37    308.30   9769.40    306.27   9769.40    303.77  " /><text style="&st18;" transform="matrix(&st16;  9762.56  305.74 )">A</text><text style="&st18;" transform="matrix(&st16;  9795.57  314.8 )">12</text><text style="&st18;" transform="matrix(&st16;  9795.57  305.74 )">11</text><path style="stroke-width: 1.42 ;&st7;   " d=" M  9811.89,   312.83  C  9811.89    310.33   9809.86    308.30   9807.36    308.30  " /><path style="stroke-width: 1.42 ;&st7;   " d=" M  9807.36,   308.30  C  9804.86    308.30   9802.83    310.33   9802.83    312.83  " /><path style="stroke-width: 1.42 ;&st7;   " d=" M  9802.83,   312.83  C  9802.83    315.34   9804.86    317.37   9807.36    317.37  " /><path style="stroke-width: 1.42 ;&st7;   " d=" M  9807.36,   317.37  C  9809.86    317.37   9811.89    315.34   9811.89    312.83  " /><text style="&st18;" transform="matrix(&st16;  9805.17  314.8 )">B</text><text style="&st18;" transform="matrix(&st16;  9805.06  305.74 )">A</text><path style="stroke-width: 1.42 ;&st7;   " d=" M  9811.89,   303.77  C  9811.89    301.26   9809.86    299.24   9807.36    299.24  " /><path style="stroke-width: 1.42 ;&st7;   " d=" M  9807.36,   299.24  C  9804.86    299.24   9802.83    301.26   9802.83    303.77  " /><path style="stroke-width: 1.42 ;&st7;   " d=" M  9802.83,   303.77  C  9802.83    306.27   9804.86    308.30   9807.36    308.30  " /><path style="stroke-width: 1.42 ;&st7;   " d=" M  9807.36,   308.30  C  9809.86    308.30   9811.89    306.27   9811.89    303.77  " /><g ewd:figtype="title"><text style="&st18;" transform="matrix(&st17; 9661.24 302.14)" ewd:textID="40">Conector de unión<tspan x="0 " dy="6.0">de CAN n.° 7</tspan></text><text style="&st18;" transform="matrix(&st17; 9654.42 302.13)">G172(A),G189(B)</text></g><g ewd:code="" ewd:figID="240" ewd:comment="" ewd:figtype="commref"><text style="&st18;" transform="matrix(&st16;  9727.47  271.18 )">(RHD)</text></g><g ewd:code="" ewd:figID="283" ewd:comment="" ewd:figtype="commref"><text style="&st18;" transform="matrix(&st16;  9812.45  314.8 )">(RHD)</text></g><g ewd:code="" ewd:figID="284" ewd:comment="" ewd:figtype="commref"><text style="&st18;" transform="matrix(&st16;  9812.45  305.74 )">(LHD)</text></g><g ewd:code="" ewd:figID="285" ewd:comment="" ewd:figtype="commref"><text style="&st18;" transform="matrix(&st16;  9727.47  262.11 )">(LHD)</text></g></g><g ewd:figtype="conn" ewd:figID="43" ewd:code="A62,B75"><path style="stroke-width: 1.42 ;&st7;  " d=" M  9994.33,   265.24  L 10818.69,   265.24  L 10818.69,   316.23  L  9994.33,   316.23  L  9994.33,   265.24  " /><g ewd:lineID="262"><text style="&st18;" transform="matrix(&st16;  9999.53  322.73 )">13</text></g><g ewd:figtype="title"><text style="&st18;" transform="matrix(&st16;  9990.92  261.54 )">ECM</text><text style="&st18;" transform="matrix(&st16;  9990.92  254.44 )">A62(A),B75(B)</text></g></g><g ewd:figtype="conn" ewd:figID="57" ewd:code="h1"><g ewd:lineID="266"><text style="&st18;" transform="matrix(&st16;  9518.21  76.28 )">4</text><path style="stroke-width: 1.42 ;&st7;   " d=" M  9531.44,    74.31  C  9531.44     71.80   9529.41     69.77   9526.91     69.77  " /><path style="stroke-width: 1.42 ;&st7;   " d=" M  9526.91,    69.77  C  9524.40     69.77   9522.38     71.80   9522.38     74.31  " /><path style="stroke-width: 1.42 ;&st7;   " d=" M  9522.38,    74.31  C  9522.38     76.81   9524.40     78.84   9526.91     78.84  " /><path style="stroke-width: 1.42 ;&st7;   " d=" M  9526.91,    78.84  C  9529.41     78.84   9531.44     76.81   9531.44     74.31  " /><text style="&st18;" transform="matrix(&st16;  9524.6  76.28 )">A</text><text style="&st18;" transform="matrix(&st16;  9518.13  66.08 )">CANH</text></g></g><g ewd:figtype="w2w" ewd:figID="154" ewd:code="AG5"><path style="stroke-width: 1.42 ;&st7;  " d=" M  9531.15,   353.06  L  9526.90,   357.31  L  9522.65,   353.06  " /><path style="stroke-width: 1.42 ;&st7;  " d=" M  9531.15,   349.66  L  9526.90,   353.91  L  9522.65,   349.66  " /><text style="&st18;" transform="matrix(&st16;  9514.28  364.94 )">5</text></g><g ewd:figtype="w2w" ewd:figID="155" ewd:code="hG1"><path style="stroke-width: 1.42 ;&st7;  " d=" M  9522.65,   155.33  L  9526.90,   151.08  L  9531.15,   155.33  " /><path style="stroke-width: 1.42 ;&st7;  " d=" M  9531.15,   151.93  L  9526.90,   147.68  L  9522.65,   151.93  " /><text style="&st18;" transform="matrix(&st16;  9514.28  143.98 )">1</text></g></svg>