﻿<?xml version="1.0" encoding="utf-8"?>
<!DOCTYPE svg PUBLIC "-//W3C//DTD SVG 1.0//EN" "http://www.w3.org/TR/2001/REC-SVG-20010904/DTD/svg10.dtd"[
	<!ENTITY ns_flows "http://ns.adobe.com/Flows/1.0/">
	<!ENTITY ns_svg "http://www.w3.org/2000/svg">
	<!ENTITY ns_xlink "http://www.w3.org/1999/xlink">
	<!ENTITY st0 "font-size:7px;font-family:'MS-PGothic';adobe-font-script:japanese;">
	<!ENTITY st1 "font-size:6px;font-family:'ArialMT';">
	<!-- White fill  -->
	<!ENTITY st2 "fill:#FFFFFF;stroke:#000000; stroke-width:1.41;stroke-linecap:round;stroke-linejoin:round;">
	<!-- Yellow fill  -->
	<!ENTITY st3 "fill:#FFFFCC;stroke:#FFFFCC; stroke-width:0.1;stroke-linecap:round;stroke-linejoin:round;">
	<!-- Gray fill  -->
	<!ENTITY st4 "fill:#CCCCCC;stroke:#CCCCCC; stroke-width:0.1;stroke-linecap:round;stroke-linejoin:round;">
	<!-- Light-blue fill -->
	<!ENTITY st5 "fill:#CCECF4;stroke:#000000; stroke-width:1.133;stroke-linecap:round;stroke-linejoin:round;">
	<!ENTITY st6 "fill:none;stroke-linecap:butt; stroke-linejoin:round;">
	<!ENTITY st7 "fill:none;stroke:#000000;stroke-linecap:round;stroke-linejoin:round;">
	<!ENTITY st8 "enable-background:new    ;">
	<!-- Black fill -->
	<!ENTITY st9 "fill:#000000;stroke:#000000; stroke-linecap:round;stroke-linejoin:round;">
	<!-- SRS note   -->
	<!ENTITY st10 "font-size:9px;font-family:'ArialMT';">
	<!ENTITY st11 "font-size:9px;font-family:'Svg Symbol';">
	<!ENTITY st12 "font-size:6px;font-family:'Svg Symbol';">
	<!ENTITY st13 "fill:none;stroke:#ff0000;stroke-linecap:round;stroke-linejoin:round;">
	<!-- Yellow fill  -->
	<!ENTITY st14 "fill:#FFFF00;stroke:#FFFF00; stroke-width:0.1;stroke-linecap:round;stroke-linejoin:round;">
	<!ENTITY st15 "font-size:6px;font-family:'MS-PGothic';adobe-font-script:japanese;">
	<!ENTITY st16 "1.00 0.00 0.00 1.00">
	<!ENTITY st17 "0.00 -1.00 1.00 0.00">
	<!ENTITY st18 "font-size:6px;font-family:'Arial';">
	<!ENTITY st19 "font-size:9px;font-family:'Arial';">
	<!ENTITY st20 "font-size:6px;font-family:'MS-PGothic','MS PGothic';adobe-font-script:japanese;">
	<!ENTITY st21 "font-size:7px;font-family:'MS-PGothic','MS PGothic';adobe-font-script:japanese;">
	<!ATTLIST svg
		xmlns:ewd CDATA #FIXED "http://shcl.co.jp/ewd"
		xmlns:a CDATA #FIXED "http://ns.adobe.com/AdobeSVGViewerExtensions/3.0/"
		ewd:ver CDATA #IMPLIED
	>
	<!ATTLIST a
		ewd:lineID CDATA #IMPLIED
		ewd:groupID CDATA #IMPLIED
		ewd:figtype CDATA #IMPLIED
		ewd:code CDATA #IMPLIED
		ewd:figID CDATA #IMPLIED
		ewd:pinNo CDATA #IMPLIED
		ewd:comment CDATA #IMPLIED >
	<!ATTLIST g
		ewd:lineID CDATA #IMPLIED
		ewd:groupID CDATA #IMPLIED
		ewd:figtype CDATA #IMPLIED
		ewd:code CDATA #IMPLIED
		ewd:figID CDATA #IMPLIED
		ewd:pinNo CDATA #IMPLIED
		ewd:comment CDATA #IMPLIED >
	<!ATTLIST text
		ewd:textID CDATA #IMPLIED
		ewd:horAlign CDATA #IMPLIED >
	<!ATTLIST title
		ewd:textID CDATA #IMPLIED >
]>
<!-- Generator: Shintec Hozumi YS   -->
<svg onload="call_execInitLoadProc_svg('system')" style="overflow:visible;  enable-background:new 0 0 11303.820 710.000" viewBox="0 0 11311.614 710.000" height="710.000" width="11311.614" xml:space="preserve" ewd:ver="2.1.2.10" xmlns="&ns_svg;" xmlns:ewd="http://shcl.co.jp/ewd" xmlns:a="http://ns.adobe.com/AdobeSVGViewerExtensions/3.0/" xmlns:xlink="&ns_xlink;">
<text style="&st18;" transform="matrix(&st16;  10390.8  626.98 )">W</text><text style="&st18;" transform="matrix(&st16;  10391.3  643.98 )">G</text><text style="&st18;" transform="matrix(&st16;  10391.58  660.98 )">B</text><text style="&st18;" transform="matrix(&st16;  10339.81  626.98 )">W</text><text style="&st18;" transform="matrix(&st16;  10340.31  643.98 )">G</text><text style="&st18;" transform="matrix(&st16;  10340.58  660.98 )">B</text><text style="&st18;" transform="matrix(&st16;  10415.85  254.44 )">A62(A),B75(B)</text><text style="&st18;" transform="matrix(&st17;  10143.61  360.41 )">B</text><text style="&st18;" transform="matrix(&st17;  10296.58  566.24 )">BR</text><text style="&st18;" transform="matrix(&st17;  10194.6  361.19 )">W</text><text style="&st18;" transform="matrix(&st17;  10228.59  360.41 )">B</text><text style="&st18;" transform="matrix(&st17;  10483.55  455.76 )">BR</text><text style="&st18;" transform="matrix(&st17;  10483.55  543.15 )">W-B</text><text style="&st18;" transform="matrix(&st16;  10415.85  261.54 )">ECM</text><text style="&st18;" transform="matrix(&st17;  10041.63  361.19 )">W</text><text style="&st18;" transform="matrix(&st17;  10109.61  361.19 )">W</text><text style="&st18;" transform="matrix(&st17;  10075.62  360.34 )">R</text><text style="&st18;" transform="matrix(&st17;  10007.63  360.41 )">Y</text><text style="&st18;" transform="matrix(&st17;  10296.58  430.26 )">BR</text><path style="stroke-width: 1.42 ;&st7;  " d=" M 10308.78,   491.18  L 10303.81,   486.20  " /><path style="stroke-width: 1.42 ;&st7;  " d=" M 10308.78,   338.20  L 10303.81,   333.23  " /><path style="stroke-width: 1.42 ;&st7;  " d=" M 10291.78,   345.26  L 10296.75,   350.23  " /><path style="stroke-width: 1.42 ;&st7;  " d=" M 10303.81,   350.23  L 10308.78,   345.26  " /><path style="stroke-width: 1.42 ;&st7;  " d=" M 10296.75,   333.23  L 10291.78,   338.20  " /><path style="stroke-width: 1.42 ;&st7;  " d=" M 10296.75,   486.20  L 10291.78,   491.18  " /><path style="stroke-width: 1.42 ;&st7;  " d=" M 10303.81,   503.20  L 10308.78,   498.23  " /><path style="stroke-width: 1.42 ;&st7;  " d=" M 10291.78,   498.23  L 10296.75,   503.20  " /><text style="&st18;" transform="matrix(&st17;  10483.55  619.64 )">W-B</text><g ewd:figtype="conn" ewd:figID="32" ewd:code="G104"><path style="stroke-width: 1.42 ;&st7;  " d=" M 10478.74,   486.20  L 10495.74,   486.20  L 10495.74,   503.20  L 10478.74,   503.20  L 10478.74,   486.20  " /><path style="stroke-width: 0.85 ;&st7;  " d=" M 10487.24,   486.20  L 10487.24,   503.20  " /><text style="&st18;" transform="matrix(&st16;  10477.96  511.39 )">21</text><text style="&st18;" transform="matrix(&st16;  10477.96  482.51 )">12</text><g ewd:figtype="title"><text style="&st18;" transform="matrix(&st17;  10503.64  506.1 )">G104</text><text style="&st18;" transform="matrix(&st17;  10510.46  506.11 )" ewd:textID="42">Conector de<tspan x="0 " dy="6.0">unión n.° 17</tspan></text></g></g><g ewd:figtype="conn" ewd:figID="43" ewd:code="A62,B75"><g ewd:lineID="109"><text style="&st18;" transform="matrix(&st16;  10135.51  322.73 )">60</text><text style="&st18;" transform="matrix(&st16;  10145.0  322.73 )">A</text><path style="stroke-width: 1.42 ;&st7;   " d=" M 10151.84,   320.77  C 10151.84    318.26  10149.81    316.23  10147.30    316.23  " /><path style="stroke-width: 1.42 ;&st7;   " d=" M 10147.30,   316.23  C 10144.80    316.23  10142.77    318.26  10142.77    320.77  " /><path style="stroke-width: 1.42 ;&st7;   " d=" M 10142.77,   320.77  C 10142.77    323.27  10144.80    325.30  10147.30    325.30  " /><path style="stroke-width: 1.42 ;&st7;   " d=" M 10147.30,   325.30  C 10149.81    325.30  10151.84    323.27  10151.84    320.77  " /><text style="&st18;" transform="matrix(&st16;  10140.93  312.54 )">G2O</text></g><g ewd:lineID="242"><text style="&st18;" transform="matrix(&st16;  10101.51  322.73 )">25</text><path style="stroke-width: 1.42 ;&st7;   " d=" M 10117.84,   320.77  C 10117.84    318.26  10115.81    316.23  10113.31    316.23  " /><path style="stroke-width: 1.42 ;&st7;   " d=" M 10113.31,   316.23  C 10110.81    316.23  10108.78    318.26  10108.78    320.77  " /><path style="stroke-width: 1.42 ;&st7;   " d=" M 10108.78,   320.77  C 10108.78    323.27  10110.81    325.30  10113.31    325.30  " /><path style="stroke-width: 1.42 ;&st7;   " d=" M 10113.31,   325.30  C 10115.81    325.30  10117.84    323.27  10117.84    320.77  " /><text style="&st18;" transform="matrix(&st16;  10111.01  322.73 )">A</text><text style="&st18;" transform="matrix(&st16;  10104.72  312.54 )">CANN</text></g><g ewd:lineID="245"><text style="&st18;" transform="matrix(&st16;  10067.52  322.73 )">12</text><path style="stroke-width: 1.42 ;&st7;   " d=" M 10083.85,   320.77  C 10083.85    318.26  10081.82    316.23  10079.32    316.23  " /><path style="stroke-width: 1.42 ;&st7;   " d=" M 10079.32,   316.23  C 10076.81    316.23  10074.78    318.26  10074.78    320.77  " /><path style="stroke-width: 1.42 ;&st7;   " d=" M 10074.78,   320.77  C 10074.78    323.27  10076.81    325.30  10079.32    325.30  " /><path style="stroke-width: 1.42 ;&st7;   " d=" M 10079.32,   325.30  C 10081.82    325.30  10083.85    323.27  10083.85    320.77  " /><text style="&st18;" transform="matrix(&st16;  10077.01  322.73 )">A</text><text style="&st18;" transform="matrix(&st16;  10071.04  312.54 )">CANP</text></g><g ewd:lineID="257"><text style="&st18;" transform="matrix(&st16;  10033.53  322.73 )">26</text><text style="&st18;" transform="matrix(&st16;  10043.02  322.73 )">A</text><path style="stroke-width: 1.42 ;&st7;   " d=" M 10049.85,   320.77  C 10049.85    318.26  10047.82    316.23  10045.32    316.23  " /><path style="stroke-width: 1.42 ;&st7;   " d=" M 10045.32,   316.23  C 10042.82    316.23  10040.79    318.26  10040.79    320.77  " /><path style="stroke-width: 1.42 ;&st7;   " d=" M 10040.79,   320.77  C 10040.79    323.27  10042.82    325.30  10045.32    325.30  " /><path style="stroke-width: 1.42 ;&st7;   " d=" M 10045.32,   325.30  C 10047.82    325.30  10049.85    323.27  10049.85    320.77  " /><text style="&st18;" transform="matrix(&st16;  10036.97  312.54 )">CANL</text></g><g ewd:lineID="262"><path style="stroke-width: 1.42 ;&st7;   " d=" M 10015.86,   320.77  C 10015.86    318.26  10013.83    316.23  10011.33    316.23  " /><path style="stroke-width: 1.42 ;&st7;   " d=" M 10011.33,   316.23  C 10008.82    316.23  10006.79    318.26  10006.79    320.77  " /><path style="stroke-width: 1.42 ;&st7;   " d=" M 10006.79,   320.77  C 10006.79    323.27  10008.82    325.30  10011.33    325.30  " /><path style="stroke-width: 1.42 ;&st7;   " d=" M 10011.33,   325.30  C 10013.83    325.30  10015.86    323.27  10015.86    320.77  " /><text style="&st18;" transform="matrix(&st16;  10009.02  322.73 )">A</text><text style="&st18;" transform="matrix(&st16;  10002.55  312.54 )">CANH</text></g><g ewd:lineID="271"><text style="&st18;" transform="matrix(&st16;  10186.53  322.73 )">76</text><path style="stroke-width: 1.42 ;&st7;   " d=" M 10202.83,   320.77  C 10202.83    318.26  10200.80    316.23  10198.30    316.23  " /><path style="stroke-width: 1.42 ;&st7;   " d=" M 10198.30,   316.23  C 10195.79    316.23  10193.76    318.26  10193.76    320.77  " /><path style="stroke-width: 1.42 ;&st7;   " d=" M 10193.76,   320.77  C 10193.76    323.27  10195.79    325.30  10198.30    325.30  " /><path style="stroke-width: 1.42 ;&st7;   " d=" M 10198.30,   325.30  C 10200.80    325.30  10202.83    323.27  10202.83    320.77  " /><text style="&st18;" transform="matrix(&st16;  10196.11  322.73 )">B</text><text style="&st18;" transform="matrix(&st16;  10192.58  312.54 )">NE+</text></g><g ewd:lineID="272"><text style="&st18;" transform="matrix(&st16;  10217.42  322.73 )">109</text><path style="stroke-width: 1.42 ;&st7;   " d=" M 10236.82,   320.77  C 10236.82    318.26  10234.79    316.23  10232.29    316.23  " /><path style="stroke-width: 1.42 ;&st7;   " d=" M 10232.29,   316.23  C 10229.79    316.23  10227.76    318.26  10227.76    320.77  " /><path style="stroke-width: 1.42 ;&st7;   " d=" M 10227.76,   320.77  C 10227.76    323.27  10229.79    325.30  10232.29    325.30  " /><path style="stroke-width: 1.42 ;&st7;   " d=" M 10232.29,   325.30  C 10234.79    325.30  10236.82    323.27  10236.82    320.77  " /><text style="&st18;" transform="matrix(&st16;  10230.1  322.73 )">B</text><text style="&st18;" transform="matrix(&st16;  10226.57  312.54 )">NE-</text></g></g><g ewd:figtype="conn" ewd:figID="50" ewd:code="B28"><path style="stroke-width: 1.42 ;&st7;  " d=" M 10181.29,   443.71  L 10181.29,   477.71  L 10249.28,   477.71  L 10249.28,   443.71  L 10181.29,   443.71  " /><g ewd:lineID="271"><text style="&st18;" transform="matrix(&st16;  10192.11  440.02 )">1</text><text style="&st18;" transform="matrix(&st16;  10194.13  451.35 )">NE</text></g><g ewd:lineID="272"><text style="&st18;" transform="matrix(&st16;  10226.11  440.02 )">2</text><text style="&st18;" transform="matrix(&st16;  10226.57  451.35 )">NE-</text></g><g ewd:figtype="title"><text style="&st18;" transform="matrix(&st16;  10177.89  492.42 )" ewd:textID="17">Sensor de la posición del cigüeñal</text><text style="&st18;" transform="matrix(&st16;  10177.89  485.6 )">B28</text></g></g><g ewd:figtype="conn" ewd:figID="51" ewd:code="G98"><path style="stroke-width: 1.42 ;&st7;  " d=" M 10478.74,   571.19  L 10495.74,   571.19  L 10495.74,   588.19  L 10478.74,   588.19  L 10478.74,   571.19  " /><path style="stroke-width: 0.85 ;&st7;  " d=" M 10487.24,   571.19  L 10487.24,   588.19  " /><text style="&st18;" transform="matrix(&st16;  10481.06  596.38 )">6</text><text style="&st18;" transform="matrix(&st16;  10481.06  567.5 )">8</text><g ewd:figtype="title"><text style="&st18;" transform="matrix(&st17;  10510.46  591.09 )" ewd:textID="41">Conector de<tspan x="0 " dy="6.0">unión n.° 11</tspan></text><text style="&st18;" transform="matrix(&st17;  10503.64  591.09 )">G98</text></g></g><g ewd:figtype="gp" ewd:figID="173" ewd:code="BC"><path style="stroke-width: 0.85 ;&st7;  " d=" M 10297.44,   707.17  L 10303.11,   707.17  " /><path style="stroke-width: 0.85 ;&st7;  " d=" M 10296.03,   704.33  L 10304.52,   704.33  " /><path style="stroke-width: 0.85 ;&st7;  " d=" M 10291.78,   701.50  L 10308.77,   701.50  " /><path style="stroke-width: 0.85 ;&st7;  " d=" M 10300.27,   697.25  L 10300.27,   701.50  " /><path style="stroke-width: 0.85 ;&st7;  " d=" M 10298.86,   710.00  L 10301.69,   710.00  " /></g><g ewd:figtype="gp" ewd:figID="174" ewd:code="GD"><path style="stroke-width: 0.85 ;&st7;  " d=" M 10485.83,   710.00  L 10488.66,   710.00  " /><path style="stroke-width: 0.85 ;&st7;  " d=" M 10484.41,   707.17  L 10490.08,   707.17  " /><path style="stroke-width: 0.85 ;&st7;  " d=" M 10482.99,   704.33  L 10491.49,   704.33  " /><path style="stroke-width: 0.85 ;&st7;  " d=" M 10478.74,   701.50  L 10495.74,   701.50  " /><path style="stroke-width: 0.85 ;&st7;  " d=" M 10487.24,   697.25  L 10487.24,   701.50  " /></g><g ewd:code=" " ewd:figID="243" ewd:comment=" " ewd:figtype="sh"><path style="stroke-width: 0.85 ;&st7; stroke-dasharray:3, 1.5;" d=" M 10249.28,   341.73  L 10181.29,   341.73  L 10181.29,   375.72  L 10249.28,   375.72  L 10249.28,   341.73  " /><path style="stroke-width: 0.85 ;&st7;  " d=" M 10248.09,   340.73  L 10247.82,   341.20  L 10247.73,   341.73  L 10247.82,   342.26  L 10248.09,   342.73  L 10248.50,   343.08  L 10249.01,   343.26  L 10249.55,   343.26  L 10250.06,   343.08  L 10250.48,   342.73  L 10250.75,   342.26  L 10250.84,   341.73  L 10250.75,   341.20  L 10250.48,   340.73  L 10250.06,   340.38  L 10249.55,   340.19  L 10249.01,   340.19  L 10248.50,   340.38  L 10248.09,   340.73  L 10248.48,   341.44  L 10248.48,   342.02  L 10248.86,   342.46  L 10249.43,   342.56  L 10249.93,   342.28  L 10250.13,   341.73  L 10249.93,   341.18  L 10249.43,   340.89  L 10248.86,   340.99  L 10249.28,   341.73  " /><g ewd:code="" ewd:figID="220" ewd:comment=" " ewd:figtype="commref"><text style="&st18;" transform="matrix(&st17; 10177.60 373.46)" ewd:textID="1">(Protegido)</text></g></g></svg>